{
  "id": null,
  "name": "CollaborationGroup",
  "type": 0,
  "url": null,
  "dicReferencedBy": null,
  "dicReferencedTo": null,
  "sObjectprefix": null,
  "sObject": {
    "activateable": false,
    "createable": true,
    "custom": false,
    "customSetting": false,
    "deletable": true,
    "deprecatedAndHidden": false,
    "feedEnabled": true,
    "keyPrefix": "0F9",
    "label": "Group",
    "labelPlural": "Groups",
    "layoutable": true,
    "mergeable": false,
    "name": "CollaborationGroup",
    "queryable": true,
    "replicateable": false,
    "retrieveable": true,
    "searchable": true,
    "triggerable": true,
    "undeletable": false,
    "updateable": true
  },
  "dictStandardFields": {
    "Id": {
      "dictFields": null,
      "autoNumber": false,
      "byteLength": 0,
      "calculated": false,
      "calculatedFormula": false,
      "cascadeDelete": false,
      "caseSensitive": false,
      "controllerName": false,
      "createable": false,
      "custom": false,
      "defaultValue": false,
      "defaultValueFormula": null,
      "defaultedOnCreate": false,
      "dependentPicklist": false,
      "deprecatedAndHidden": false,
      "digits": 0,
      "displayLocationInDecimal": false,
      "externalId": false,
      "extraTypeInfo": false,
      "filterable": false,
      "filteredLookupInfo": false,
      "groupable": false,
      "htmlFormatted": false,
      "idLookup": false,
      "inlineHelpText": false,
      "label": false,
      "length": false,
      "mask": false,
      "maskType": false,
      "name": "Id",
      "nameField": false,
      "namePointing": false,
      "nillable": false,
      "permissionable": false,
      "picklistValues": false,
      "precision": false,
      "queryByDistance": false,
      "referenceTargetField": false,
      "referenceTo": false,
      "relationshipName": false,
      "relationshipOrder": false,
      "restrictedDelete": false,
      "restrictedPicklist": false,
      "scale": false,
      "soapType": false,
      "sortable": false,
      "type": false,
      "unique": false,
      "updateable": false,
      "writeRequiresMasterRead": false
    },
    "Name": {
      "dictFields": null,
      "autoNumber": false,
      "byteLength": 0,
      "calculated": false,
      "calculatedFormula": false,
      "cascadeDelete": false,
      "caseSensitive": false,
      "controllerName": false,
      "createable": false,
      "custom": false,
      "defaultValue": false,
      "defaultValueFormula": null,
      "defaultedOnCreate": false,
      "dependentPicklist": false,
      "deprecatedAndHidden": false,
      "digits": 0,
      "displayLocationInDecimal": false,
      "externalId": false,
      "extraTypeInfo": false,
      "filterable": false,
      "filteredLookupInfo": false,
      "groupable": false,
      "htmlFormatted": false,
      "idLookup": false,
      "inlineHelpText": false,
      "label": false,
      "length": false,
      "mask": false,
      "maskType": false,
      "name": "Name",
      "nameField": false,
      "namePointing": false,
      "nillable": false,
      "permissionable": false,
      "picklistValues": false,
      "precision": false,
      "queryByDistance": false,
      "referenceTargetField": false,
      "referenceTo": false,
      "relationshipName": false,
      "relationshipOrder": false,
      "restrictedDelete": false,
      "restrictedPicklist": false,
      "scale": false,
      "soapType": false,
      "sortable": false,
      "type": false,
      "unique": false,
      "updateable": false,
      "writeRequiresMasterRead": false
    },
    "MemberCount": {
      "dictFields": null,
      "autoNumber": false,
      "byteLength": 0,
      "calculated": false,
      "calculatedFormula": false,
      "cascadeDelete": false,
      "caseSensitive": false,
      "controllerName": false,
      "createable": false,
      "custom": false,
      "defaultValue": false,
      "defaultValueFormula": null,
      "defaultedOnCreate": false,
      "dependentPicklist": false,
      "deprecatedAndHidden": false,
      "digits": 0,
      "displayLocationInDecimal": false,
      "externalId": false,
      "extraTypeInfo": false,
      "filterable": false,
      "filteredLookupInfo": false,
      "groupable": false,
      "htmlFormatted": false,
      "idLookup": false,
      "inlineHelpText": false,
      "label": false,
      "length": false,
      "mask": false,
      "maskType": false,
      "name": "MemberCount",
      "nameField": false,
      "namePointing": false,
      "nillable": false,
      "permissionable": false,
      "picklistValues": false,
      "precision": false,
      "queryByDistance": false,
      "referenceTargetField": false,
      "referenceTo": false,
      "relationshipName": false,
      "relationshipOrder": false,
      "restrictedDelete": false,
      "restrictedPicklist": false,
      "scale": false,
      "soapType": false,
      "sortable": false,
      "type": false,
      "unique": false,
      "updateable": false,
      "writeRequiresMasterRead": false
    },
    "OwnerId": {
      "dictFields": null,
      "autoNumber": false,
      "byteLength": 0,
      "calculated": false,
      "calculatedFormula": false,
      "cascadeDelete": false,
      "caseSensitive": false,
      "controllerName": false,
      "createable": false,
      "custom": false,
      "defaultValue": false,
      "defaultValueFormula": null,
      "defaultedOnCreate": false,
      "dependentPicklist": false,
      "deprecatedAndHidden": false,
      "digits": 0,
      "displayLocationInDecimal": false,
      "externalId": false,
      "extraTypeInfo": false,
      "filterable": false,
      "filteredLookupInfo": false,
      "groupable": false,
      "htmlFormatted": false,
      "idLookup": false,
      "inlineHelpText": false,
      "label": false,
      "length": false,
      "mask": false,
      "maskType": false,
      "name": "OwnerId",
      "nameField": false,
      "namePointing": false,
      "nillable": false,
      "permissionable": false,
      "picklistValues": false,
      "precision": false,
      "queryByDistance": false,
      "referenceTargetField": false,
      "referenceTo": false,
      "relationshipName": false,
      "relationshipOrder": false,
      "restrictedDelete": false,
      "restrictedPicklist": false,
      "scale": false,
      "soapType": false,
      "sortable": false,
      "type": false,
      "unique": false,
      "updateable": false,
      "writeRequiresMasterRead": false
    },
    "CollaborationType": {
      "dictFields": null,
      "autoNumber": false,
      "byteLength": 0,
      "calculated": false,
      "calculatedFormula": false,
      "cascadeDelete": false,
      "caseSensitive": false,
      "controllerName": false,
      "createable": false,
      "custom": false,
      "defaultValue": false,
      "defaultValueFormula": null,
      "defaultedOnCreate": false,
      "dependentPicklist": false,
      "deprecatedAndHidden": false,
      "digits": 0,
      "displayLocationInDecimal": false,
      "externalId": false,
      "extraTypeInfo": false,
      "filterable": false,
      "filteredLookupInfo": false,
      "groupable": false,
      "htmlFormatted": false,
      "idLookup": false,
      "inlineHelpText": false,
      "label": false,
      "length": false,
      "mask": false,
      "maskType": false,
      "name": "CollaborationType",
      "nameField": false,
      "namePointing": false,
      "nillable": false,
      "permissionable": false,
      "picklistValues": false,
      "precision": false,
      "queryByDistance": false,
      "referenceTargetField": false,
      "referenceTo": false,
      "relationshipName": false,
      "relationshipOrder": false,
      "restrictedDelete": false,
      "restrictedPicklist": false,
      "scale": false,
      "soapType": false,
      "sortable": false,
      "type": false,
      "unique": false,
      "updateable": false,
      "writeRequiresMasterRead": false
    },
    "Description": {
      "dictFields": null,
      "autoNumber": false,
      "byteLength": 0,
      "calculated": false,
      "calculatedFormula": false,
      "cascadeDelete": false,
      "caseSensitive": false,
      "controllerName": false,
      "createable": false,
      "custom": false,
      "defaultValue": false,
      "defaultValueFormula": null,
      "defaultedOnCreate": false,
      "dependentPicklist": false,
      "deprecatedAndHidden": false,
      "digits": 0,
      "displayLocationInDecimal": false,
      "externalId": false,
      "extraTypeInfo": false,
      "filterable": false,
      "filteredLookupInfo": false,
      "groupable": false,
      "htmlFormatted": false,
      "idLookup": false,
      "inlineHelpText": false,
      "label": false,
      "length": false,
      "mask": false,
      "maskType": false,
      "name": "Description",
      "nameField": false,
      "namePointing": false,
      "nillable": false,
      "permissionable": false,
      "picklistValues": false,
      "precision": false,
      "queryByDistance": false,
      "referenceTargetField": false,
      "referenceTo": false,
      "relationshipName": false,
      "relationshipOrder": false,
      "restrictedDelete": false,
      "restrictedPicklist": false,
      "scale": false,
      "soapType": false,
      "sortable": false,
      "type": false,
      "unique": false,
      "updateable": false,
      "writeRequiresMasterRead": false
    },
    "CreatedDate": {
      "dictFields": null,
      "autoNumber": false,
      "byteLength": 0,
      "calculated": false,
      "calculatedFormula": false,
      "cascadeDelete": false,
      "caseSensitive": false,
      "controllerName": false,
      "createable": false,
      "custom": false,
      "defaultValue": false,
      "defaultValueFormula": null,
      "defaultedOnCreate": false,
      "dependentPicklist": false,
      "deprecatedAndHidden": false,
      "digits": 0,
      "displayLocationInDecimal": false,
      "externalId": false,
      "extraTypeInfo": false,
      "filterable": false,
      "filteredLookupInfo": false,
      "groupable": false,
      "htmlFormatted": false,
      "idLookup": false,
      "inlineHelpText": false,
      "label": false,
      "length": false,
      "mask": false,
      "maskType": false,
      "name": "CreatedDate",
      "nameField": false,
      "namePointing": false,
      "nillable": false,
      "permissionable": false,
      "picklistValues": false,
      "precision": false,
      "queryByDistance": false,
      "referenceTargetField": false,
      "referenceTo": false,
      "relationshipName": false,
      "relationshipOrder": false,
      "restrictedDelete": false,
      "restrictedPicklist": false,
      "scale": false,
      "soapType": false,
      "sortable": false,
      "type": false,
      "unique": false,
      "updateable": false,
      "writeRequiresMasterRead": false
    },
    "CreatedById": {
      "dictFields": null,
      "autoNumber": false,
      "byteLength": 0,
      "calculated": false,
      "calculatedFormula": false,
      "cascadeDelete": false,
      "caseSensitive": false,
      "controllerName": false,
      "createable": false,
      "custom": false,
      "defaultValue": false,
      "defaultValueFormula": null,
      "defaultedOnCreate": false,
      "dependentPicklist": false,
      "deprecatedAndHidden": false,
      "digits": 0,
      "displayLocationInDecimal": false,
      "externalId": false,
      "extraTypeInfo": false,
      "filterable": false,
      "filteredLookupInfo": false,
      "groupable": false,
      "htmlFormatted": false,
      "idLookup": false,
      "inlineHelpText": false,
      "label": false,
      "length": false,
      "mask": false,
      "maskType": false,
      "name": "CreatedById",
      "nameField": false,
      "namePointing": false,
      "nillable": false,
      "permissionable": false,
      "picklistValues": false,
      "precision": false,
      "queryByDistance": false,
      "referenceTargetField": false,
      "referenceTo": false,
      "relationshipName": false,
      "relationshipOrder": false,
      "restrictedDelete": false,
      "restrictedPicklist": false,
      "scale": false,
      "soapType": false,
      "sortable": false,
      "type": false,
      "unique": false,
      "updateable": false,
      "writeRequiresMasterRead": false
    },
    "LastModifiedDate": {
      "dictFields": null,
      "autoNumber": false,
      "byteLength": 0,
      "calculated": false,
      "calculatedFormula": false,
      "cascadeDelete": false,
      "caseSensitive": false,
      "controllerName": false,
      "createable": false,
      "custom": false,
      "defaultValue": false,
      "defaultValueFormula": null,
      "defaultedOnCreate": false,
      "dependentPicklist": false,
      "deprecatedAndHidden": false,
      "digits": 0,
      "displayLocationInDecimal": false,
      "externalId": false,
      "extraTypeInfo": false,
      "filterable": false,
      "filteredLookupInfo": false,
      "groupable": false,
      "htmlFormatted": false,
      "idLookup": false,
      "inlineHelpText": false,
      "label": false,
      "length": false,
      "mask": false,
      "maskType": false,
      "name": "LastModifiedDate",
      "nameField": false,
      "namePointing": false,
      "nillable": false,
      "permissionable": false,
      "picklistValues": false,
      "precision": false,
      "queryByDistance": false,
      "referenceTargetField": false,
      "referenceTo": false,
      "relationshipName": false,
      "relationshipOrder": false,
      "restrictedDelete": false,
      "restrictedPicklist": false,
      "scale": false,
      "soapType": false,
      "sortable": false,
      "type": false,
      "unique": false,
      "updateable": false,
      "writeRequiresMasterRead": false
    },
    "LastModifiedById": {
      "dictFields": null,
      "autoNumber": false,
      "byteLength": 0,
      "calculated": false,
      "calculatedFormula": false,
      "cascadeDelete": false,
      "caseSensitive": false,
      "controllerName": false,
      "createable": false,
      "custom": false,
      "defaultValue": false,
      "defaultValueFormula": null,
      "defaultedOnCreate": false,
      "dependentPicklist": false,
      "deprecatedAndHidden": false,
      "digits": 0,
      "displayLocationInDecimal": false,
      "externalId": false,
      "extraTypeInfo": false,
      "filterable": false,
      "filteredLookupInfo": false,
      "groupable": false,
      "htmlFormatted": false,
      "idLookup": false,
      "inlineHelpText": false,
      "label": false,
      "length": false,
      "mask": false,
      "maskType": false,
      "name": "LastModifiedById",
      "nameField": false,
      "namePointing": false,
      "nillable": false,
      "permissionable": false,
      "picklistValues": false,
      "precision": false,
      "queryByDistance": false,
      "referenceTargetField": false,
      "referenceTo": false,
      "relationshipName": false,
      "relationshipOrder": false,
      "restrictedDelete": false,
      "restrictedPicklist": false,
      "scale": false,
      "soapType": false,
      "sortable": false,
      "type": false,
      "unique": false,
      "updateable": false,
      "writeRequiresMasterRead": false
    },
    "SystemModstamp": {
      "dictFields": null,
      "autoNumber": false,
      "byteLength": 0,
      "calculated": false,
      "calculatedFormula": false,
      "cascadeDelete": false,
      "caseSensitive": false,
      "controllerName": false,
      "createable": false,
      "custom": false,
      "defaultValue": false,
      "defaultValueFormula": null,
      "defaultedOnCreate": false,
      "dependentPicklist": false,
      "deprecatedAndHidden": false,
      "digits": 0,
      "displayLocationInDecimal": false,
      "externalId": false,
      "extraTypeInfo": false,
      "filterable": false,
      "filteredLookupInfo": false,
      "groupable": false,
      "htmlFormatted": false,
      "idLookup": false,
      "inlineHelpText": false,
      "label": false,
      "length": false,
      "mask": false,
      "maskType": false,
      "name": "SystemModstamp",
      "nameField": false,
      "namePointing": false,
      "nillable": false,
      "permissionable": false,
      "picklistValues": false,
      "precision": false,
      "queryByDistance": false,
      "referenceTargetField": false,
      "referenceTo": false,
      "relationshipName": false,
      "relationshipOrder": false,
      "restrictedDelete": false,
      "restrictedPicklist": false,
      "scale": false,
      "soapType": false,
      "sortable": false,
      "type": false,
      "unique": false,
      "updateable": false,
      "writeRequiresMasterRead": false
    },
    "FullPhotoUrl": {
      "dictFields": null,
      "autoNumber": false,
      "byteLength": 0,
      "calculated": false,
      "calculatedFormula": false,
      "cascadeDelete": false,
      "caseSensitive": false,
      "controllerName": false,
      "createable": false,
      "custom": false,
      "defaultValue": false,
      "defaultValueFormula": null,
      "defaultedOnCreate": false,
      "dependentPicklist": false,
      "deprecatedAndHidden": false,
      "digits": 0,
      "displayLocationInDecimal": false,
      "externalId": false,
      "extraTypeInfo": false,
      "filterable": false,
      "filteredLookupInfo": false,
      "groupable": false,
      "htmlFormatted": false,
      "idLookup": false,
      "inlineHelpText": false,
      "label": false,
      "length": false,
      "mask": false,
      "maskType": false,
      "name": "FullPhotoUrl",
      "nameField": false,
      "namePointing": false,
      "nillable": false,
      "permissionable": false,
      "picklistValues": false,
      "precision": false,
      "queryByDistance": false,
      "referenceTargetField": false,
      "referenceTo": false,
      "relationshipName": false,
      "relationshipOrder": false,
      "restrictedDelete": false,
      "restrictedPicklist": false,
      "scale": false,
      "soapType": false,
      "sortable": false,
      "type": false,
      "unique": false,
      "updateable": false,
      "writeRequiresMasterRead": false
    },
    "SmallPhotoUrl": {
      "dictFields": null,
      "autoNumber": false,
      "byteLength": 0,
      "calculated": false,
      "calculatedFormula": false,
      "cascadeDelete": false,
      "caseSensitive": false,
      "controllerName": false,
      "createable": false,
      "custom": false,
      "defaultValue": false,
      "defaultValueFormula": null,
      "defaultedOnCreate": false,
      "dependentPicklist": false,
      "deprecatedAndHidden": false,
      "digits": 0,
      "displayLocationInDecimal": false,
      "externalId": false,
      "extraTypeInfo": false,
      "filterable": false,
      "filteredLookupInfo": false,
      "groupable": false,
      "htmlFormatted": false,
      "idLookup": false,
      "inlineHelpText": false,
      "label": false,
      "length": false,
      "mask": false,
      "maskType": false,
      "name": "SmallPhotoUrl",
      "nameField": false,
      "namePointing": false,
      "nillable": false,
      "permissionable": false,
      "picklistValues": false,
      "precision": false,
      "queryByDistance": false,
      "referenceTargetField": false,
      "referenceTo": false,
      "relationshipName": false,
      "relationshipOrder": false,
      "restrictedDelete": false,
      "restrictedPicklist": false,
      "scale": false,
      "soapType": false,
      "sortable": false,
      "type": false,
      "unique": false,
      "updateable": false,
      "writeRequiresMasterRead": false
    },
    "LastFeedModifiedDate": {
      "dictFields": null,
      "autoNumber": false,
      "byteLength": 0,
      "calculated": false,
      "calculatedFormula": false,
      "cascadeDelete": false,
      "caseSensitive": false,
      "controllerName": false,
      "createable": false,
      "custom": false,
      "defaultValue": false,
      "defaultValueFormula": null,
      "defaultedOnCreate": false,
      "dependentPicklist": false,
      "deprecatedAndHidden": false,
      "digits": 0,
      "displayLocationInDecimal": false,
      "externalId": false,
      "extraTypeInfo": false,
      "filterable": false,
      "filteredLookupInfo": false,
      "groupable": false,
      "htmlFormatted": false,
      "idLookup": false,
      "inlineHelpText": false,
      "label": false,
      "length": false,
      "mask": false,
      "maskType": false,
      "name": "LastFeedModifiedDate",
      "nameField": false,
      "namePointing": false,
      "nillable": false,
      "permissionable": false,
      "picklistValues": false,
      "precision": false,
      "queryByDistance": false,
      "referenceTargetField": false,
      "referenceTo": false,
      "relationshipName": false,
      "relationshipOrder": false,
      "restrictedDelete": false,
      "restrictedPicklist": false,
      "scale": false,
      "soapType": false,
      "sortable": false,
      "type": false,
      "unique": false,
      "updateable": false,
      "writeRequiresMasterRead": false
    },
    "InformationTitle": {
      "dictFields": null,
      "autoNumber": false,
      "byteLength": 0,
      "calculated": false,
      "calculatedFormula": false,
      "cascadeDelete": false,
      "caseSensitive": false,
      "controllerName": false,
      "createable": false,
      "custom": false,
      "defaultValue": false,
      "defaultValueFormula": null,
      "defaultedOnCreate": false,
      "dependentPicklist": false,
      "deprecatedAndHidden": false,
      "digits": 0,
      "displayLocationInDecimal": false,
      "externalId": false,
      "extraTypeInfo": false,
      "filterable": false,
      "filteredLookupInfo": false,
      "groupable": false,
      "htmlFormatted": false,
      "idLookup": false,
      "inlineHelpText": false,
      "label": false,
      "length": false,
      "mask": false,
      "maskType": false,
      "name": "InformationTitle",
      "nameField": false,
      "namePointing": false,
      "nillable": false,
      "permissionable": false,
      "picklistValues": false,
      "precision": false,
      "queryByDistance": false,
      "referenceTargetField": false,
      "referenceTo": false,
      "relationshipName": false,
      "relationshipOrder": false,
      "restrictedDelete": false,
      "restrictedPicklist": false,
      "scale": false,
      "soapType": false,
      "sortable": false,
      "type": false,
      "unique": false,
      "updateable": false,
      "writeRequiresMasterRead": false
    },
    "InformationBody": {
      "dictFields": null,
      "autoNumber": false,
      "byteLength": 0,
      "calculated": false,
      "calculatedFormula": false,
      "cascadeDelete": false,
      "caseSensitive": false,
      "controllerName": false,
      "createable": false,
      "custom": false,
      "defaultValue": false,
      "defaultValueFormula": null,
      "defaultedOnCreate": false,
      "dependentPicklist": false,
      "deprecatedAndHidden": false,
      "digits": 0,
      "displayLocationInDecimal": false,
      "externalId": false,
      "extraTypeInfo": false,
      "filterable": false,
      "filteredLookupInfo": false,
      "groupable": false,
      "htmlFormatted": false,
      "idLookup": false,
      "inlineHelpText": false,
      "label": false,
      "length": false,
      "mask": false,
      "maskType": false,
      "name": "InformationBody",
      "nameField": false,
      "namePointing": false,
      "nillable": false,
      "permissionable": false,
      "picklistValues": false,
      "precision": false,
      "queryByDistance": false,
      "referenceTargetField": false,
      "referenceTo": false,
      "relationshipName": false,
      "relationshipOrder": false,
      "restrictedDelete": false,
      "restrictedPicklist": false,
      "scale": false,
      "soapType": false,
      "sortable": false,
      "type": false,
      "unique": false,
      "updateable": false,
      "writeRequiresMasterRead": false
    },
    "HasPrivateFieldsAccess": {
      "dictFields": null,
      "autoNumber": false,
      "byteLength": 0,
      "calculated": false,
      "calculatedFormula": false,
      "cascadeDelete": false,
      "caseSensitive": false,
      "controllerName": false,
      "createable": false,
      "custom": false,
      "defaultValue": false,
      "defaultValueFormula": null,
      "defaultedOnCreate": false,
      "dependentPicklist": false,
      "deprecatedAndHidden": false,
      "digits": 0,
      "displayLocationInDecimal": false,
      "externalId": false,
      "extraTypeInfo": false,
      "filterable": false,
      "filteredLookupInfo": false,
      "groupable": false,
      "htmlFormatted": false,
      "idLookup": false,
      "inlineHelpText": false,
      "label": false,
      "length": false,
      "mask": false,
      "maskType": false,
      "name": "HasPrivateFieldsAccess",
      "nameField": false,
      "namePointing": false,
      "nillable": false,
      "permissionable": false,
      "picklistValues": false,
      "precision": false,
      "queryByDistance": false,
      "referenceTargetField": false,
      "referenceTo": false,
      "relationshipName": false,
      "relationshipOrder": false,
      "restrictedDelete": false,
      "restrictedPicklist": false,
      "scale": false,
      "soapType": false,
      "sortable": false,
      "type": false,
      "unique": false,
      "updateable": false,
      "writeRequiresMasterRead": false
    },
    "CanHaveGuests": {
      "dictFields": null,
      "autoNumber": false,
      "byteLength": 0,
      "calculated": false,
      "calculatedFormula": false,
      "cascadeDelete": false,
      "caseSensitive": false,
      "controllerName": false,
      "createable": false,
      "custom": false,
      "defaultValue": false,
      "defaultValueFormula": null,
      "defaultedOnCreate": false,
      "dependentPicklist": false,
      "deprecatedAndHidden": false,
      "digits": 0,
      "displayLocationInDecimal": false,
      "externalId": false,
      "extraTypeInfo": false,
      "filterable": false,
      "filteredLookupInfo": false,
      "groupable": false,
      "htmlFormatted": false,
      "idLookup": false,
      "inlineHelpText": false,
      "label": false,
      "length": false,
      "mask": false,
      "maskType": false,
      "name": "CanHaveGuests",
      "nameField": false,
      "namePointing": false,
      "nillable": false,
      "permissionable": false,
      "picklistValues": false,
      "precision": false,
      "queryByDistance": false,
      "referenceTargetField": false,
      "referenceTo": false,
      "relationshipName": false,
      "relationshipOrder": false,
      "restrictedDelete": false,
      "restrictedPicklist": false,
      "scale": false,
      "soapType": false,
      "sortable": false,
      "type": false,
      "unique": false,
      "updateable": false,
      "writeRequiresMasterRead": false
    },
    "NetworkId": {
      "dictFields": null,
      "autoNumber": false,
      "byteLength": 0,
      "calculated": false,
      "calculatedFormula": false,
      "cascadeDelete": false,
      "caseSensitive": false,
      "controllerName": false,
      "createable": false,
      "custom": false,
      "defaultValue": false,
      "defaultValueFormula": null,
      "defaultedOnCreate": false,
      "dependentPicklist": false,
      "deprecatedAndHidden": false,
      "digits": 0,
      "displayLocationInDecimal": false,
      "externalId": false,
      "extraTypeInfo": false,
      "filterable": false,
      "filteredLookupInfo": false,
      "groupable": false,
      "htmlFormatted": false,
      "idLookup": false,
      "inlineHelpText": false,
      "label": false,
      "length": false,
      "mask": false,
      "maskType": false,
      "name": "NetworkId",
      "nameField": false,
      "namePointing": false,
      "nillable": false,
      "permissionable": false,
      "picklistValues": false,
      "precision": false,
      "queryByDistance": false,
      "referenceTargetField": false,
      "referenceTo": false,
      "relationshipName": false,
      "relationshipOrder": false,
      "restrictedDelete": false,
      "restrictedPicklist": false,
      "scale": false,
      "soapType": false,
      "sortable": false,
      "type": false,
      "unique": false,
      "updateable": false,
      "writeRequiresMasterRead": false
    },
    "LastViewedDate": {
      "dictFields": null,
      "autoNumber": false,
      "byteLength": 0,
      "calculated": false,
      "calculatedFormula": false,
      "cascadeDelete": false,
      "caseSensitive": false,
      "controllerName": false,
      "createable": false,
      "custom": false,
      "defaultValue": false,
      "defaultValueFormula": null,
      "defaultedOnCreate": false,
      "dependentPicklist": false,
      "deprecatedAndHidden": false,
      "digits": 0,
      "displayLocationInDecimal": false,
      "externalId": false,
      "extraTypeInfo": false,
      "filterable": false,
      "filteredLookupInfo": false,
      "groupable": false,
      "htmlFormatted": false,
      "idLookup": false,
      "inlineHelpText": false,
      "label": false,
      "length": false,
      "mask": false,
      "maskType": false,
      "name": "LastViewedDate",
      "nameField": false,
      "namePointing": false,
      "nillable": false,
      "permissionable": false,
      "picklistValues": false,
      "precision": false,
      "queryByDistance": false,
      "referenceTargetField": false,
      "referenceTo": false,
      "relationshipName": false,
      "relationshipOrder": false,
      "restrictedDelete": false,
      "restrictedPicklist": false,
      "scale": false,
      "soapType": false,
      "sortable": false,
      "type": false,
      "unique": false,
      "updateable": false,
      "writeRequiresMasterRead": false
    },
    "LastReferencedDate": {
      "dictFields": null,
      "autoNumber": false,
      "byteLength": 0,
      "calculated": false,
      "calculatedFormula": false,
      "cascadeDelete": false,
      "caseSensitive": false,
      "controllerName": false,
      "createable": false,
      "custom": false,
      "defaultValue": false,
      "defaultValueFormula": null,
      "defaultedOnCreate": false,
      "dependentPicklist": false,
      "deprecatedAndHidden": false,
      "digits": 0,
      "displayLocationInDecimal": false,
      "externalId": false,
      "extraTypeInfo": false,
      "filterable": false,
      "filteredLookupInfo": false,
      "groupable": false,
      "htmlFormatted": false,
      "idLookup": false,
      "inlineHelpText": false,
      "label": false,
      "length": false,
      "mask": false,
      "maskType": false,
      "name": "LastReferencedDate",
      "nameField": false,
      "namePointing": false,
      "nillable": false,
      "permissionable": false,
      "picklistValues": false,
      "precision": false,
      "queryByDistance": false,
      "referenceTargetField": false,
      "referenceTo": false,
      "relationshipName": false,
      "relationshipOrder": false,
      "restrictedDelete": false,
      "restrictedPicklist": false,
      "scale": false,
      "soapType": false,
      "sortable": false,
      "type": false,
      "unique": false,
      "updateable": false,
      "writeRequiresMasterRead": false
    },
    "IsArchived": {
      "dictFields": null,
      "autoNumber": false,
      "byteLength": 0,
      "calculated": false,
      "calculatedFormula": false,
      "cascadeDelete": false,
      "caseSensitive": false,
      "controllerName": false,
      "createable": false,
      "custom": false,
      "defaultValue": false,
      "defaultValueFormula": null,
      "defaultedOnCreate": false,
      "dependentPicklist": false,
      "deprecatedAndHidden": false,
      "digits": 0,
      "displayLocationInDecimal": false,
      "externalId": false,
      "extraTypeInfo": false,
      "filterable": false,
      "filteredLookupInfo": false,
      "groupable": false,
      "htmlFormatted": false,
      "idLookup": false,
      "inlineHelpText": false,
      "label": false,
      "length": false,
      "mask": false,
      "maskType": false,
      "name": "IsArchived",
      "nameField": false,
      "namePointing": false,
      "nillable": false,
      "permissionable": false,
      "picklistValues": false,
      "precision": false,
      "queryByDistance": false,
      "referenceTargetField": false,
      "referenceTo": false,
      "relationshipName": false,
      "relationshipOrder": false,
      "restrictedDelete": false,
      "restrictedPicklist": false,
      "scale": false,
      "soapType": false,
      "sortable": false,
      "type": false,
      "unique": false,
      "updateable": false,
      "writeRequiresMasterRead": false
    },
    "IsAutoArchiveDisabled": {
      "dictFields": null,
      "autoNumber": false,
      "byteLength": 0,
      "calculated": false,
      "calculatedFormula": false,
      "cascadeDelete": false,
      "caseSensitive": false,
      "controllerName": false,
      "createable": false,
      "custom": false,
      "defaultValue": false,
      "defaultValueFormula": null,
      "defaultedOnCreate": false,
      "dependentPicklist": false,
      "deprecatedAndHidden": false,
      "digits": 0,
      "displayLocationInDecimal": false,
      "externalId": false,
      "extraTypeInfo": false,
      "filterable": false,
      "filteredLookupInfo": false,
      "groupable": false,
      "htmlFormatted": false,
      "idLookup": false,
      "inlineHelpText": false,
      "label": false,
      "length": false,
      "mask": false,
      "maskType": false,
      "name": "IsAutoArchiveDisabled",
      "nameField": false,
      "namePointing": false,
      "nillable": false,
      "permissionable": false,
      "picklistValues": false,
      "precision": false,
      "queryByDistance": false,
      "referenceTargetField": false,
      "referenceTo": false,
      "relationshipName": false,
      "relationshipOrder": false,
      "restrictedDelete": false,
      "restrictedPicklist": false,
      "scale": false,
      "soapType": false,
      "sortable": false,
      "type": false,
      "unique": false,
      "updateable": false,
      "writeRequiresMasterRead": false
    },
    "AnnouncementId": {
      "dictFields": null,
      "autoNumber": false,
      "byteLength": 0,
      "calculated": false,
      "calculatedFormula": false,
      "cascadeDelete": false,
      "caseSensitive": false,
      "controllerName": false,
      "createable": false,
      "custom": false,
      "defaultValue": false,
      "defaultValueFormula": null,
      "defaultedOnCreate": false,
      "dependentPicklist": false,
      "deprecatedAndHidden": false,
      "digits": 0,
      "displayLocationInDecimal": false,
      "externalId": false,
      "extraTypeInfo": false,
      "filterable": false,
      "filteredLookupInfo": false,
      "groupable": false,
      "htmlFormatted": false,
      "idLookup": false,
      "inlineHelpText": false,
      "label": false,
      "length": false,
      "mask": false,
      "maskType": false,
      "name": "AnnouncementId",
      "nameField": false,
      "namePointing": false,
      "nillable": false,
      "permissionable": false,
      "picklistValues": false,
      "precision": false,
      "queryByDistance": false,
      "referenceTargetField": false,
      "referenceTo": false,
      "relationshipName": false,
      "relationshipOrder": false,
      "restrictedDelete": false,
      "restrictedPicklist": false,
      "scale": false,
      "soapType": false,
      "sortable": false,
      "type": false,
      "unique": false,
      "updateable": false,
      "writeRequiresMasterRead": false
    }
  },
  "dictCustomFields": {}
}
