{
  "id": null,
  "name": "ccrz__E_OrderItem__c",
  "type": 0,
  "url": null,
  "dicReferencedBy": null,
  "dicReferencedTo": null,
  "sObjectprefix": null,
  "sObject": {
    "activateable": false,
    "createable": true,
    "custom": true,
    "customSetting": false,
    "deletable": true,
    "deprecatedAndHidden": false,
    "feedEnabled": false,
    "keyPrefix": "a3Q",
    "label": "CC Order Item",
    "labelPlural": "CC Order Items",
    "layoutable": true,
    "mergeable": false,
    "name": "ccrz__E_OrderItem__c",
    "queryable": true,
    "replicateable": true,
    "retrieveable": true,
    "searchable": true,
    "triggerable": true,
    "undeletable": true,
    "updateable": true
  },
  "dictStandardFields": {
    "Id": {
      "dictFields": null,
      "autoNumber": false,
      "byteLength": 0,
      "calculated": false,
      "calculatedFormula": false,
      "cascadeDelete": false,
      "caseSensitive": false,
      "controllerName": false,
      "createable": false,
      "custom": false,
      "defaultValue": false,
      "defaultValueFormula": null,
      "defaultedOnCreate": false,
      "dependentPicklist": false,
      "deprecatedAndHidden": false,
      "digits": 0,
      "displayLocationInDecimal": false,
      "externalId": false,
      "extraTypeInfo": false,
      "filterable": false,
      "filteredLookupInfo": false,
      "groupable": false,
      "htmlFormatted": false,
      "idLookup": false,
      "inlineHelpText": false,
      "label": false,
      "length": false,
      "mask": false,
      "maskType": false,
      "name": "Id",
      "nameField": false,
      "namePointing": false,
      "nillable": false,
      "permissionable": false,
      "picklistValues": false,
      "precision": false,
      "queryByDistance": false,
      "referenceTargetField": false,
      "referenceTo": false,
      "relationshipName": false,
      "relationshipOrder": false,
      "restrictedDelete": false,
      "restrictedPicklist": false,
      "scale": false,
      "soapType": false,
      "sortable": false,
      "type": false,
      "unique": false,
      "updateable": false,
      "writeRequiresMasterRead": false
    },
    "IsDeleted": {
      "dictFields": null,
      "autoNumber": false,
      "byteLength": 0,
      "calculated": false,
      "calculatedFormula": false,
      "cascadeDelete": false,
      "caseSensitive": false,
      "controllerName": false,
      "createable": false,
      "custom": false,
      "defaultValue": false,
      "defaultValueFormula": null,
      "defaultedOnCreate": false,
      "dependentPicklist": false,
      "deprecatedAndHidden": false,
      "digits": 0,
      "displayLocationInDecimal": false,
      "externalId": false,
      "extraTypeInfo": false,
      "filterable": false,
      "filteredLookupInfo": false,
      "groupable": false,
      "htmlFormatted": false,
      "idLookup": false,
      "inlineHelpText": false,
      "label": false,
      "length": false,
      "mask": false,
      "maskType": false,
      "name": "IsDeleted",
      "nameField": false,
      "namePointing": false,
      "nillable": false,
      "permissionable": false,
      "picklistValues": false,
      "precision": false,
      "queryByDistance": false,
      "referenceTargetField": false,
      "referenceTo": false,
      "relationshipName": false,
      "relationshipOrder": false,
      "restrictedDelete": false,
      "restrictedPicklist": false,
      "scale": false,
      "soapType": false,
      "sortable": false,
      "type": false,
      "unique": false,
      "updateable": false,
      "writeRequiresMasterRead": false
    },
    "Name": {
      "dictFields": null,
      "autoNumber": true,
      "byteLength": 0,
      "calculated": false,
      "calculatedFormula": false,
      "cascadeDelete": false,
      "caseSensitive": false,
      "controllerName": false,
      "createable": false,
      "custom": false,
      "defaultValue": false,
      "defaultValueFormula": null,
      "defaultedOnCreate": false,
      "dependentPicklist": false,
      "deprecatedAndHidden": false,
      "digits": 0,
      "displayLocationInDecimal": false,
      "externalId": false,
      "extraTypeInfo": false,
      "filterable": false,
      "filteredLookupInfo": false,
      "groupable": false,
      "htmlFormatted": false,
      "idLookup": false,
      "inlineHelpText": false,
      "label": false,
      "length": false,
      "mask": false,
      "maskType": false,
      "name": "Name",
      "nameField": false,
      "namePointing": false,
      "nillable": false,
      "permissionable": false,
      "picklistValues": false,
      "precision": false,
      "queryByDistance": false,
      "referenceTargetField": false,
      "referenceTo": false,
      "relationshipName": false,
      "relationshipOrder": false,
      "restrictedDelete": false,
      "restrictedPicklist": false,
      "scale": false,
      "soapType": false,
      "sortable": false,
      "type": false,
      "unique": false,
      "updateable": false,
      "writeRequiresMasterRead": false
    },
    "CurrencyIsoCode": {
      "dictFields": null,
      "autoNumber": false,
      "byteLength": 0,
      "calculated": false,
      "calculatedFormula": false,
      "cascadeDelete": false,
      "caseSensitive": false,
      "controllerName": false,
      "createable": false,
      "custom": false,
      "defaultValue": false,
      "defaultValueFormula": null,
      "defaultedOnCreate": false,
      "dependentPicklist": false,
      "deprecatedAndHidden": false,
      "digits": 0,
      "displayLocationInDecimal": false,
      "externalId": false,
      "extraTypeInfo": false,
      "filterable": false,
      "filteredLookupInfo": false,
      "groupable": false,
      "htmlFormatted": false,
      "idLookup": false,
      "inlineHelpText": false,
      "label": false,
      "length": false,
      "mask": false,
      "maskType": false,
      "name": "CurrencyIsoCode",
      "nameField": false,
      "namePointing": false,
      "nillable": false,
      "permissionable": false,
      "picklistValues": false,
      "precision": false,
      "queryByDistance": false,
      "referenceTargetField": false,
      "referenceTo": false,
      "relationshipName": false,
      "relationshipOrder": false,
      "restrictedDelete": false,
      "restrictedPicklist": false,
      "scale": false,
      "soapType": false,
      "sortable": false,
      "type": false,
      "unique": false,
      "updateable": false,
      "writeRequiresMasterRead": false
    },
    "CreatedDate": {
      "dictFields": null,
      "autoNumber": false,
      "byteLength": 0,
      "calculated": false,
      "calculatedFormula": false,
      "cascadeDelete": false,
      "caseSensitive": false,
      "controllerName": false,
      "createable": false,
      "custom": false,
      "defaultValue": false,
      "defaultValueFormula": null,
      "defaultedOnCreate": false,
      "dependentPicklist": false,
      "deprecatedAndHidden": false,
      "digits": 0,
      "displayLocationInDecimal": false,
      "externalId": false,
      "extraTypeInfo": false,
      "filterable": false,
      "filteredLookupInfo": false,
      "groupable": false,
      "htmlFormatted": false,
      "idLookup": false,
      "inlineHelpText": false,
      "label": false,
      "length": false,
      "mask": false,
      "maskType": false,
      "name": "CreatedDate",
      "nameField": false,
      "namePointing": false,
      "nillable": false,
      "permissionable": false,
      "picklistValues": false,
      "precision": false,
      "queryByDistance": false,
      "referenceTargetField": false,
      "referenceTo": false,
      "relationshipName": false,
      "relationshipOrder": false,
      "restrictedDelete": false,
      "restrictedPicklist": false,
      "scale": false,
      "soapType": false,
      "sortable": false,
      "type": false,
      "unique": false,
      "updateable": false,
      "writeRequiresMasterRead": false
    },
    "CreatedById": {
      "dictFields": null,
      "autoNumber": false,
      "byteLength": 0,
      "calculated": false,
      "calculatedFormula": false,
      "cascadeDelete": false,
      "caseSensitive": false,
      "controllerName": false,
      "createable": false,
      "custom": false,
      "defaultValue": false,
      "defaultValueFormula": null,
      "defaultedOnCreate": false,
      "dependentPicklist": false,
      "deprecatedAndHidden": false,
      "digits": 0,
      "displayLocationInDecimal": false,
      "externalId": false,
      "extraTypeInfo": false,
      "filterable": false,
      "filteredLookupInfo": false,
      "groupable": false,
      "htmlFormatted": false,
      "idLookup": false,
      "inlineHelpText": false,
      "label": false,
      "length": false,
      "mask": false,
      "maskType": false,
      "name": "CreatedById",
      "nameField": false,
      "namePointing": false,
      "nillable": false,
      "permissionable": false,
      "picklistValues": false,
      "precision": false,
      "queryByDistance": false,
      "referenceTargetField": false,
      "referenceTo": false,
      "relationshipName": false,
      "relationshipOrder": false,
      "restrictedDelete": false,
      "restrictedPicklist": false,
      "scale": false,
      "soapType": false,
      "sortable": false,
      "type": false,
      "unique": false,
      "updateable": false,
      "writeRequiresMasterRead": false
    },
    "LastModifiedDate": {
      "dictFields": null,
      "autoNumber": false,
      "byteLength": 0,
      "calculated": false,
      "calculatedFormula": false,
      "cascadeDelete": false,
      "caseSensitive": false,
      "controllerName": false,
      "createable": false,
      "custom": false,
      "defaultValue": false,
      "defaultValueFormula": null,
      "defaultedOnCreate": false,
      "dependentPicklist": false,
      "deprecatedAndHidden": false,
      "digits": 0,
      "displayLocationInDecimal": false,
      "externalId": false,
      "extraTypeInfo": false,
      "filterable": false,
      "filteredLookupInfo": false,
      "groupable": false,
      "htmlFormatted": false,
      "idLookup": false,
      "inlineHelpText": false,
      "label": false,
      "length": false,
      "mask": false,
      "maskType": false,
      "name": "LastModifiedDate",
      "nameField": false,
      "namePointing": false,
      "nillable": false,
      "permissionable": false,
      "picklistValues": false,
      "precision": false,
      "queryByDistance": false,
      "referenceTargetField": false,
      "referenceTo": false,
      "relationshipName": false,
      "relationshipOrder": false,
      "restrictedDelete": false,
      "restrictedPicklist": false,
      "scale": false,
      "soapType": false,
      "sortable": false,
      "type": false,
      "unique": false,
      "updateable": false,
      "writeRequiresMasterRead": false
    },
    "LastModifiedById": {
      "dictFields": null,
      "autoNumber": false,
      "byteLength": 0,
      "calculated": false,
      "calculatedFormula": false,
      "cascadeDelete": false,
      "caseSensitive": false,
      "controllerName": false,
      "createable": false,
      "custom": false,
      "defaultValue": false,
      "defaultValueFormula": null,
      "defaultedOnCreate": false,
      "dependentPicklist": false,
      "deprecatedAndHidden": false,
      "digits": 0,
      "displayLocationInDecimal": false,
      "externalId": false,
      "extraTypeInfo": false,
      "filterable": false,
      "filteredLookupInfo": false,
      "groupable": false,
      "htmlFormatted": false,
      "idLookup": false,
      "inlineHelpText": false,
      "label": false,
      "length": false,
      "mask": false,
      "maskType": false,
      "name": "LastModifiedById",
      "nameField": false,
      "namePointing": false,
      "nillable": false,
      "permissionable": false,
      "picklistValues": false,
      "precision": false,
      "queryByDistance": false,
      "referenceTargetField": false,
      "referenceTo": false,
      "relationshipName": false,
      "relationshipOrder": false,
      "restrictedDelete": false,
      "restrictedPicklist": false,
      "scale": false,
      "soapType": false,
      "sortable": false,
      "type": false,
      "unique": false,
      "updateable": false,
      "writeRequiresMasterRead": false
    },
    "SystemModstamp": {
      "dictFields": null,
      "autoNumber": false,
      "byteLength": 0,
      "calculated": false,
      "calculatedFormula": false,
      "cascadeDelete": false,
      "caseSensitive": false,
      "controllerName": false,
      "createable": false,
      "custom": false,
      "defaultValue": false,
      "defaultValueFormula": null,
      "defaultedOnCreate": false,
      "dependentPicklist": false,
      "deprecatedAndHidden": false,
      "digits": 0,
      "displayLocationInDecimal": false,
      "externalId": false,
      "extraTypeInfo": false,
      "filterable": false,
      "filteredLookupInfo": false,
      "groupable": false,
      "htmlFormatted": false,
      "idLookup": false,
      "inlineHelpText": false,
      "label": false,
      "length": false,
      "mask": false,
      "maskType": false,
      "name": "SystemModstamp",
      "nameField": false,
      "namePointing": false,
      "nillable": false,
      "permissionable": false,
      "picklistValues": false,
      "precision": false,
      "queryByDistance": false,
      "referenceTargetField": false,
      "referenceTo": false,
      "relationshipName": false,
      "relationshipOrder": false,
      "restrictedDelete": false,
      "restrictedPicklist": false,
      "scale": false,
      "soapType": false,
      "sortable": false,
      "type": false,
      "unique": false,
      "updateable": false,
      "writeRequiresMasterRead": false
    },
    "LastActivityDate": {
      "dictFields": null,
      "autoNumber": false,
      "byteLength": 0,
      "calculated": false,
      "calculatedFormula": false,
      "cascadeDelete": false,
      "caseSensitive": false,
      "controllerName": false,
      "createable": false,
      "custom": false,
      "defaultValue": false,
      "defaultValueFormula": null,
      "defaultedOnCreate": false,
      "dependentPicklist": false,
      "deprecatedAndHidden": false,
      "digits": 0,
      "displayLocationInDecimal": false,
      "externalId": false,
      "extraTypeInfo": false,
      "filterable": false,
      "filteredLookupInfo": false,
      "groupable": false,
      "htmlFormatted": false,
      "idLookup": false,
      "inlineHelpText": false,
      "label": false,
      "length": false,
      "mask": false,
      "maskType": false,
      "name": "LastActivityDate",
      "nameField": false,
      "namePointing": false,
      "nillable": false,
      "permissionable": false,
      "picklistValues": false,
      "precision": false,
      "queryByDistance": false,
      "referenceTargetField": false,
      "referenceTo": false,
      "relationshipName": false,
      "relationshipOrder": false,
      "restrictedDelete": false,
      "restrictedPicklist": false,
      "scale": false,
      "soapType": false,
      "sortable": false,
      "type": false,
      "unique": false,
      "updateable": false,
      "writeRequiresMasterRead": false
    }
  },
  "dictCustomFields": {
    "ccrz__Order__c": {
      "autoNumber": false,
      "byteLength": 0,
      "calculated": false,
      "calculatedFormula": false,
      "cascadeDelete": false,
      "caseSensitive": false,
      "controllerName": false,
      "createable": false,
      "custom": false,
      "defaultValue": false,
      "defaultValueFormula": null,
      "defaultedOnCreate": false,
      "dependentPicklist": false,
      "deprecatedAndHidden": false,
      "digits": 0,
      "displayLocationInDecimal": false,
      "externalId": false,
      "extraTypeInfo": false,
      "filterable": false,
      "filteredLookupInfo": false,
      "groupable": false,
      "htmlFormatted": false,
      "idLookup": false,
      "inlineHelpText": false,
      "label": false,
      "length": false,
      "mask": false,
      "maskType": false,
      "name": "ccrz__Order__c",
      "nameField": false,
      "namePointing": false,
      "nillable": false,
      "permissionable": false,
      "picklistValues": false,
      "precision": false,
      "queryByDistance": false,
      "referenceTargetField": false,
      "referenceTo": false,
      "relationshipName": false,
      "relationshipOrder": false,
      "restrictedDelete": false,
      "restrictedPicklist": false,
      "scale": false,
      "soapType": false,
      "sortable": false,
      "type": false,
      "unique": false,
      "updateable": false,
      "writeRequiresMasterRead": false
    },
    "ccrz__AbsoluteDiscount__c": {
      "autoNumber": false,
      "byteLength": 0,
      "calculated": false,
      "calculatedFormula": false,
      "cascadeDelete": false,
      "caseSensitive": false,
      "controllerName": false,
      "createable": false,
      "custom": false,
      "defaultValue": false,
      "defaultValueFormula": null,
      "defaultedOnCreate": false,
      "dependentPicklist": false,
      "deprecatedAndHidden": false,
      "digits": 0,
      "displayLocationInDecimal": false,
      "externalId": false,
      "extraTypeInfo": false,
      "filterable": false,
      "filteredLookupInfo": false,
      "groupable": false,
      "htmlFormatted": false,
      "idLookup": false,
      "inlineHelpText": false,
      "label": false,
      "length": false,
      "mask": false,
      "maskType": false,
      "name": "ccrz__AbsoluteDiscount__c",
      "nameField": false,
      "namePointing": false,
      "nillable": false,
      "permissionable": false,
      "picklistValues": false,
      "precision": false,
      "queryByDistance": false,
      "referenceTargetField": false,
      "referenceTo": false,
      "relationshipName": false,
      "relationshipOrder": false,
      "restrictedDelete": false,
      "restrictedPicklist": false,
      "scale": false,
      "soapType": false,
      "sortable": false,
      "type": false,
      "unique": false,
      "updateable": false,
      "writeRequiresMasterRead": false
    },
    "ccrz__AdjustmentAmount__c": {
      "autoNumber": false,
      "byteLength": 0,
      "calculated": false,
      "calculatedFormula": false,
      "cascadeDelete": false,
      "caseSensitive": false,
      "controllerName": false,
      "createable": false,
      "custom": false,
      "defaultValue": false,
      "defaultValueFormula": null,
      "defaultedOnCreate": false,
      "dependentPicklist": false,
      "deprecatedAndHidden": false,
      "digits": 0,
      "displayLocationInDecimal": false,
      "externalId": false,
      "extraTypeInfo": false,
      "filterable": false,
      "filteredLookupInfo": false,
      "groupable": false,
      "htmlFormatted": false,
      "idLookup": false,
      "inlineHelpText": false,
      "label": false,
      "length": false,
      "mask": false,
      "maskType": false,
      "name": "ccrz__AdjustmentAmount__c",
      "nameField": false,
      "namePointing": false,
      "nillable": false,
      "permissionable": false,
      "picklistValues": false,
      "precision": false,
      "queryByDistance": false,
      "referenceTargetField": false,
      "referenceTo": false,
      "relationshipName": false,
      "relationshipOrder": false,
      "restrictedDelete": false,
      "restrictedPicklist": false,
      "scale": false,
      "soapType": false,
      "sortable": false,
      "type": false,
      "unique": false,
      "updateable": false,
      "writeRequiresMasterRead": false
    },
    "ccrz__AvailabilityMessage__c": {
      "autoNumber": false,
      "byteLength": 0,
      "calculated": false,
      "calculatedFormula": false,
      "cascadeDelete": false,
      "caseSensitive": false,
      "controllerName": false,
      "createable": false,
      "custom": false,
      "defaultValue": false,
      "defaultValueFormula": null,
      "defaultedOnCreate": false,
      "dependentPicklist": false,
      "deprecatedAndHidden": false,
      "digits": 0,
      "displayLocationInDecimal": false,
      "externalId": false,
      "extraTypeInfo": false,
      "filterable": false,
      "filteredLookupInfo": false,
      "groupable": false,
      "htmlFormatted": false,
      "idLookup": false,
      "inlineHelpText": false,
      "label": false,
      "length": false,
      "mask": false,
      "maskType": false,
      "name": "ccrz__AvailabilityMessage__c",
      "nameField": false,
      "namePointing": false,
      "nillable": false,
      "permissionable": false,
      "picklistValues": false,
      "precision": false,
      "queryByDistance": false,
      "referenceTargetField": false,
      "referenceTo": false,
      "relationshipName": false,
      "relationshipOrder": false,
      "restrictedDelete": false,
      "restrictedPicklist": false,
      "scale": false,
      "soapType": false,
      "sortable": false,
      "type": false,
      "unique": false,
      "updateable": false,
      "writeRequiresMasterRead": false
    },
    "ccrz__Category__c": {
      "autoNumber": false,
      "byteLength": 0,
      "calculated": false,
      "calculatedFormula": false,
      "cascadeDelete": false,
      "caseSensitive": false,
      "controllerName": false,
      "createable": false,
      "custom": false,
      "defaultValue": false,
      "defaultValueFormula": null,
      "defaultedOnCreate": false,
      "dependentPicklist": false,
      "deprecatedAndHidden": false,
      "digits": 0,
      "displayLocationInDecimal": false,
      "externalId": false,
      "extraTypeInfo": false,
      "filterable": false,
      "filteredLookupInfo": false,
      "groupable": false,
      "htmlFormatted": false,
      "idLookup": false,
      "inlineHelpText": false,
      "label": false,
      "length": false,
      "mask": false,
      "maskType": false,
      "name": "ccrz__Category__c",
      "nameField": false,
      "namePointing": false,
      "nillable": false,
      "permissionable": false,
      "picklistValues": false,
      "precision": false,
      "queryByDistance": false,
      "referenceTargetField": false,
      "referenceTo": false,
      "relationshipName": false,
      "relationshipOrder": false,
      "restrictedDelete": false,
      "restrictedPicklist": false,
      "scale": false,
      "soapType": false,
      "sortable": false,
      "type": false,
      "unique": false,
      "updateable": false,
      "writeRequiresMasterRead": false
    },
    "ccrz__Comments__c": {
      "autoNumber": false,
      "byteLength": 0,
      "calculated": false,
      "calculatedFormula": false,
      "cascadeDelete": false,
      "caseSensitive": false,
      "controllerName": false,
      "createable": false,
      "custom": false,
      "defaultValue": false,
      "defaultValueFormula": null,
      "defaultedOnCreate": false,
      "dependentPicklist": false,
      "deprecatedAndHidden": false,
      "digits": 0,
      "displayLocationInDecimal": false,
      "externalId": false,
      "extraTypeInfo": false,
      "filterable": false,
      "filteredLookupInfo": false,
      "groupable": false,
      "htmlFormatted": false,
      "idLookup": false,
      "inlineHelpText": false,
      "label": false,
      "length": false,
      "mask": false,
      "maskType": false,
      "name": "ccrz__Comments__c",
      "nameField": false,
      "namePointing": false,
      "nillable": false,
      "permissionable": false,
      "picklistValues": false,
      "precision": false,
      "queryByDistance": false,
      "referenceTargetField": false,
      "referenceTo": false,
      "relationshipName": false,
      "relationshipOrder": false,
      "restrictedDelete": false,
      "restrictedPicklist": false,
      "scale": false,
      "soapType": false,
      "sortable": false,
      "type": false,
      "unique": false,
      "updateable": false,
      "writeRequiresMasterRead": false
    },
    "ccrz__Coupon__c": {
      "autoNumber": false,
      "byteLength": 0,
      "calculated": false,
      "calculatedFormula": false,
      "cascadeDelete": false,
      "caseSensitive": false,
      "controllerName": false,
      "createable": false,
      "custom": false,
      "defaultValue": false,
      "defaultValueFormula": null,
      "defaultedOnCreate": false,
      "dependentPicklist": false,
      "deprecatedAndHidden": false,
      "digits": 0,
      "displayLocationInDecimal": false,
      "externalId": false,
      "extraTypeInfo": false,
      "filterable": false,
      "filteredLookupInfo": false,
      "groupable": false,
      "htmlFormatted": false,
      "idLookup": false,
      "inlineHelpText": false,
      "label": false,
      "length": false,
      "mask": false,
      "maskType": false,
      "name": "ccrz__Coupon__c",
      "nameField": false,
      "namePointing": false,
      "nillable": false,
      "permissionable": false,
      "picklistValues": false,
      "precision": false,
      "queryByDistance": false,
      "referenceTargetField": false,
      "referenceTo": false,
      "relationshipName": false,
      "relationshipOrder": false,
      "restrictedDelete": false,
      "restrictedPicklist": false,
      "scale": false,
      "soapType": false,
      "sortable": false,
      "type": false,
      "unique": false,
      "updateable": false,
      "writeRequiresMasterRead": false
    },
    "ccrz__DisplayProduct__c": {
      "autoNumber": false,
      "byteLength": 0,
      "calculated": false,
      "calculatedFormula": false,
      "cascadeDelete": false,
      "caseSensitive": false,
      "controllerName": false,
      "createable": false,
      "custom": false,
      "defaultValue": false,
      "defaultValueFormula": null,
      "defaultedOnCreate": false,
      "dependentPicklist": false,
      "deprecatedAndHidden": false,
      "digits": 0,
      "displayLocationInDecimal": false,
      "externalId": false,
      "extraTypeInfo": false,
      "filterable": false,
      "filteredLookupInfo": false,
      "groupable": false,
      "htmlFormatted": false,
      "idLookup": false,
      "inlineHelpText": false,
      "label": false,
      "length": false,
      "mask": false,
      "maskType": false,
      "name": "ccrz__DisplayProduct__c",
      "nameField": false,
      "namePointing": false,
      "nillable": false,
      "permissionable": false,
      "picklistValues": false,
      "precision": false,
      "queryByDistance": false,
      "referenceTargetField": false,
      "referenceTo": false,
      "relationshipName": false,
      "relationshipOrder": false,
      "restrictedDelete": false,
      "restrictedPicklist": false,
      "scale": false,
      "soapType": false,
      "sortable": false,
      "type": false,
      "unique": false,
      "updateable": false,
      "writeRequiresMasterRead": false
    },
    "ccrz__Is_Subscription__c": {
      "autoNumber": false,
      "byteLength": 0,
      "calculated": false,
      "calculatedFormula": false,
      "cascadeDelete": false,
      "caseSensitive": false,
      "controllerName": false,
      "createable": false,
      "custom": false,
      "defaultValue": false,
      "defaultValueFormula": null,
      "defaultedOnCreate": false,
      "dependentPicklist": false,
      "deprecatedAndHidden": false,
      "digits": 0,
      "displayLocationInDecimal": false,
      "externalId": false,
      "extraTypeInfo": false,
      "filterable": false,
      "filteredLookupInfo": false,
      "groupable": false,
      "htmlFormatted": false,
      "idLookup": false,
      "inlineHelpText": false,
      "label": false,
      "length": false,
      "mask": false,
      "maskType": false,
      "name": "ccrz__Is_Subscription__c",
      "nameField": false,
      "namePointing": false,
      "nillable": false,
      "permissionable": false,
      "picklistValues": false,
      "precision": false,
      "queryByDistance": false,
      "referenceTargetField": false,
      "referenceTo": false,
      "relationshipName": false,
      "relationshipOrder": false,
      "restrictedDelete": false,
      "restrictedPicklist": false,
      "scale": false,
      "soapType": false,
      "sortable": false,
      "type": false,
      "unique": false,
      "updateable": false,
      "writeRequiresMasterRead": false
    },
    "ccrz__ItemLabel__c": {
      "autoNumber": false,
      "byteLength": 0,
      "calculated": false,
      "calculatedFormula": false,
      "cascadeDelete": false,
      "caseSensitive": false,
      "controllerName": false,
      "createable": false,
      "custom": false,
      "defaultValue": false,
      "defaultValueFormula": null,
      "defaultedOnCreate": false,
      "dependentPicklist": false,
      "deprecatedAndHidden": false,
      "digits": 0,
      "displayLocationInDecimal": false,
      "externalId": false,
      "extraTypeInfo": false,
      "filterable": false,
      "filteredLookupInfo": false,
      "groupable": false,
      "htmlFormatted": false,
      "idLookup": false,
      "inlineHelpText": false,
      "label": false,
      "length": false,
      "mask": false,
      "maskType": false,
      "name": "ccrz__ItemLabel__c",
      "nameField": false,
      "namePointing": false,
      "nillable": false,
      "permissionable": false,
      "picklistValues": false,
      "precision": false,
      "queryByDistance": false,
      "referenceTargetField": false,
      "referenceTo": false,
      "relationshipName": false,
      "relationshipOrder": false,
      "restrictedDelete": false,
      "restrictedPicklist": false,
      "scale": false,
      "soapType": false,
      "sortable": false,
      "type": false,
      "unique": false,
      "updateable": false,
      "writeRequiresMasterRead": false
    },
    "ccrz__ItemStatus__c": {
      "autoNumber": false,
      "byteLength": 0,
      "calculated": false,
      "calculatedFormula": false,
      "cascadeDelete": false,
      "caseSensitive": false,
      "controllerName": false,
      "createable": false,
      "custom": false,
      "defaultValue": false,
      "defaultValueFormula": null,
      "defaultedOnCreate": false,
      "dependentPicklist": false,
      "deprecatedAndHidden": false,
      "digits": 0,
      "displayLocationInDecimal": false,
      "externalId": false,
      "extraTypeInfo": false,
      "filterable": false,
      "filteredLookupInfo": false,
      "groupable": false,
      "htmlFormatted": false,
      "idLookup": false,
      "inlineHelpText": false,
      "label": false,
      "length": false,
      "mask": false,
      "maskType": false,
      "name": "ccrz__ItemStatus__c",
      "nameField": false,
      "namePointing": false,
      "nillable": false,
      "permissionable": false,
      "picklistValues": false,
      "precision": false,
      "queryByDistance": false,
      "referenceTargetField": false,
      "referenceTo": false,
      "relationshipName": false,
      "relationshipOrder": false,
      "restrictedDelete": false,
      "restrictedPicklist": false,
      "scale": false,
      "soapType": false,
      "sortable": false,
      "type": false,
      "unique": false,
      "updateable": false,
      "writeRequiresMasterRead": false
    },
    "ccrz__ItemTotal__c": {
      "autoNumber": false,
      "byteLength": 0,
      "calculated": false,
      "calculatedFormula": false,
      "cascadeDelete": false,
      "caseSensitive": false,
      "controllerName": false,
      "createable": false,
      "custom": false,
      "defaultValue": false,
      "defaultValueFormula": null,
      "defaultedOnCreate": false,
      "dependentPicklist": false,
      "deprecatedAndHidden": false,
      "digits": 0,
      "displayLocationInDecimal": false,
      "externalId": false,
      "extraTypeInfo": false,
      "filterable": false,
      "filteredLookupInfo": false,
      "groupable": false,
      "htmlFormatted": false,
      "idLookup": false,
      "inlineHelpText": false,
      "label": false,
      "length": false,
      "mask": false,
      "maskType": false,
      "name": "ccrz__ItemTotal__c",
      "nameField": false,
      "namePointing": false,
      "nillable": false,
      "permissionable": false,
      "picklistValues": false,
      "precision": false,
      "queryByDistance": false,
      "referenceTargetField": false,
      "referenceTo": false,
      "relationshipName": false,
      "relationshipOrder": false,
      "restrictedDelete": false,
      "restrictedPicklist": false,
      "scale": false,
      "soapType": false,
      "sortable": false,
      "type": false,
      "unique": false,
      "updateable": false,
      "writeRequiresMasterRead": false
    },
    "ccrz__Next_Subscription_Date__c": {
      "autoNumber": false,
      "byteLength": 0,
      "calculated": false,
      "calculatedFormula": false,
      "cascadeDelete": false,
      "caseSensitive": false,
      "controllerName": false,
      "createable": false,
      "custom": false,
      "defaultValue": false,
      "defaultValueFormula": null,
      "defaultedOnCreate": false,
      "dependentPicklist": false,
      "deprecatedAndHidden": false,
      "digits": 0,
      "displayLocationInDecimal": false,
      "externalId": false,
      "extraTypeInfo": false,
      "filterable": false,
      "filteredLookupInfo": false,
      "groupable": false,
      "htmlFormatted": false,
      "idLookup": false,
      "inlineHelpText": false,
      "label": false,
      "length": false,
      "mask": false,
      "maskType": false,
      "name": "ccrz__Next_Subscription_Date__c",
      "nameField": false,
      "namePointing": false,
      "nillable": false,
      "permissionable": false,
      "picklistValues": false,
      "precision": false,
      "queryByDistance": false,
      "referenceTargetField": false,
      "referenceTo": false,
      "relationshipName": false,
      "relationshipOrder": false,
      "restrictedDelete": false,
      "restrictedPicklist": false,
      "scale": false,
      "soapType": false,
      "sortable": false,
      "type": false,
      "unique": false,
      "updateable": false,
      "writeRequiresMasterRead": false
    },
    "ccrz__OrderItemId__c": {
      "autoNumber": false,
      "byteLength": 0,
      "calculated": false,
      "calculatedFormula": false,
      "cascadeDelete": false,
      "caseSensitive": false,
      "controllerName": false,
      "createable": false,
      "custom": false,
      "defaultValue": false,
      "defaultValueFormula": null,
      "defaultedOnCreate": false,
      "dependentPicklist": false,
      "deprecatedAndHidden": false,
      "digits": 0,
      "displayLocationInDecimal": false,
      "externalId": false,
      "extraTypeInfo": false,
      "filterable": false,
      "filteredLookupInfo": false,
      "groupable": false,
      "htmlFormatted": false,
      "idLookup": false,
      "inlineHelpText": false,
      "label": false,
      "length": false,
      "mask": false,
      "maskType": false,
      "name": "ccrz__OrderItemId__c",
      "nameField": false,
      "namePointing": false,
      "nillable": false,
      "permissionable": false,
      "picklistValues": false,
      "precision": false,
      "queryByDistance": false,
      "referenceTargetField": false,
      "referenceTo": false,
      "relationshipName": false,
      "relationshipOrder": false,
      "restrictedDelete": false,
      "restrictedPicklist": false,
      "scale": false,
      "soapType": false,
      "sortable": false,
      "type": false,
      "unique": false,
      "updateable": false,
      "writeRequiresMasterRead": false
    },
    "ccrz__OrderItemStatus__c": {
      "autoNumber": false,
      "byteLength": 0,
      "calculated": false,
      "calculatedFormula": false,
      "cascadeDelete": false,
      "caseSensitive": false,
      "controllerName": false,
      "createable": false,
      "custom": false,
      "defaultValue": false,
      "defaultValueFormula": null,
      "defaultedOnCreate": false,
      "dependentPicklist": false,
      "deprecatedAndHidden": false,
      "digits": 0,
      "displayLocationInDecimal": false,
      "externalId": false,
      "extraTypeInfo": false,
      "filterable": false,
      "filteredLookupInfo": false,
      "groupable": false,
      "htmlFormatted": false,
      "idLookup": false,
      "inlineHelpText": false,
      "label": false,
      "length": false,
      "mask": false,
      "maskType": false,
      "name": "ccrz__OrderItemStatus__c",
      "nameField": false,
      "namePointing": false,
      "nillable": false,
      "permissionable": false,
      "picklistValues": false,
      "precision": false,
      "queryByDistance": false,
      "referenceTargetField": false,
      "referenceTo": false,
      "relationshipName": false,
      "relationshipOrder": false,
      "restrictedDelete": false,
      "restrictedPicklist": false,
      "scale": false,
      "soapType": false,
      "sortable": false,
      "type": false,
      "unique": false,
      "updateable": false,
      "writeRequiresMasterRead": false
    },
    "ccrz__OrderLineType__c": {
      "autoNumber": false,
      "byteLength": 0,
      "calculated": false,
      "calculatedFormula": false,
      "cascadeDelete": false,
      "caseSensitive": false,
      "controllerName": false,
      "createable": false,
      "custom": false,
      "defaultValue": false,
      "defaultValueFormula": null,
      "defaultedOnCreate": false,
      "dependentPicklist": false,
      "deprecatedAndHidden": false,
      "digits": 0,
      "displayLocationInDecimal": false,
      "externalId": false,
      "extraTypeInfo": false,
      "filterable": false,
      "filteredLookupInfo": false,
      "groupable": false,
      "htmlFormatted": false,
      "idLookup": false,
      "inlineHelpText": false,
      "label": false,
      "length": false,
      "mask": false,
      "maskType": false,
      "name": "ccrz__OrderLineType__c",
      "nameField": false,
      "namePointing": false,
      "nillable": false,
      "permissionable": false,
      "picklistValues": false,
      "precision": false,
      "queryByDistance": false,
      "referenceTargetField": false,
      "referenceTo": false,
      "relationshipName": false,
      "relationshipOrder": false,
      "restrictedDelete": false,
      "restrictedPicklist": false,
      "scale": false,
      "soapType": false,
      "sortable": false,
      "type": false,
      "unique": false,
      "updateable": false,
      "writeRequiresMasterRead": false
    },
    "ccrz__ParentOrderItem__c": {
      "autoNumber": false,
      "byteLength": 0,
      "calculated": false,
      "calculatedFormula": false,
      "cascadeDelete": false,
      "caseSensitive": false,
      "controllerName": false,
      "createable": false,
      "custom": false,
      "defaultValue": false,
      "defaultValueFormula": null,
      "defaultedOnCreate": false,
      "dependentPicklist": false,
      "deprecatedAndHidden": false,
      "digits": 0,
      "displayLocationInDecimal": false,
      "externalId": false,
      "extraTypeInfo": false,
      "filterable": false,
      "filteredLookupInfo": false,
      "groupable": false,
      "htmlFormatted": false,
      "idLookup": false,
      "inlineHelpText": false,
      "label": false,
      "length": false,
      "mask": false,
      "maskType": false,
      "name": "ccrz__ParentOrderItem__c",
      "nameField": false,
      "namePointing": false,
      "nillable": false,
      "permissionable": false,
      "picklistValues": false,
      "precision": false,
      "queryByDistance": false,
      "referenceTargetField": false,
      "referenceTo": false,
      "relationshipName": false,
      "relationshipOrder": false,
      "restrictedDelete": false,
      "restrictedPicklist": false,
      "scale": false,
      "soapType": false,
      "sortable": false,
      "type": false,
      "unique": false,
      "updateable": false,
      "writeRequiresMasterRead": false
    },
    "ccrz__ParentProduct__c": {
      "autoNumber": false,
      "byteLength": 0,
      "calculated": false,
      "calculatedFormula": false,
      "cascadeDelete": false,
      "caseSensitive": false,
      "controllerName": false,
      "createable": false,
      "custom": false,
      "defaultValue": false,
      "defaultValueFormula": null,
      "defaultedOnCreate": false,
      "dependentPicklist": false,
      "deprecatedAndHidden": false,
      "digits": 0,
      "displayLocationInDecimal": false,
      "externalId": false,
      "extraTypeInfo": false,
      "filterable": false,
      "filteredLookupInfo": false,
      "groupable": false,
      "htmlFormatted": false,
      "idLookup": false,
      "inlineHelpText": false,
      "label": false,
      "length": false,
      "mask": false,
      "maskType": false,
      "name": "ccrz__ParentProduct__c",
      "nameField": false,
      "namePointing": false,
      "nillable": false,
      "permissionable": false,
      "picklistValues": false,
      "precision": false,
      "queryByDistance": false,
      "referenceTargetField": false,
      "referenceTo": false,
      "relationshipName": false,
      "relationshipOrder": false,
      "restrictedDelete": false,
      "restrictedPicklist": false,
      "scale": false,
      "soapType": false,
      "sortable": false,
      "type": false,
      "unique": false,
      "updateable": false,
      "writeRequiresMasterRead": false
    },
    "ccrz__PercentDiscount__c": {
      "autoNumber": false,
      "byteLength": 0,
      "calculated": false,
      "calculatedFormula": false,
      "cascadeDelete": false,
      "caseSensitive": false,
      "controllerName": false,
      "createable": false,
      "custom": false,
      "defaultValue": false,
      "defaultValueFormula": null,
      "defaultedOnCreate": false,
      "dependentPicklist": false,
      "deprecatedAndHidden": false,
      "digits": 0,
      "displayLocationInDecimal": false,
      "externalId": false,
      "extraTypeInfo": false,
      "filterable": false,
      "filteredLookupInfo": false,
      "groupable": false,
      "htmlFormatted": false,
      "idLookup": false,
      "inlineHelpText": false,
      "label": false,
      "length": false,
      "mask": false,
      "maskType": false,
      "name": "ccrz__PercentDiscount__c",
      "nameField": false,
      "namePointing": false,
      "nillable": false,
      "permissionable": false,
      "picklistValues": false,
      "precision": false,
      "queryByDistance": false,
      "referenceTargetField": false,
      "referenceTo": false,
      "relationshipName": false,
      "relationshipOrder": false,
      "restrictedDelete": false,
      "restrictedPicklist": false,
      "scale": false,
      "soapType": false,
      "sortable": false,
      "type": false,
      "unique": false,
      "updateable": false,
      "writeRequiresMasterRead": false
    },
    "ccrz__Price__c": {
      "autoNumber": false,
      "byteLength": 0,
      "calculated": false,
      "calculatedFormula": false,
      "cascadeDelete": false,
      "caseSensitive": false,
      "controllerName": false,
      "createable": false,
      "custom": false,
      "defaultValue": false,
      "defaultValueFormula": null,
      "defaultedOnCreate": false,
      "dependentPicklist": false,
      "deprecatedAndHidden": false,
      "digits": 0,
      "displayLocationInDecimal": false,
      "externalId": false,
      "extraTypeInfo": false,
      "filterable": false,
      "filteredLookupInfo": false,
      "groupable": false,
      "htmlFormatted": false,
      "idLookup": false,
      "inlineHelpText": false,
      "label": false,
      "length": false,
      "mask": false,
      "maskType": false,
      "name": "ccrz__Price__c",
      "nameField": false,
      "namePointing": false,
      "nillable": false,
      "permissionable": false,
      "picklistValues": false,
      "precision": false,
      "queryByDistance": false,
      "referenceTargetField": false,
      "referenceTo": false,
      "relationshipName": false,
      "relationshipOrder": false,
      "restrictedDelete": false,
      "restrictedPicklist": false,
      "scale": false,
      "soapType": false,
      "sortable": false,
      "type": false,
      "unique": false,
      "updateable": false,
      "writeRequiresMasterRead": false
    },
    "ccrz__ProductType__c": {
      "autoNumber": false,
      "byteLength": 0,
      "calculated": false,
      "calculatedFormula": false,
      "cascadeDelete": false,
      "caseSensitive": false,
      "controllerName": false,
      "createable": false,
      "custom": false,
      "defaultValue": false,
      "defaultValueFormula": null,
      "defaultedOnCreate": false,
      "dependentPicklist": false,
      "deprecatedAndHidden": false,
      "digits": 0,
      "displayLocationInDecimal": false,
      "externalId": false,
      "extraTypeInfo": false,
      "filterable": false,
      "filteredLookupInfo": false,
      "groupable": false,
      "htmlFormatted": false,
      "idLookup": false,
      "inlineHelpText": false,
      "label": false,
      "length": false,
      "mask": false,
      "maskType": false,
      "name": "ccrz__ProductType__c",
      "nameField": false,
      "namePointing": false,
      "nillable": false,
      "permissionable": false,
      "picklistValues": false,
      "precision": false,
      "queryByDistance": false,
      "referenceTargetField": false,
      "referenceTo": false,
      "relationshipName": false,
      "relationshipOrder": false,
      "restrictedDelete": false,
      "restrictedPicklist": false,
      "scale": false,
      "soapType": false,
      "sortable": false,
      "type": false,
      "unique": false,
      "updateable": false,
      "writeRequiresMasterRead": false
    },
    "ccrz__Product_Name__c": {
      "autoNumber": false,
      "byteLength": 0,
      "calculated": false,
      "calculatedFormula": false,
      "cascadeDelete": false,
      "caseSensitive": false,
      "controllerName": false,
      "createable": false,
      "custom": false,
      "defaultValue": false,
      "defaultValueFormula": null,
      "defaultedOnCreate": false,
      "dependentPicklist": false,
      "deprecatedAndHidden": false,
      "digits": 0,
      "displayLocationInDecimal": false,
      "externalId": false,
      "extraTypeInfo": false,
      "filterable": false,
      "filteredLookupInfo": false,
      "groupable": false,
      "htmlFormatted": false,
      "idLookup": false,
      "inlineHelpText": false,
      "label": false,
      "length": false,
      "mask": false,
      "maskType": false,
      "name": "ccrz__Product_Name__c",
      "nameField": false,
      "namePointing": false,
      "nillable": false,
      "permissionable": false,
      "picklistValues": false,
      "precision": false,
      "queryByDistance": false,
      "referenceTargetField": false,
      "referenceTo": false,
      "relationshipName": false,
      "relationshipOrder": false,
      "restrictedDelete": false,
      "restrictedPicklist": false,
      "scale": false,
      "soapType": false,
      "sortable": false,
      "type": false,
      "unique": false,
      "updateable": false,
      "writeRequiresMasterRead": false
    },
    "ccrz__Product__c": {
      "autoNumber": false,
      "byteLength": 0,
      "calculated": false,
      "calculatedFormula": false,
      "cascadeDelete": false,
      "caseSensitive": false,
      "controllerName": false,
      "createable": false,
      "custom": false,
      "defaultValue": false,
      "defaultValueFormula": null,
      "defaultedOnCreate": false,
      "dependentPicklist": false,
      "deprecatedAndHidden": false,
      "digits": 0,
      "displayLocationInDecimal": false,
      "externalId": false,
      "extraTypeInfo": false,
      "filterable": false,
      "filteredLookupInfo": false,
      "groupable": false,
      "htmlFormatted": false,
      "idLookup": false,
      "inlineHelpText": false,
      "label": false,
      "length": false,
      "mask": false,
      "maskType": false,
      "name": "ccrz__Product__c",
      "nameField": false,
      "namePointing": false,
      "nillable": false,
      "permissionable": false,
      "picklistValues": false,
      "precision": false,
      "queryByDistance": false,
      "referenceTargetField": false,
      "referenceTo": false,
      "relationshipName": false,
      "relationshipOrder": false,
      "restrictedDelete": false,
      "restrictedPicklist": false,
      "scale": false,
      "soapType": false,
      "sortable": false,
      "type": false,
      "unique": false,
      "updateable": false,
      "writeRequiresMasterRead": false
    },
    "ccrz__Quantity__c": {
      "autoNumber": false,
      "byteLength": 0,
      "calculated": false,
      "calculatedFormula": false,
      "cascadeDelete": false,
      "caseSensitive": false,
      "controllerName": false,
      "createable": false,
      "custom": false,
      "defaultValue": false,
      "defaultValueFormula": null,
      "defaultedOnCreate": false,
      "dependentPicklist": false,
      "deprecatedAndHidden": false,
      "digits": 0,
      "displayLocationInDecimal": false,
      "externalId": false,
      "extraTypeInfo": false,
      "filterable": false,
      "filteredLookupInfo": false,
      "groupable": false,
      "htmlFormatted": false,
      "idLookup": false,
      "inlineHelpText": false,
      "label": false,
      "length": false,
      "mask": false,
      "maskType": false,
      "name": "ccrz__Quantity__c",
      "nameField": false,
      "namePointing": false,
      "nillable": false,
      "permissionable": false,
      "picklistValues": false,
      "precision": false,
      "queryByDistance": false,
      "referenceTargetField": false,
      "referenceTo": false,
      "relationshipName": false,
      "relationshipOrder": false,
      "restrictedDelete": false,
      "restrictedPicklist": false,
      "scale": false,
      "soapType": false,
      "sortable": false,
      "type": false,
      "unique": false,
      "updateable": false,
      "writeRequiresMasterRead": false
    },
    "ccrz__RequestDate__c": {
      "autoNumber": false,
      "byteLength": 0,
      "calculated": false,
      "calculatedFormula": false,
      "cascadeDelete": false,
      "caseSensitive": false,
      "controllerName": false,
      "createable": false,
      "custom": false,
      "defaultValue": false,
      "defaultValueFormula": null,
      "defaultedOnCreate": false,
      "dependentPicklist": false,
      "deprecatedAndHidden": false,
      "digits": 0,
      "displayLocationInDecimal": false,
      "externalId": false,
      "extraTypeInfo": false,
      "filterable": false,
      "filteredLookupInfo": false,
      "groupable": false,
      "htmlFormatted": false,
      "idLookup": false,
      "inlineHelpText": false,
      "label": false,
      "length": false,
      "mask": false,
      "maskType": false,
      "name": "ccrz__RequestDate__c",
      "nameField": false,
      "namePointing": false,
      "nillable": false,
      "permissionable": false,
      "picklistValues": false,
      "precision": false,
      "queryByDistance": false,
      "referenceTargetField": false,
      "referenceTo": false,
      "relationshipName": false,
      "relationshipOrder": false,
      "restrictedDelete": false,
      "restrictedPicklist": false,
      "scale": false,
      "soapType": false,
      "sortable": false,
      "type": false,
      "unique": false,
      "updateable": false,
      "writeRequiresMasterRead": false
    },
    "ccrz__StoreId__c": {
      "autoNumber": false,
      "byteLength": 0,
      "calculated": false,
      "calculatedFormula": false,
      "cascadeDelete": false,
      "caseSensitive": false,
      "controllerName": false,
      "createable": false,
      "custom": false,
      "defaultValue": false,
      "defaultValueFormula": null,
      "defaultedOnCreate": false,
      "dependentPicklist": false,
      "deprecatedAndHidden": false,
      "digits": 0,
      "displayLocationInDecimal": false,
      "externalId": false,
      "extraTypeInfo": false,
      "filterable": false,
      "filteredLookupInfo": false,
      "groupable": false,
      "htmlFormatted": false,
      "idLookup": false,
      "inlineHelpText": false,
      "label": false,
      "length": false,
      "mask": false,
      "maskType": false,
      "name": "ccrz__StoreId__c",
      "nameField": false,
      "namePointing": false,
      "nillable": false,
      "permissionable": false,
      "picklistValues": false,
      "precision": false,
      "queryByDistance": false,
      "referenceTargetField": false,
      "referenceTo": false,
      "relationshipName": false,
      "relationshipOrder": false,
      "restrictedDelete": false,
      "restrictedPicklist": false,
      "scale": false,
      "soapType": false,
      "sortable": false,
      "type": false,
      "unique": false,
      "updateable": false,
      "writeRequiresMasterRead": false
    },
    "ccrz__SubAmount__c": {
      "autoNumber": false,
      "byteLength": 0,
      "calculated": false,
      "calculatedFormula": false,
      "cascadeDelete": false,
      "caseSensitive": false,
      "controllerName": false,
      "createable": false,
      "custom": false,
      "defaultValue": false,
      "defaultValueFormula": null,
      "defaultedOnCreate": false,
      "dependentPicklist": false,
      "deprecatedAndHidden": false,
      "digits": 0,
      "displayLocationInDecimal": false,
      "externalId": false,
      "extraTypeInfo": false,
      "filterable": false,
      "filteredLookupInfo": false,
      "groupable": false,
      "htmlFormatted": false,
      "idLookup": false,
      "inlineHelpText": false,
      "label": false,
      "length": false,
      "mask": false,
      "maskType": false,
      "name": "ccrz__SubAmount__c",
      "nameField": false,
      "namePointing": false,
      "nillable": false,
      "permissionable": false,
      "picklistValues": false,
      "precision": false,
      "queryByDistance": false,
      "referenceTargetField": false,
      "referenceTo": false,
      "relationshipName": false,
      "relationshipOrder": false,
      "restrictedDelete": false,
      "restrictedPicklist": false,
      "scale": false,
      "soapType": false,
      "sortable": false,
      "type": false,
      "unique": false,
      "updateable": false,
      "writeRequiresMasterRead": false
    },
    "ccrz__SubscriptionId__c": {
      "autoNumber": false,
      "byteLength": 0,
      "calculated": false,
      "calculatedFormula": false,
      "cascadeDelete": false,
      "caseSensitive": false,
      "controllerName": false,
      "createable": false,
      "custom": false,
      "defaultValue": false,
      "defaultValueFormula": null,
      "defaultedOnCreate": false,
      "dependentPicklist": false,
      "deprecatedAndHidden": false,
      "digits": 0,
      "displayLocationInDecimal": false,
      "externalId": false,
      "extraTypeInfo": false,
      "filterable": false,
      "filteredLookupInfo": false,
      "groupable": false,
      "htmlFormatted": false,
      "idLookup": false,
      "inlineHelpText": false,
      "label": false,
      "length": false,
      "mask": false,
      "maskType": false,
      "name": "ccrz__SubscriptionId__c",
      "nameField": false,
      "namePointing": false,
      "nillable": false,
      "permissionable": false,
      "picklistValues": false,
      "precision": false,
      "queryByDistance": false,
      "referenceTargetField": false,
      "referenceTo": false,
      "relationshipName": false,
      "relationshipOrder": false,
      "restrictedDelete": false,
      "restrictedPicklist": false,
      "scale": false,
      "soapType": false,
      "sortable": false,
      "type": false,
      "unique": false,
      "updateable": false,
      "writeRequiresMasterRead": false
    },
    "ccrz__Subscription_Auto_Renewal__c": {
      "autoNumber": false,
      "byteLength": 0,
      "calculated": false,
      "calculatedFormula": false,
      "cascadeDelete": false,
      "caseSensitive": false,
      "controllerName": false,
      "createable": false,
      "custom": false,
      "defaultValue": false,
      "defaultValueFormula": null,
      "defaultedOnCreate": false,
      "dependentPicklist": false,
      "deprecatedAndHidden": false,
      "digits": 0,
      "displayLocationInDecimal": false,
      "externalId": false,
      "extraTypeInfo": false,
      "filterable": false,
      "filteredLookupInfo": false,
      "groupable": false,
      "htmlFormatted": false,
      "idLookup": false,
      "inlineHelpText": false,
      "label": false,
      "length": false,
      "mask": false,
      "maskType": false,
      "name": "ccrz__Subscription_Auto_Renewal__c",
      "nameField": false,
      "namePointing": false,
      "nillable": false,
      "permissionable": false,
      "picklistValues": false,
      "precision": false,
      "queryByDistance": false,
      "referenceTargetField": false,
      "referenceTo": false,
      "relationshipName": false,
      "relationshipOrder": false,
      "restrictedDelete": false,
      "restrictedPicklist": false,
      "scale": false,
      "soapType": false,
      "sortable": false,
      "type": false,
      "unique": false,
      "updateable": false,
      "writeRequiresMasterRead": false
    },
    "ccrz__Subscription_Duration__c": {
      "autoNumber": false,
      "byteLength": 0,
      "calculated": false,
      "calculatedFormula": false,
      "cascadeDelete": false,
      "caseSensitive": false,
      "controllerName": false,
      "createable": false,
      "custom": false,
      "defaultValue": false,
      "defaultValueFormula": null,
      "defaultedOnCreate": false,
      "dependentPicklist": false,
      "deprecatedAndHidden": false,
      "digits": 0,
      "displayLocationInDecimal": false,
      "externalId": false,
      "extraTypeInfo": false,
      "filterable": false,
      "filteredLookupInfo": false,
      "groupable": false,
      "htmlFormatted": false,
      "idLookup": false,
      "inlineHelpText": false,
      "label": false,
      "length": false,
      "mask": false,
      "maskType": false,
      "name": "ccrz__Subscription_Duration__c",
      "nameField": false,
      "namePointing": false,
      "nillable": false,
      "permissionable": false,
      "picklistValues": false,
      "precision": false,
      "queryByDistance": false,
      "referenceTargetField": false,
      "referenceTo": false,
      "relationshipName": false,
      "relationshipOrder": false,
      "restrictedDelete": false,
      "restrictedPicklist": false,
      "scale": false,
      "soapType": false,
      "sortable": false,
      "type": false,
      "unique": false,
      "updateable": false,
      "writeRequiresMasterRead": false
    },
    "ccrz__Subscription_End_Date__c": {
      "autoNumber": false,
      "byteLength": 0,
      "calculated": false,
      "calculatedFormula": false,
      "cascadeDelete": false,
      "caseSensitive": false,
      "controllerName": false,
      "createable": false,
      "custom": false,
      "defaultValue": false,
      "defaultValueFormula": null,
      "defaultedOnCreate": false,
      "dependentPicklist": false,
      "deprecatedAndHidden": false,
      "digits": 0,
      "displayLocationInDecimal": false,
      "externalId": false,
      "extraTypeInfo": false,
      "filterable": false,
      "filteredLookupInfo": false,
      "groupable": false,
      "htmlFormatted": false,
      "idLookup": false,
      "inlineHelpText": false,
      "label": false,
      "length": false,
      "mask": false,
      "maskType": false,
      "name": "ccrz__Subscription_End_Date__c",
      "nameField": false,
      "namePointing": false,
      "nillable": false,
      "permissionable": false,
      "picklistValues": false,
      "precision": false,
      "queryByDistance": false,
      "referenceTargetField": false,
      "referenceTo": false,
      "relationshipName": false,
      "relationshipOrder": false,
      "restrictedDelete": false,
      "restrictedPicklist": false,
      "scale": false,
      "soapType": false,
      "sortable": false,
      "type": false,
      "unique": false,
      "updateable": false,
      "writeRequiresMasterRead": false
    },
    "ccrz__Subscription_Frequency__c": {
      "autoNumber": false,
      "byteLength": 0,
      "calculated": false,
      "calculatedFormula": false,
      "cascadeDelete": false,
      "caseSensitive": false,
      "controllerName": false,
      "createable": false,
      "custom": false,
      "defaultValue": false,
      "defaultValueFormula": null,
      "defaultedOnCreate": false,
      "dependentPicklist": false,
      "deprecatedAndHidden": false,
      "digits": 0,
      "displayLocationInDecimal": false,
      "externalId": false,
      "extraTypeInfo": false,
      "filterable": false,
      "filteredLookupInfo": false,
      "groupable": false,
      "htmlFormatted": false,
      "idLookup": false,
      "inlineHelpText": false,
      "label": false,
      "length": false,
      "mask": false,
      "maskType": false,
      "name": "ccrz__Subscription_Frequency__c",
      "nameField": false,
      "namePointing": false,
      "nillable": false,
      "permissionable": false,
      "picklistValues": false,
      "precision": false,
      "queryByDistance": false,
      "referenceTargetField": false,
      "referenceTo": false,
      "relationshipName": false,
      "relationshipOrder": false,
      "restrictedDelete": false,
      "restrictedPicklist": false,
      "scale": false,
      "soapType": false,
      "sortable": false,
      "type": false,
      "unique": false,
      "updateable": false,
      "writeRequiresMasterRead": false
    },
    "ccrz__Subscription_Start_Date__c": {
      "autoNumber": false,
      "byteLength": 0,
      "calculated": false,
      "calculatedFormula": false,
      "cascadeDelete": false,
      "caseSensitive": false,
      "controllerName": false,
      "createable": false,
      "custom": false,
      "defaultValue": false,
      "defaultValueFormula": null,
      "defaultedOnCreate": false,
      "dependentPicklist": false,
      "deprecatedAndHidden": false,
      "digits": 0,
      "displayLocationInDecimal": false,
      "externalId": false,
      "extraTypeInfo": false,
      "filterable": false,
      "filteredLookupInfo": false,
      "groupable": false,
      "htmlFormatted": false,
      "idLookup": false,
      "inlineHelpText": false,
      "label": false,
      "length": false,
      "mask": false,
      "maskType": false,
      "name": "ccrz__Subscription_Start_Date__c",
      "nameField": false,
      "namePointing": false,
      "nillable": false,
      "permissionable": false,
      "picklistValues": false,
      "precision": false,
      "queryByDistance": false,
      "referenceTargetField": false,
      "referenceTo": false,
      "relationshipName": false,
      "relationshipOrder": false,
      "restrictedDelete": false,
      "restrictedPicklist": false,
      "scale": false,
      "soapType": false,
      "sortable": false,
      "type": false,
      "unique": false,
      "updateable": false,
      "writeRequiresMasterRead": false
    },
    "ccrz__Subscription_Status__c": {
      "autoNumber": false,
      "byteLength": 0,
      "calculated": false,
      "calculatedFormula": false,
      "cascadeDelete": false,
      "caseSensitive": false,
      "controllerName": false,
      "createable": false,
      "custom": false,
      "defaultValue": false,
      "defaultValueFormula": null,
      "defaultedOnCreate": false,
      "dependentPicklist": false,
      "deprecatedAndHidden": false,
      "digits": 0,
      "displayLocationInDecimal": false,
      "externalId": false,
      "extraTypeInfo": false,
      "filterable": false,
      "filteredLookupInfo": false,
      "groupable": false,
      "htmlFormatted": false,
      "idLookup": false,
      "inlineHelpText": false,
      "label": false,
      "length": false,
      "mask": false,
      "maskType": false,
      "name": "ccrz__Subscription_Status__c",
      "nameField": false,
      "namePointing": false,
      "nillable": false,
      "permissionable": false,
      "picklistValues": false,
      "precision": false,
      "queryByDistance": false,
      "referenceTargetField": false,
      "referenceTo": false,
      "relationshipName": false,
      "relationshipOrder": false,
      "restrictedDelete": false,
      "restrictedPicklist": false,
      "scale": false,
      "soapType": false,
      "sortable": false,
      "type": false,
      "unique": false,
      "updateable": false,
      "writeRequiresMasterRead": false
    },
    "ccrz__UnitOfMeasure__c": {
      "autoNumber": false,
      "byteLength": 0,
      "calculated": false,
      "calculatedFormula": false,
      "cascadeDelete": false,
      "caseSensitive": false,
      "controllerName": false,
      "createable": false,
      "custom": false,
      "defaultValue": false,
      "defaultValueFormula": null,
      "defaultedOnCreate": false,
      "dependentPicklist": false,
      "deprecatedAndHidden": false,
      "digits": 0,
      "displayLocationInDecimal": false,
      "externalId": false,
      "extraTypeInfo": false,
      "filterable": false,
      "filteredLookupInfo": false,
      "groupable": false,
      "htmlFormatted": false,
      "idLookup": false,
      "inlineHelpText": false,
      "label": false,
      "length": false,
      "mask": false,
      "maskType": false,
      "name": "ccrz__UnitOfMeasure__c",
      "nameField": false,
      "namePointing": false,
      "nillable": false,
      "permissionable": false,
      "picklistValues": false,
      "precision": false,
      "queryByDistance": false,
      "referenceTargetField": false,
      "referenceTo": false,
      "relationshipName": false,
      "relationshipOrder": false,
      "restrictedDelete": false,
      "restrictedPicklist": false,
      "scale": false,
      "soapType": false,
      "sortable": false,
      "type": false,
      "unique": false,
      "updateable": false,
      "writeRequiresMasterRead": false
    },
    "AlternativeFor__c": {
      "autoNumber": false,
      "byteLength": 0,
      "calculated": false,
      "calculatedFormula": false,
      "cascadeDelete": false,
      "caseSensitive": false,
      "controllerName": false,
      "createable": false,
      "custom": false,
      "defaultValue": false,
      "defaultValueFormula": null,
      "defaultedOnCreate": false,
      "dependentPicklist": false,
      "deprecatedAndHidden": false,
      "digits": 0,
      "displayLocationInDecimal": false,
      "externalId": false,
      "extraTypeInfo": false,
      "filterable": false,
      "filteredLookupInfo": false,
      "groupable": false,
      "htmlFormatted": false,
      "idLookup": false,
      "inlineHelpText": false,
      "label": false,
      "length": false,
      "mask": false,
      "maskType": false,
      "name": "AlternativeFor__c",
      "nameField": false,
      "namePointing": false,
      "nillable": false,
      "permissionable": false,
      "picklistValues": false,
      "precision": false,
      "queryByDistance": false,
      "referenceTargetField": false,
      "referenceTo": false,
      "relationshipName": false,
      "relationshipOrder": false,
      "restrictedDelete": false,
      "restrictedPicklist": false,
      "scale": false,
      "soapType": false,
      "sortable": false,
      "type": false,
      "unique": false,
      "updateable": false,
      "writeRequiresMasterRead": false
    },
    "Materialnummer__c": {
      "autoNumber": false,
      "byteLength": 0,
      "calculated": false,
      "calculatedFormula": false,
      "cascadeDelete": false,
      "caseSensitive": false,
      "controllerName": false,
      "createable": false,
      "custom": false,
      "defaultValue": false,
      "defaultValueFormula": null,
      "defaultedOnCreate": false,
      "dependentPicklist": false,
      "deprecatedAndHidden": false,
      "digits": 0,
      "displayLocationInDecimal": false,
      "externalId": false,
      "extraTypeInfo": false,
      "filterable": false,
      "filteredLookupInfo": false,
      "groupable": false,
      "htmlFormatted": false,
      "idLookup": false,
      "inlineHelpText": false,
      "label": false,
      "length": false,
      "mask": false,
      "maskType": false,
      "name": "Materialnummer__c",
      "nameField": false,
      "namePointing": false,
      "nillable": false,
      "permissionable": false,
      "picklistValues": false,
      "precision": false,
      "queryByDistance": false,
      "referenceTargetField": false,
      "referenceTo": false,
      "relationshipName": false,
      "relationshipOrder": false,
      "restrictedDelete": false,
      "restrictedPicklist": false,
      "scale": false,
      "soapType": false,
      "sortable": false,
      "type": false,
      "unique": false,
      "updateable": false,
      "writeRequiresMasterRead": false
    },
    "UCGap__c": {
      "autoNumber": false,
      "byteLength": 0,
      "calculated": false,
      "calculatedFormula": false,
      "cascadeDelete": false,
      "caseSensitive": false,
      "controllerName": false,
      "createable": false,
      "custom": false,
      "defaultValue": false,
      "defaultValueFormula": null,
      "defaultedOnCreate": false,
      "dependentPicklist": false,
      "deprecatedAndHidden": false,
      "digits": 0,
      "displayLocationInDecimal": false,
      "externalId": false,
      "extraTypeInfo": false,
      "filterable": false,
      "filteredLookupInfo": false,
      "groupable": false,
      "htmlFormatted": false,
      "idLookup": false,
      "inlineHelpText": false,
      "label": false,
      "length": false,
      "mask": false,
      "maskType": false,
      "name": "UCGap__c",
      "nameField": false,
      "namePointing": false,
      "nillable": false,
      "permissionable": false,
      "picklistValues": false,
      "precision": false,
      "queryByDistance": false,
      "referenceTargetField": false,
      "referenceTo": false,
      "relationshipName": false,
      "relationshipOrder": false,
      "restrictedDelete": false,
      "restrictedPicklist": false,
      "scale": false,
      "soapType": false,
      "sortable": false,
      "type": false,
      "unique": false,
      "updateable": false,
      "writeRequiresMasterRead": false
    },
    "UCQuantity__c": {
      "autoNumber": false,
      "byteLength": 0,
      "calculated": false,
      "calculatedFormula": false,
      "cascadeDelete": false,
      "caseSensitive": false,
      "controllerName": false,
      "createable": false,
      "custom": false,
      "defaultValue": false,
      "defaultValueFormula": null,
      "defaultedOnCreate": false,
      "dependentPicklist": false,
      "deprecatedAndHidden": false,
      "digits": 0,
      "displayLocationInDecimal": false,
      "externalId": false,
      "extraTypeInfo": false,
      "filterable": false,
      "filteredLookupInfo": false,
      "groupable": false,
      "htmlFormatted": false,
      "idLookup": false,
      "inlineHelpText": false,
      "label": false,
      "length": false,
      "mask": false,
      "maskType": false,
      "name": "UCQuantity__c",
      "nameField": false,
      "namePointing": false,
      "nillable": false,
      "permissionable": false,
      "picklistValues": false,
      "precision": false,
      "queryByDistance": false,
      "referenceTargetField": false,
      "referenceTo": false,
      "relationshipName": false,
      "relationshipOrder": false,
      "restrictedDelete": false,
      "restrictedPicklist": false,
      "scale": false,
      "soapType": false,
      "sortable": false,
      "type": false,
      "unique": false,
      "updateable": false,
      "writeRequiresMasterRead": false
    }
  }
}
