{
  "id": null,
  "name": "ccrz__E_CartItemPricingTier__c",
  "type": 0,
  "url": null,
  "dicReferencedBy": null,
  "dicReferencedTo": null,
  "sObjectprefix": null,
  "sObject": {
    "activateable": false,
    "createable": true,
    "custom": true,
    "customSetting": false,
    "deletable": true,
    "deprecatedAndHidden": false,
    "feedEnabled": false,
    "keyPrefix": "a31",
    "label": "CC Cart Item Pricing Tier",
    "labelPlural": "CC Cart Item Pricing Tiers",
    "layoutable": true,
    "mergeable": false,
    "name": "ccrz__E_CartItemPricingTier__c",
    "queryable": true,
    "replicateable": true,
    "retrieveable": true,
    "searchable": true,
    "triggerable": true,
    "undeletable": true,
    "updateable": true
  },
  "dictStandardFields": {
    "Id": {
      "dictFields": null,
      "autoNumber": false,
      "byteLength": 0,
      "calculated": false,
      "calculatedFormula": false,
      "cascadeDelete": false,
      "caseSensitive": false,
      "controllerName": false,
      "createable": false,
      "custom": false,
      "defaultValue": false,
      "defaultValueFormula": null,
      "defaultedOnCreate": false,
      "dependentPicklist": false,
      "deprecatedAndHidden": false,
      "digits": 0,
      "displayLocationInDecimal": false,
      "externalId": false,
      "extraTypeInfo": false,
      "filterable": false,
      "filteredLookupInfo": false,
      "groupable": false,
      "htmlFormatted": false,
      "idLookup": false,
      "inlineHelpText": false,
      "label": false,
      "length": false,
      "mask": false,
      "maskType": false,
      "name": "Id",
      "nameField": false,
      "namePointing": false,
      "nillable": false,
      "permissionable": false,
      "picklistValues": false,
      "precision": false,
      "queryByDistance": false,
      "referenceTargetField": false,
      "referenceTo": false,
      "relationshipName": false,
      "relationshipOrder": false,
      "restrictedDelete": false,
      "restrictedPicklist": false,
      "scale": false,
      "soapType": false,
      "sortable": false,
      "type": false,
      "unique": false,
      "updateable": false,
      "writeRequiresMasterRead": false
    },
    "IsDeleted": {
      "dictFields": null,
      "autoNumber": false,
      "byteLength": 0,
      "calculated": false,
      "calculatedFormula": false,
      "cascadeDelete": false,
      "caseSensitive": false,
      "controllerName": false,
      "createable": false,
      "custom": false,
      "defaultValue": false,
      "defaultValueFormula": null,
      "defaultedOnCreate": false,
      "dependentPicklist": false,
      "deprecatedAndHidden": false,
      "digits": 0,
      "displayLocationInDecimal": false,
      "externalId": false,
      "extraTypeInfo": false,
      "filterable": false,
      "filteredLookupInfo": false,
      "groupable": false,
      "htmlFormatted": false,
      "idLookup": false,
      "inlineHelpText": false,
      "label": false,
      "length": false,
      "mask": false,
      "maskType": false,
      "name": "IsDeleted",
      "nameField": false,
      "namePointing": false,
      "nillable": false,
      "permissionable": false,
      "picklistValues": false,
      "precision": false,
      "queryByDistance": false,
      "referenceTargetField": false,
      "referenceTo": false,
      "relationshipName": false,
      "relationshipOrder": false,
      "restrictedDelete": false,
      "restrictedPicklist": false,
      "scale": false,
      "soapType": false,
      "sortable": false,
      "type": false,
      "unique": false,
      "updateable": false,
      "writeRequiresMasterRead": false
    },
    "Name": {
      "dictFields": null,
      "autoNumber": true,
      "byteLength": 0,
      "calculated": false,
      "calculatedFormula": false,
      "cascadeDelete": false,
      "caseSensitive": false,
      "controllerName": false,
      "createable": false,
      "custom": false,
      "defaultValue": false,
      "defaultValueFormula": null,
      "defaultedOnCreate": false,
      "dependentPicklist": false,
      "deprecatedAndHidden": false,
      "digits": 0,
      "displayLocationInDecimal": false,
      "externalId": false,
      "extraTypeInfo": false,
      "filterable": false,
      "filteredLookupInfo": false,
      "groupable": false,
      "htmlFormatted": false,
      "idLookup": false,
      "inlineHelpText": false,
      "label": false,
      "length": false,
      "mask": false,
      "maskType": false,
      "name": "Name",
      "nameField": false,
      "namePointing": false,
      "nillable": false,
      "permissionable": false,
      "picklistValues": false,
      "precision": false,
      "queryByDistance": false,
      "referenceTargetField": false,
      "referenceTo": false,
      "relationshipName": false,
      "relationshipOrder": false,
      "restrictedDelete": false,
      "restrictedPicklist": false,
      "scale": false,
      "soapType": false,
      "sortable": false,
      "type": false,
      "unique": false,
      "updateable": false,
      "writeRequiresMasterRead": false
    },
    "CurrencyIsoCode": {
      "dictFields": null,
      "autoNumber": false,
      "byteLength": 0,
      "calculated": false,
      "calculatedFormula": false,
      "cascadeDelete": false,
      "caseSensitive": false,
      "controllerName": false,
      "createable": false,
      "custom": false,
      "defaultValue": false,
      "defaultValueFormula": null,
      "defaultedOnCreate": false,
      "dependentPicklist": false,
      "deprecatedAndHidden": false,
      "digits": 0,
      "displayLocationInDecimal": false,
      "externalId": false,
      "extraTypeInfo": false,
      "filterable": false,
      "filteredLookupInfo": false,
      "groupable": false,
      "htmlFormatted": false,
      "idLookup": false,
      "inlineHelpText": false,
      "label": false,
      "length": false,
      "mask": false,
      "maskType": false,
      "name": "CurrencyIsoCode",
      "nameField": false,
      "namePointing": false,
      "nillable": false,
      "permissionable": false,
      "picklistValues": false,
      "precision": false,
      "queryByDistance": false,
      "referenceTargetField": false,
      "referenceTo": false,
      "relationshipName": false,
      "relationshipOrder": false,
      "restrictedDelete": false,
      "restrictedPicklist": false,
      "scale": false,
      "soapType": false,
      "sortable": false,
      "type": false,
      "unique": false,
      "updateable": false,
      "writeRequiresMasterRead": false
    },
    "CreatedDate": {
      "dictFields": null,
      "autoNumber": false,
      "byteLength": 0,
      "calculated": false,
      "calculatedFormula": false,
      "cascadeDelete": false,
      "caseSensitive": false,
      "controllerName": false,
      "createable": false,
      "custom": false,
      "defaultValue": false,
      "defaultValueFormula": null,
      "defaultedOnCreate": false,
      "dependentPicklist": false,
      "deprecatedAndHidden": false,
      "digits": 0,
      "displayLocationInDecimal": false,
      "externalId": false,
      "extraTypeInfo": false,
      "filterable": false,
      "filteredLookupInfo": false,
      "groupable": false,
      "htmlFormatted": false,
      "idLookup": false,
      "inlineHelpText": false,
      "label": false,
      "length": false,
      "mask": false,
      "maskType": false,
      "name": "CreatedDate",
      "nameField": false,
      "namePointing": false,
      "nillable": false,
      "permissionable": false,
      "picklistValues": false,
      "precision": false,
      "queryByDistance": false,
      "referenceTargetField": false,
      "referenceTo": false,
      "relationshipName": false,
      "relationshipOrder": false,
      "restrictedDelete": false,
      "restrictedPicklist": false,
      "scale": false,
      "soapType": false,
      "sortable": false,
      "type": false,
      "unique": false,
      "updateable": false,
      "writeRequiresMasterRead": false
    },
    "CreatedById": {
      "dictFields": null,
      "autoNumber": false,
      "byteLength": 0,
      "calculated": false,
      "calculatedFormula": false,
      "cascadeDelete": false,
      "caseSensitive": false,
      "controllerName": false,
      "createable": false,
      "custom": false,
      "defaultValue": false,
      "defaultValueFormula": null,
      "defaultedOnCreate": false,
      "dependentPicklist": false,
      "deprecatedAndHidden": false,
      "digits": 0,
      "displayLocationInDecimal": false,
      "externalId": false,
      "extraTypeInfo": false,
      "filterable": false,
      "filteredLookupInfo": false,
      "groupable": false,
      "htmlFormatted": false,
      "idLookup": false,
      "inlineHelpText": false,
      "label": false,
      "length": false,
      "mask": false,
      "maskType": false,
      "name": "CreatedById",
      "nameField": false,
      "namePointing": false,
      "nillable": false,
      "permissionable": false,
      "picklistValues": false,
      "precision": false,
      "queryByDistance": false,
      "referenceTargetField": false,
      "referenceTo": false,
      "relationshipName": false,
      "relationshipOrder": false,
      "restrictedDelete": false,
      "restrictedPicklist": false,
      "scale": false,
      "soapType": false,
      "sortable": false,
      "type": false,
      "unique": false,
      "updateable": false,
      "writeRequiresMasterRead": false
    },
    "LastModifiedDate": {
      "dictFields": null,
      "autoNumber": false,
      "byteLength": 0,
      "calculated": false,
      "calculatedFormula": false,
      "cascadeDelete": false,
      "caseSensitive": false,
      "controllerName": false,
      "createable": false,
      "custom": false,
      "defaultValue": false,
      "defaultValueFormula": null,
      "defaultedOnCreate": false,
      "dependentPicklist": false,
      "deprecatedAndHidden": false,
      "digits": 0,
      "displayLocationInDecimal": false,
      "externalId": false,
      "extraTypeInfo": false,
      "filterable": false,
      "filteredLookupInfo": false,
      "groupable": false,
      "htmlFormatted": false,
      "idLookup": false,
      "inlineHelpText": false,
      "label": false,
      "length": false,
      "mask": false,
      "maskType": false,
      "name": "LastModifiedDate",
      "nameField": false,
      "namePointing": false,
      "nillable": false,
      "permissionable": false,
      "picklistValues": false,
      "precision": false,
      "queryByDistance": false,
      "referenceTargetField": false,
      "referenceTo": false,
      "relationshipName": false,
      "relationshipOrder": false,
      "restrictedDelete": false,
      "restrictedPicklist": false,
      "scale": false,
      "soapType": false,
      "sortable": false,
      "type": false,
      "unique": false,
      "updateable": false,
      "writeRequiresMasterRead": false
    },
    "LastModifiedById": {
      "dictFields": null,
      "autoNumber": false,
      "byteLength": 0,
      "calculated": false,
      "calculatedFormula": false,
      "cascadeDelete": false,
      "caseSensitive": false,
      "controllerName": false,
      "createable": false,
      "custom": false,
      "defaultValue": false,
      "defaultValueFormula": null,
      "defaultedOnCreate": false,
      "dependentPicklist": false,
      "deprecatedAndHidden": false,
      "digits": 0,
      "displayLocationInDecimal": false,
      "externalId": false,
      "extraTypeInfo": false,
      "filterable": false,
      "filteredLookupInfo": false,
      "groupable": false,
      "htmlFormatted": false,
      "idLookup": false,
      "inlineHelpText": false,
      "label": false,
      "length": false,
      "mask": false,
      "maskType": false,
      "name": "LastModifiedById",
      "nameField": false,
      "namePointing": false,
      "nillable": false,
      "permissionable": false,
      "picklistValues": false,
      "precision": false,
      "queryByDistance": false,
      "referenceTargetField": false,
      "referenceTo": false,
      "relationshipName": false,
      "relationshipOrder": false,
      "restrictedDelete": false,
      "restrictedPicklist": false,
      "scale": false,
      "soapType": false,
      "sortable": false,
      "type": false,
      "unique": false,
      "updateable": false,
      "writeRequiresMasterRead": false
    },
    "SystemModstamp": {
      "dictFields": null,
      "autoNumber": false,
      "byteLength": 0,
      "calculated": false,
      "calculatedFormula": false,
      "cascadeDelete": false,
      "caseSensitive": false,
      "controllerName": false,
      "createable": false,
      "custom": false,
      "defaultValue": false,
      "defaultValueFormula": null,
      "defaultedOnCreate": false,
      "dependentPicklist": false,
      "deprecatedAndHidden": false,
      "digits": 0,
      "displayLocationInDecimal": false,
      "externalId": false,
      "extraTypeInfo": false,
      "filterable": false,
      "filteredLookupInfo": false,
      "groupable": false,
      "htmlFormatted": false,
      "idLookup": false,
      "inlineHelpText": false,
      "label": false,
      "length": false,
      "mask": false,
      "maskType": false,
      "name": "SystemModstamp",
      "nameField": false,
      "namePointing": false,
      "nillable": false,
      "permissionable": false,
      "picklistValues": false,
      "precision": false,
      "queryByDistance": false,
      "referenceTargetField": false,
      "referenceTo": false,
      "relationshipName": false,
      "relationshipOrder": false,
      "restrictedDelete": false,
      "restrictedPicklist": false,
      "scale": false,
      "soapType": false,
      "sortable": false,
      "type": false,
      "unique": false,
      "updateable": false,
      "writeRequiresMasterRead": false
    }
  },
  "dictCustomFields": {
    "ccrz__CartItem__c": {
      "autoNumber": false,
      "byteLength": 0,
      "calculated": false,
      "calculatedFormula": false,
      "cascadeDelete": false,
      "caseSensitive": false,
      "controllerName": false,
      "createable": false,
      "custom": false,
      "defaultValue": false,
      "defaultValueFormula": null,
      "defaultedOnCreate": false,
      "dependentPicklist": false,
      "deprecatedAndHidden": false,
      "digits": 0,
      "displayLocationInDecimal": false,
      "externalId": false,
      "extraTypeInfo": false,
      "filterable": false,
      "filteredLookupInfo": false,
      "groupable": false,
      "htmlFormatted": false,
      "idLookup": false,
      "inlineHelpText": false,
      "label": false,
      "length": false,
      "mask": false,
      "maskType": false,
      "name": "ccrz__CartItem__c",
      "nameField": false,
      "namePointing": false,
      "nillable": false,
      "permissionable": false,
      "picklistValues": false,
      "precision": false,
      "queryByDistance": false,
      "referenceTargetField": false,
      "referenceTo": false,
      "relationshipName": false,
      "relationshipOrder": false,
      "restrictedDelete": false,
      "restrictedPicklist": false,
      "scale": false,
      "soapType": false,
      "sortable": false,
      "type": false,
      "unique": false,
      "updateable": false,
      "writeRequiresMasterRead": false
    },
    "ccrz__CartItemPricingTierId__c": {
      "autoNumber": false,
      "byteLength": 0,
      "calculated": false,
      "calculatedFormula": false,
      "cascadeDelete": false,
      "caseSensitive": false,
      "controllerName": false,
      "createable": false,
      "custom": false,
      "defaultValue": false,
      "defaultValueFormula": null,
      "defaultedOnCreate": false,
      "dependentPicklist": false,
      "deprecatedAndHidden": false,
      "digits": 0,
      "displayLocationInDecimal": false,
      "externalId": false,
      "extraTypeInfo": false,
      "filterable": false,
      "filteredLookupInfo": false,
      "groupable": false,
      "htmlFormatted": false,
      "idLookup": false,
      "inlineHelpText": false,
      "label": false,
      "length": false,
      "mask": false,
      "maskType": false,
      "name": "ccrz__CartItemPricingTierId__c",
      "nameField": false,
      "namePointing": false,
      "nillable": false,
      "permissionable": false,
      "picklistValues": false,
      "precision": false,
      "queryByDistance": false,
      "referenceTargetField": false,
      "referenceTo": false,
      "relationshipName": false,
      "relationshipOrder": false,
      "restrictedDelete": false,
      "restrictedPicklist": false,
      "scale": false,
      "soapType": false,
      "sortable": false,
      "type": false,
      "unique": false,
      "updateable": false,
      "writeRequiresMasterRead": false
    },
    "ccrz__Price__c": {
      "autoNumber": false,
      "byteLength": 0,
      "calculated": false,
      "calculatedFormula": false,
      "cascadeDelete": false,
      "caseSensitive": false,
      "controllerName": false,
      "createable": false,
      "custom": false,
      "defaultValue": false,
      "defaultValueFormula": null,
      "defaultedOnCreate": false,
      "dependentPicklist": false,
      "deprecatedAndHidden": false,
      "digits": 0,
      "displayLocationInDecimal": false,
      "externalId": false,
      "extraTypeInfo": false,
      "filterable": false,
      "filteredLookupInfo": false,
      "groupable": false,
      "htmlFormatted": false,
      "idLookup": false,
      "inlineHelpText": false,
      "label": false,
      "length": false,
      "mask": false,
      "maskType": false,
      "name": "ccrz__Price__c",
      "nameField": false,
      "namePointing": false,
      "nillable": false,
      "permissionable": false,
      "picklistValues": false,
      "precision": false,
      "queryByDistance": false,
      "referenceTargetField": false,
      "referenceTo": false,
      "relationshipName": false,
      "relationshipOrder": false,
      "restrictedDelete": false,
      "restrictedPicklist": false,
      "scale": false,
      "soapType": false,
      "sortable": false,
      "type": false,
      "unique": false,
      "updateable": false,
      "writeRequiresMasterRead": false
    },
    "ccrz__Quantity__c": {
      "autoNumber": false,
      "byteLength": 0,
      "calculated": false,
      "calculatedFormula": false,
      "cascadeDelete": false,
      "caseSensitive": false,
      "controllerName": false,
      "createable": false,
      "custom": false,
      "defaultValue": false,
      "defaultValueFormula": null,
      "defaultedOnCreate": false,
      "dependentPicklist": false,
      "deprecatedAndHidden": false,
      "digits": 0,
      "displayLocationInDecimal": false,
      "externalId": false,
      "extraTypeInfo": false,
      "filterable": false,
      "filteredLookupInfo": false,
      "groupable": false,
      "htmlFormatted": false,
      "idLookup": false,
      "inlineHelpText": false,
      "label": false,
      "length": false,
      "mask": false,
      "maskType": false,
      "name": "ccrz__Quantity__c",
      "nameField": false,
      "namePointing": false,
      "nillable": false,
      "permissionable": false,
      "picklistValues": false,
      "precision": false,
      "queryByDistance": false,
      "referenceTargetField": false,
      "referenceTo": false,
      "relationshipName": false,
      "relationshipOrder": false,
      "restrictedDelete": false,
      "restrictedPicklist": false,
      "scale": false,
      "soapType": false,
      "sortable": false,
      "type": false,
      "unique": false,
      "updateable": false,
      "writeRequiresMasterRead": false
    },
    "ccrz__SubAmount__c": {
      "autoNumber": false,
      "byteLength": 0,
      "calculated": false,
      "calculatedFormula": false,
      "cascadeDelete": false,
      "caseSensitive": false,
      "controllerName": false,
      "createable": false,
      "custom": false,
      "defaultValue": false,
      "defaultValueFormula": null,
      "defaultedOnCreate": false,
      "dependentPicklist": false,
      "deprecatedAndHidden": false,
      "digits": 0,
      "displayLocationInDecimal": false,
      "externalId": false,
      "extraTypeInfo": false,
      "filterable": false,
      "filteredLookupInfo": false,
      "groupable": false,
      "htmlFormatted": false,
      "idLookup": false,
      "inlineHelpText": false,
      "label": false,
      "length": false,
      "mask": false,
      "maskType": false,
      "name": "ccrz__SubAmount__c",
      "nameField": false,
      "namePointing": false,
      "nillable": false,
      "permissionable": false,
      "picklistValues": false,
      "precision": false,
      "queryByDistance": false,
      "referenceTargetField": false,
      "referenceTo": false,
      "relationshipName": false,
      "relationshipOrder": false,
      "restrictedDelete": false,
      "restrictedPicklist": false,
      "scale": false,
      "soapType": false,
      "sortable": false,
      "type": false,
      "unique": false,
      "updateable": false,
      "writeRequiresMasterRead": false
    }
  }
}
