{
  "id": null,
  "name": "SCContractItem__c",
  "type": 0,
  "url": null,
  "dicReferencedBy": null,
  "dicReferencedTo": null,
  "sObjectprefix": null,
  "sObject": {
    "activateable": false,
    "createable": true,
    "custom": true,
    "customSetting": false,
    "deletable": true,
    "deprecatedAndHidden": false,
    "feedEnabled": false,
    "keyPrefix": "a18",
    "label": "Contract Item",
    "labelPlural": "Contract Items",
    "layoutable": true,
    "mergeable": false,
    "name": "SCContractItem__c",
    "queryable": true,
    "replicateable": true,
    "retrieveable": true,
    "searchable": true,
    "triggerable": true,
    "undeletable": true,
    "updateable": true
  },
  "dictStandardFields": {
    "Id": {
      "dictFields": null,
      "autoNumber": false,
      "byteLength": 0,
      "calculated": false,
      "calculatedFormula": false,
      "cascadeDelete": false,
      "caseSensitive": false,
      "controllerName": false,
      "createable": false,
      "custom": false,
      "defaultValue": false,
      "defaultValueFormula": null,
      "defaultedOnCreate": false,
      "dependentPicklist": false,
      "deprecatedAndHidden": false,
      "digits": 0,
      "displayLocationInDecimal": false,
      "externalId": false,
      "extraTypeInfo": false,
      "filterable": false,
      "filteredLookupInfo": false,
      "groupable": false,
      "htmlFormatted": false,
      "idLookup": false,
      "inlineHelpText": false,
      "label": false,
      "length": false,
      "mask": false,
      "maskType": false,
      "name": "Id",
      "nameField": false,
      "namePointing": false,
      "nillable": false,
      "permissionable": false,
      "picklistValues": false,
      "precision": false,
      "queryByDistance": false,
      "referenceTargetField": false,
      "referenceTo": false,
      "relationshipName": false,
      "relationshipOrder": false,
      "restrictedDelete": false,
      "restrictedPicklist": false,
      "scale": false,
      "soapType": false,
      "sortable": false,
      "type": false,
      "unique": false,
      "updateable": false,
      "writeRequiresMasterRead": false
    },
    "IsDeleted": {
      "dictFields": null,
      "autoNumber": false,
      "byteLength": 0,
      "calculated": false,
      "calculatedFormula": false,
      "cascadeDelete": false,
      "caseSensitive": false,
      "controllerName": false,
      "createable": false,
      "custom": false,
      "defaultValue": false,
      "defaultValueFormula": null,
      "defaultedOnCreate": false,
      "dependentPicklist": false,
      "deprecatedAndHidden": false,
      "digits": 0,
      "displayLocationInDecimal": false,
      "externalId": false,
      "extraTypeInfo": false,
      "filterable": false,
      "filteredLookupInfo": false,
      "groupable": false,
      "htmlFormatted": false,
      "idLookup": false,
      "inlineHelpText": false,
      "label": false,
      "length": false,
      "mask": false,
      "maskType": false,
      "name": "IsDeleted",
      "nameField": false,
      "namePointing": false,
      "nillable": false,
      "permissionable": false,
      "picklistValues": false,
      "precision": false,
      "queryByDistance": false,
      "referenceTargetField": false,
      "referenceTo": false,
      "relationshipName": false,
      "relationshipOrder": false,
      "restrictedDelete": false,
      "restrictedPicklist": false,
      "scale": false,
      "soapType": false,
      "sortable": false,
      "type": false,
      "unique": false,
      "updateable": false,
      "writeRequiresMasterRead": false
    },
    "Name": {
      "dictFields": null,
      "autoNumber": true,
      "byteLength": 0,
      "calculated": false,
      "calculatedFormula": false,
      "cascadeDelete": false,
      "caseSensitive": false,
      "controllerName": false,
      "createable": false,
      "custom": false,
      "defaultValue": false,
      "defaultValueFormula": null,
      "defaultedOnCreate": false,
      "dependentPicklist": false,
      "deprecatedAndHidden": false,
      "digits": 0,
      "displayLocationInDecimal": false,
      "externalId": false,
      "extraTypeInfo": false,
      "filterable": false,
      "filteredLookupInfo": false,
      "groupable": false,
      "htmlFormatted": false,
      "idLookup": false,
      "inlineHelpText": false,
      "label": false,
      "length": false,
      "mask": false,
      "maskType": false,
      "name": "Name",
      "nameField": false,
      "namePointing": false,
      "nillable": false,
      "permissionable": false,
      "picklistValues": false,
      "precision": false,
      "queryByDistance": false,
      "referenceTargetField": false,
      "referenceTo": false,
      "relationshipName": false,
      "relationshipOrder": false,
      "restrictedDelete": false,
      "restrictedPicklist": false,
      "scale": false,
      "soapType": false,
      "sortable": false,
      "type": false,
      "unique": false,
      "updateable": false,
      "writeRequiresMasterRead": false
    },
    "CurrencyIsoCode": {
      "dictFields": null,
      "autoNumber": false,
      "byteLength": 0,
      "calculated": false,
      "calculatedFormula": false,
      "cascadeDelete": false,
      "caseSensitive": false,
      "controllerName": false,
      "createable": false,
      "custom": false,
      "defaultValue": false,
      "defaultValueFormula": null,
      "defaultedOnCreate": false,
      "dependentPicklist": false,
      "deprecatedAndHidden": false,
      "digits": 0,
      "displayLocationInDecimal": false,
      "externalId": false,
      "extraTypeInfo": false,
      "filterable": false,
      "filteredLookupInfo": false,
      "groupable": false,
      "htmlFormatted": false,
      "idLookup": false,
      "inlineHelpText": false,
      "label": false,
      "length": false,
      "mask": false,
      "maskType": false,
      "name": "CurrencyIsoCode",
      "nameField": false,
      "namePointing": false,
      "nillable": false,
      "permissionable": false,
      "picklistValues": false,
      "precision": false,
      "queryByDistance": false,
      "referenceTargetField": false,
      "referenceTo": false,
      "relationshipName": false,
      "relationshipOrder": false,
      "restrictedDelete": false,
      "restrictedPicklist": false,
      "scale": false,
      "soapType": false,
      "sortable": false,
      "type": false,
      "unique": false,
      "updateable": false,
      "writeRequiresMasterRead": false
    },
    "CreatedDate": {
      "dictFields": null,
      "autoNumber": false,
      "byteLength": 0,
      "calculated": false,
      "calculatedFormula": false,
      "cascadeDelete": false,
      "caseSensitive": false,
      "controllerName": false,
      "createable": false,
      "custom": false,
      "defaultValue": false,
      "defaultValueFormula": null,
      "defaultedOnCreate": false,
      "dependentPicklist": false,
      "deprecatedAndHidden": false,
      "digits": 0,
      "displayLocationInDecimal": false,
      "externalId": false,
      "extraTypeInfo": false,
      "filterable": false,
      "filteredLookupInfo": false,
      "groupable": false,
      "htmlFormatted": false,
      "idLookup": false,
      "inlineHelpText": false,
      "label": false,
      "length": false,
      "mask": false,
      "maskType": false,
      "name": "CreatedDate",
      "nameField": false,
      "namePointing": false,
      "nillable": false,
      "permissionable": false,
      "picklistValues": false,
      "precision": false,
      "queryByDistance": false,
      "referenceTargetField": false,
      "referenceTo": false,
      "relationshipName": false,
      "relationshipOrder": false,
      "restrictedDelete": false,
      "restrictedPicklist": false,
      "scale": false,
      "soapType": false,
      "sortable": false,
      "type": false,
      "unique": false,
      "updateable": false,
      "writeRequiresMasterRead": false
    },
    "CreatedById": {
      "dictFields": null,
      "autoNumber": false,
      "byteLength": 0,
      "calculated": false,
      "calculatedFormula": false,
      "cascadeDelete": false,
      "caseSensitive": false,
      "controllerName": false,
      "createable": false,
      "custom": false,
      "defaultValue": false,
      "defaultValueFormula": null,
      "defaultedOnCreate": false,
      "dependentPicklist": false,
      "deprecatedAndHidden": false,
      "digits": 0,
      "displayLocationInDecimal": false,
      "externalId": false,
      "extraTypeInfo": false,
      "filterable": false,
      "filteredLookupInfo": false,
      "groupable": false,
      "htmlFormatted": false,
      "idLookup": false,
      "inlineHelpText": false,
      "label": false,
      "length": false,
      "mask": false,
      "maskType": false,
      "name": "CreatedById",
      "nameField": false,
      "namePointing": false,
      "nillable": false,
      "permissionable": false,
      "picklistValues": false,
      "precision": false,
      "queryByDistance": false,
      "referenceTargetField": false,
      "referenceTo": false,
      "relationshipName": false,
      "relationshipOrder": false,
      "restrictedDelete": false,
      "restrictedPicklist": false,
      "scale": false,
      "soapType": false,
      "sortable": false,
      "type": false,
      "unique": false,
      "updateable": false,
      "writeRequiresMasterRead": false
    },
    "LastModifiedDate": {
      "dictFields": null,
      "autoNumber": false,
      "byteLength": 0,
      "calculated": false,
      "calculatedFormula": false,
      "cascadeDelete": false,
      "caseSensitive": false,
      "controllerName": false,
      "createable": false,
      "custom": false,
      "defaultValue": false,
      "defaultValueFormula": null,
      "defaultedOnCreate": false,
      "dependentPicklist": false,
      "deprecatedAndHidden": false,
      "digits": 0,
      "displayLocationInDecimal": false,
      "externalId": false,
      "extraTypeInfo": false,
      "filterable": false,
      "filteredLookupInfo": false,
      "groupable": false,
      "htmlFormatted": false,
      "idLookup": false,
      "inlineHelpText": false,
      "label": false,
      "length": false,
      "mask": false,
      "maskType": false,
      "name": "LastModifiedDate",
      "nameField": false,
      "namePointing": false,
      "nillable": false,
      "permissionable": false,
      "picklistValues": false,
      "precision": false,
      "queryByDistance": false,
      "referenceTargetField": false,
      "referenceTo": false,
      "relationshipName": false,
      "relationshipOrder": false,
      "restrictedDelete": false,
      "restrictedPicklist": false,
      "scale": false,
      "soapType": false,
      "sortable": false,
      "type": false,
      "unique": false,
      "updateable": false,
      "writeRequiresMasterRead": false
    },
    "LastModifiedById": {
      "dictFields": null,
      "autoNumber": false,
      "byteLength": 0,
      "calculated": false,
      "calculatedFormula": false,
      "cascadeDelete": false,
      "caseSensitive": false,
      "controllerName": false,
      "createable": false,
      "custom": false,
      "defaultValue": false,
      "defaultValueFormula": null,
      "defaultedOnCreate": false,
      "dependentPicklist": false,
      "deprecatedAndHidden": false,
      "digits": 0,
      "displayLocationInDecimal": false,
      "externalId": false,
      "extraTypeInfo": false,
      "filterable": false,
      "filteredLookupInfo": false,
      "groupable": false,
      "htmlFormatted": false,
      "idLookup": false,
      "inlineHelpText": false,
      "label": false,
      "length": false,
      "mask": false,
      "maskType": false,
      "name": "LastModifiedById",
      "nameField": false,
      "namePointing": false,
      "nillable": false,
      "permissionable": false,
      "picklistValues": false,
      "precision": false,
      "queryByDistance": false,
      "referenceTargetField": false,
      "referenceTo": false,
      "relationshipName": false,
      "relationshipOrder": false,
      "restrictedDelete": false,
      "restrictedPicklist": false,
      "scale": false,
      "soapType": false,
      "sortable": false,
      "type": false,
      "unique": false,
      "updateable": false,
      "writeRequiresMasterRead": false
    },
    "SystemModstamp": {
      "dictFields": null,
      "autoNumber": false,
      "byteLength": 0,
      "calculated": false,
      "calculatedFormula": false,
      "cascadeDelete": false,
      "caseSensitive": false,
      "controllerName": false,
      "createable": false,
      "custom": false,
      "defaultValue": false,
      "defaultValueFormula": null,
      "defaultedOnCreate": false,
      "dependentPicklist": false,
      "deprecatedAndHidden": false,
      "digits": 0,
      "displayLocationInDecimal": false,
      "externalId": false,
      "extraTypeInfo": false,
      "filterable": false,
      "filteredLookupInfo": false,
      "groupable": false,
      "htmlFormatted": false,
      "idLookup": false,
      "inlineHelpText": false,
      "label": false,
      "length": false,
      "mask": false,
      "maskType": false,
      "name": "SystemModstamp",
      "nameField": false,
      "namePointing": false,
      "nillable": false,
      "permissionable": false,
      "picklistValues": false,
      "precision": false,
      "queryByDistance": false,
      "referenceTargetField": false,
      "referenceTo": false,
      "relationshipName": false,
      "relationshipOrder": false,
      "restrictedDelete": false,
      "restrictedPicklist": false,
      "scale": false,
      "soapType": false,
      "sortable": false,
      "type": false,
      "unique": false,
      "updateable": false,
      "writeRequiresMasterRead": false
    },
    "LastActivityDate": {
      "dictFields": null,
      "autoNumber": false,
      "byteLength": 0,
      "calculated": false,
      "calculatedFormula": false,
      "cascadeDelete": false,
      "caseSensitive": false,
      "controllerName": false,
      "createable": false,
      "custom": false,
      "defaultValue": false,
      "defaultValueFormula": null,
      "defaultedOnCreate": false,
      "dependentPicklist": false,
      "deprecatedAndHidden": false,
      "digits": 0,
      "displayLocationInDecimal": false,
      "externalId": false,
      "extraTypeInfo": false,
      "filterable": false,
      "filteredLookupInfo": false,
      "groupable": false,
      "htmlFormatted": false,
      "idLookup": false,
      "inlineHelpText": false,
      "label": false,
      "length": false,
      "mask": false,
      "maskType": false,
      "name": "LastActivityDate",
      "nameField": false,
      "namePointing": false,
      "nillable": false,
      "permissionable": false,
      "picklistValues": false,
      "precision": false,
      "queryByDistance": false,
      "referenceTargetField": false,
      "referenceTo": false,
      "relationshipName": false,
      "relationshipOrder": false,
      "restrictedDelete": false,
      "restrictedPicklist": false,
      "scale": false,
      "soapType": false,
      "sortable": false,
      "type": false,
      "unique": false,
      "updateable": false,
      "writeRequiresMasterRead": false
    }
  },
  "dictCustomFields": {
    "Contract__c": {
      "autoNumber": false,
      "byteLength": 0,
      "calculated": false,
      "calculatedFormula": false,
      "cascadeDelete": false,
      "caseSensitive": false,
      "controllerName": false,
      "createable": false,
      "custom": false,
      "defaultValue": false,
      "defaultValueFormula": null,
      "defaultedOnCreate": false,
      "dependentPicklist": false,
      "deprecatedAndHidden": false,
      "digits": 0,
      "displayLocationInDecimal": false,
      "externalId": false,
      "extraTypeInfo": false,
      "filterable": false,
      "filteredLookupInfo": false,
      "groupable": false,
      "htmlFormatted": false,
      "idLookup": false,
      "inlineHelpText": false,
      "label": false,
      "length": false,
      "mask": false,
      "maskType": false,
      "name": "Contract__c",
      "nameField": false,
      "namePointing": false,
      "nillable": false,
      "permissionable": false,
      "picklistValues": false,
      "precision": false,
      "queryByDistance": false,
      "referenceTargetField": false,
      "referenceTo": false,
      "relationshipName": false,
      "relationshipOrder": false,
      "restrictedDelete": false,
      "restrictedPicklist": false,
      "scale": false,
      "soapType": false,
      "sortable": false,
      "type": false,
      "unique": false,
      "updateable": false,
      "writeRequiresMasterRead": false
    },
    "ID2__c": {
      "autoNumber": false,
      "byteLength": 0,
      "calculated": false,
      "calculatedFormula": false,
      "cascadeDelete": false,
      "caseSensitive": false,
      "controllerName": false,
      "createable": false,
      "custom": false,
      "defaultValue": false,
      "defaultValueFormula": null,
      "defaultedOnCreate": false,
      "dependentPicklist": false,
      "deprecatedAndHidden": false,
      "digits": 0,
      "displayLocationInDecimal": false,
      "externalId": false,
      "extraTypeInfo": false,
      "filterable": false,
      "filteredLookupInfo": false,
      "groupable": false,
      "htmlFormatted": false,
      "idLookup": false,
      "inlineHelpText": false,
      "label": false,
      "length": false,
      "mask": false,
      "maskType": false,
      "name": "ID2__c",
      "nameField": false,
      "namePointing": false,
      "nillable": false,
      "permissionable": false,
      "picklistValues": false,
      "precision": false,
      "queryByDistance": false,
      "referenceTargetField": false,
      "referenceTo": false,
      "relationshipName": false,
      "relationshipOrder": false,
      "restrictedDelete": false,
      "restrictedPicklist": false,
      "scale": false,
      "soapType": false,
      "sortable": false,
      "type": false,
      "unique": false,
      "updateable": false,
      "writeRequiresMasterRead": false
    },
    "InstalledBase__c": {
      "autoNumber": false,
      "byteLength": 0,
      "calculated": false,
      "calculatedFormula": false,
      "cascadeDelete": false,
      "caseSensitive": false,
      "controllerName": false,
      "createable": false,
      "custom": false,
      "defaultValue": false,
      "defaultValueFormula": null,
      "defaultedOnCreate": false,
      "dependentPicklist": false,
      "deprecatedAndHidden": false,
      "digits": 0,
      "displayLocationInDecimal": false,
      "externalId": false,
      "extraTypeInfo": false,
      "filterable": false,
      "filteredLookupInfo": false,
      "groupable": false,
      "htmlFormatted": false,
      "idLookup": false,
      "inlineHelpText": false,
      "label": false,
      "length": false,
      "mask": false,
      "maskType": false,
      "name": "InstalledBase__c",
      "nameField": false,
      "namePointing": false,
      "nillable": false,
      "permissionable": false,
      "picklistValues": false,
      "precision": false,
      "queryByDistance": false,
      "referenceTargetField": false,
      "referenceTo": false,
      "relationshipName": false,
      "relationshipOrder": false,
      "restrictedDelete": false,
      "restrictedPicklist": false,
      "scale": false,
      "soapType": false,
      "sortable": false,
      "type": false,
      "unique": false,
      "updateable": false,
      "writeRequiresMasterRead": false
    },
    "MaintenanceDiscount__c": {
      "autoNumber": false,
      "byteLength": 0,
      "calculated": false,
      "calculatedFormula": false,
      "cascadeDelete": false,
      "caseSensitive": false,
      "controllerName": false,
      "createable": false,
      "custom": false,
      "defaultValue": false,
      "defaultValueFormula": null,
      "defaultedOnCreate": false,
      "dependentPicklist": false,
      "deprecatedAndHidden": false,
      "digits": 0,
      "displayLocationInDecimal": false,
      "externalId": false,
      "extraTypeInfo": false,
      "filterable": false,
      "filteredLookupInfo": false,
      "groupable": false,
      "htmlFormatted": false,
      "idLookup": false,
      "inlineHelpText": false,
      "label": false,
      "length": false,
      "mask": false,
      "maskType": false,
      "name": "MaintenanceDiscount__c",
      "nameField": false,
      "namePointing": false,
      "nillable": false,
      "permissionable": false,
      "picklistValues": false,
      "precision": false,
      "queryByDistance": false,
      "referenceTargetField": false,
      "referenceTo": false,
      "relationshipName": false,
      "relationshipOrder": false,
      "restrictedDelete": false,
      "restrictedPicklist": false,
      "scale": false,
      "soapType": false,
      "sortable": false,
      "type": false,
      "unique": false,
      "updateable": false,
      "writeRequiresMasterRead": false
    },
    "MaintenanceDuration__c": {
      "autoNumber": false,
      "byteLength": 0,
      "calculated": false,
      "calculatedFormula": false,
      "cascadeDelete": false,
      "caseSensitive": false,
      "controllerName": false,
      "createable": false,
      "custom": false,
      "defaultValue": false,
      "defaultValueFormula": null,
      "defaultedOnCreate": false,
      "dependentPicklist": false,
      "deprecatedAndHidden": false,
      "digits": 0,
      "displayLocationInDecimal": false,
      "externalId": false,
      "extraTypeInfo": false,
      "filterable": false,
      "filteredLookupInfo": false,
      "groupable": false,
      "htmlFormatted": false,
      "idLookup": false,
      "inlineHelpText": false,
      "label": false,
      "length": false,
      "mask": false,
      "maskType": false,
      "name": "MaintenanceDuration__c",
      "nameField": false,
      "namePointing": false,
      "nillable": false,
      "permissionable": false,
      "picklistValues": false,
      "precision": false,
      "queryByDistance": false,
      "referenceTargetField": false,
      "referenceTo": false,
      "relationshipName": false,
      "relationshipOrder": false,
      "restrictedDelete": false,
      "restrictedPicklist": false,
      "scale": false,
      "soapType": false,
      "sortable": false,
      "type": false,
      "unique": false,
      "updateable": false,
      "writeRequiresMasterRead": false
    },
    "MaintenanceInterval__c": {
      "autoNumber": false,
      "byteLength": 0,
      "calculated": false,
      "calculatedFormula": false,
      "cascadeDelete": false,
      "caseSensitive": false,
      "controllerName": false,
      "createable": false,
      "custom": false,
      "defaultValue": false,
      "defaultValueFormula": null,
      "defaultedOnCreate": false,
      "dependentPicklist": false,
      "deprecatedAndHidden": false,
      "digits": 0,
      "displayLocationInDecimal": false,
      "externalId": false,
      "extraTypeInfo": false,
      "filterable": false,
      "filteredLookupInfo": false,
      "groupable": false,
      "htmlFormatted": false,
      "idLookup": false,
      "inlineHelpText": false,
      "label": false,
      "length": false,
      "mask": false,
      "maskType": false,
      "name": "MaintenanceInterval__c",
      "nameField": false,
      "namePointing": false,
      "nillable": false,
      "permissionable": false,
      "picklistValues": false,
      "precision": false,
      "queryByDistance": false,
      "referenceTargetField": false,
      "referenceTo": false,
      "relationshipName": false,
      "relationshipOrder": false,
      "restrictedDelete": false,
      "restrictedPicklist": false,
      "scale": false,
      "soapType": false,
      "sortable": false,
      "type": false,
      "unique": false,
      "updateable": false,
      "writeRequiresMasterRead": false
    },
    "MaintenanceLastDate__c": {
      "autoNumber": false,
      "byteLength": 0,
      "calculated": false,
      "calculatedFormula": false,
      "cascadeDelete": false,
      "caseSensitive": false,
      "controllerName": false,
      "createable": false,
      "custom": false,
      "defaultValue": false,
      "defaultValueFormula": null,
      "defaultedOnCreate": false,
      "dependentPicklist": false,
      "deprecatedAndHidden": false,
      "digits": 0,
      "displayLocationInDecimal": false,
      "externalId": false,
      "extraTypeInfo": false,
      "filterable": false,
      "filteredLookupInfo": false,
      "groupable": false,
      "htmlFormatted": false,
      "idLookup": false,
      "inlineHelpText": false,
      "label": false,
      "length": false,
      "mask": false,
      "maskType": false,
      "name": "MaintenanceLastDate__c",
      "nameField": false,
      "namePointing": false,
      "nillable": false,
      "permissionable": false,
      "picklistValues": false,
      "precision": false,
      "queryByDistance": false,
      "referenceTargetField": false,
      "referenceTo": false,
      "relationshipName": false,
      "relationshipOrder": false,
      "restrictedDelete": false,
      "restrictedPicklist": false,
      "scale": false,
      "soapType": false,
      "sortable": false,
      "type": false,
      "unique": false,
      "updateable": false,
      "writeRequiresMasterRead": false
    },
    "MaintenanceNextDate__c": {
      "autoNumber": false,
      "byteLength": 0,
      "calculated": false,
      "calculatedFormula": false,
      "cascadeDelete": false,
      "caseSensitive": false,
      "controllerName": false,
      "createable": false,
      "custom": false,
      "defaultValue": false,
      "defaultValueFormula": null,
      "defaultedOnCreate": false,
      "dependentPicklist": false,
      "deprecatedAndHidden": false,
      "digits": 0,
      "displayLocationInDecimal": false,
      "externalId": false,
      "extraTypeInfo": false,
      "filterable": false,
      "filteredLookupInfo": false,
      "groupable": false,
      "htmlFormatted": false,
      "idLookup": false,
      "inlineHelpText": false,
      "label": false,
      "length": false,
      "mask": false,
      "maskType": false,
      "name": "MaintenanceNextDate__c",
      "nameField": false,
      "namePointing": false,
      "nillable": false,
      "permissionable": false,
      "picklistValues": false,
      "precision": false,
      "queryByDistance": false,
      "referenceTargetField": false,
      "referenceTo": false,
      "relationshipName": false,
      "relationshipOrder": false,
      "restrictedDelete": false,
      "restrictedPicklist": false,
      "scale": false,
      "soapType": false,
      "sortable": false,
      "type": false,
      "unique": false,
      "updateable": false,
      "writeRequiresMasterRead": false
    },
    "MaintenancePriceCalc__c": {
      "autoNumber": false,
      "byteLength": 0,
      "calculated": false,
      "calculatedFormula": false,
      "cascadeDelete": false,
      "caseSensitive": false,
      "controllerName": false,
      "createable": false,
      "custom": false,
      "defaultValue": false,
      "defaultValueFormula": null,
      "defaultedOnCreate": false,
      "dependentPicklist": false,
      "deprecatedAndHidden": false,
      "digits": 0,
      "displayLocationInDecimal": false,
      "externalId": false,
      "extraTypeInfo": false,
      "filterable": false,
      "filteredLookupInfo": false,
      "groupable": false,
      "htmlFormatted": false,
      "idLookup": false,
      "inlineHelpText": false,
      "label": false,
      "length": false,
      "mask": false,
      "maskType": false,
      "name": "MaintenancePriceCalc__c",
      "nameField": false,
      "namePointing": false,
      "nillable": false,
      "permissionable": false,
      "picklistValues": false,
      "precision": false,
      "queryByDistance": false,
      "referenceTargetField": false,
      "referenceTo": false,
      "relationshipName": false,
      "relationshipOrder": false,
      "restrictedDelete": false,
      "restrictedPicklist": false,
      "scale": false,
      "soapType": false,
      "sortable": false,
      "type": false,
      "unique": false,
      "updateable": false,
      "writeRequiresMasterRead": false
    },
    "MaintenancePrice__c": {
      "autoNumber": false,
      "byteLength": 0,
      "calculated": false,
      "calculatedFormula": false,
      "cascadeDelete": false,
      "caseSensitive": false,
      "controllerName": false,
      "createable": false,
      "custom": false,
      "defaultValue": false,
      "defaultValueFormula": null,
      "defaultedOnCreate": false,
      "dependentPicklist": false,
      "deprecatedAndHidden": false,
      "digits": 0,
      "displayLocationInDecimal": false,
      "externalId": false,
      "extraTypeInfo": false,
      "filterable": false,
      "filteredLookupInfo": false,
      "groupable": false,
      "htmlFormatted": false,
      "idLookup": false,
      "inlineHelpText": false,
      "label": false,
      "length": false,
      "mask": false,
      "maskType": false,
      "name": "MaintenancePrice__c",
      "nameField": false,
      "namePointing": false,
      "nillable": false,
      "permissionable": false,
      "picklistValues": false,
      "precision": false,
      "queryByDistance": false,
      "referenceTargetField": false,
      "referenceTo": false,
      "relationshipName": false,
      "relationshipOrder": false,
      "restrictedDelete": false,
      "restrictedPicklist": false,
      "scale": false,
      "soapType": false,
      "sortable": false,
      "type": false,
      "unique": false,
      "updateable": false,
      "writeRequiresMasterRead": false
    },
    "ValidFrom__c": {
      "autoNumber": false,
      "byteLength": 0,
      "calculated": false,
      "calculatedFormula": false,
      "cascadeDelete": false,
      "caseSensitive": false,
      "controllerName": false,
      "createable": false,
      "custom": false,
      "defaultValue": false,
      "defaultValueFormula": null,
      "defaultedOnCreate": false,
      "dependentPicklist": false,
      "deprecatedAndHidden": false,
      "digits": 0,
      "displayLocationInDecimal": false,
      "externalId": false,
      "extraTypeInfo": false,
      "filterable": false,
      "filteredLookupInfo": false,
      "groupable": false,
      "htmlFormatted": false,
      "idLookup": false,
      "inlineHelpText": false,
      "label": false,
      "length": false,
      "mask": false,
      "maskType": false,
      "name": "ValidFrom__c",
      "nameField": false,
      "namePointing": false,
      "nillable": false,
      "permissionable": false,
      "picklistValues": false,
      "precision": false,
      "queryByDistance": false,
      "referenceTargetField": false,
      "referenceTo": false,
      "relationshipName": false,
      "relationshipOrder": false,
      "restrictedDelete": false,
      "restrictedPicklist": false,
      "scale": false,
      "soapType": false,
      "sortable": false,
      "type": false,
      "unique": false,
      "updateable": false,
      "writeRequiresMasterRead": false
    },
    "ValidTo__c": {
      "autoNumber": false,
      "byteLength": 0,
      "calculated": false,
      "calculatedFormula": false,
      "cascadeDelete": false,
      "caseSensitive": false,
      "controllerName": false,
      "createable": false,
      "custom": false,
      "defaultValue": false,
      "defaultValueFormula": null,
      "defaultedOnCreate": false,
      "dependentPicklist": false,
      "deprecatedAndHidden": false,
      "digits": 0,
      "displayLocationInDecimal": false,
      "externalId": false,
      "extraTypeInfo": false,
      "filterable": false,
      "filteredLookupInfo": false,
      "groupable": false,
      "htmlFormatted": false,
      "idLookup": false,
      "inlineHelpText": false,
      "label": false,
      "length": false,
      "mask": false,
      "maskType": false,
      "name": "ValidTo__c",
      "nameField": false,
      "namePointing": false,
      "nillable": false,
      "permissionable": false,
      "picklistValues": false,
      "precision": false,
      "queryByDistance": false,
      "referenceTargetField": false,
      "referenceTo": false,
      "relationshipName": false,
      "relationshipOrder": false,
      "restrictedDelete": false,
      "restrictedPicklist": false,
      "scale": false,
      "soapType": false,
      "sortable": false,
      "type": false,
      "unique": false,
      "updateable": false,
      "writeRequiresMasterRead": false
    },
    "util_Valid__c": {
      "autoNumber": false,
      "byteLength": 0,
      "calculated": false,
      "calculatedFormula": false,
      "cascadeDelete": false,
      "caseSensitive": false,
      "controllerName": false,
      "createable": false,
      "custom": false,
      "defaultValue": false,
      "defaultValueFormula": null,
      "defaultedOnCreate": false,
      "dependentPicklist": false,
      "deprecatedAndHidden": false,
      "digits": 0,
      "displayLocationInDecimal": false,
      "externalId": false,
      "extraTypeInfo": false,
      "filterable": false,
      "filteredLookupInfo": false,
      "groupable": false,
      "htmlFormatted": false,
      "idLookup": false,
      "inlineHelpText": false,
      "label": false,
      "length": false,
      "mask": false,
      "maskType": false,
      "name": "util_Valid__c",
      "nameField": false,
      "namePointing": false,
      "nillable": false,
      "permissionable": false,
      "picklistValues": false,
      "precision": false,
      "queryByDistance": false,
      "referenceTargetField": false,
      "referenceTo": false,
      "relationshipName": false,
      "relationshipOrder": false,
      "restrictedDelete": false,
      "restrictedPicklist": false,
      "scale": false,
      "soapType": false,
      "sortable": false,
      "type": false,
      "unique": false,
      "updateable": false,
      "writeRequiresMasterRead": false
    },
    "util_ib_brand__c": {
      "autoNumber": false,
      "byteLength": 0,
      "calculated": false,
      "calculatedFormula": false,
      "cascadeDelete": false,
      "caseSensitive": false,
      "controllerName": false,
      "createable": false,
      "custom": false,
      "defaultValue": false,
      "defaultValueFormula": null,
      "defaultedOnCreate": false,
      "dependentPicklist": false,
      "deprecatedAndHidden": false,
      "digits": 0,
      "displayLocationInDecimal": false,
      "externalId": false,
      "extraTypeInfo": false,
      "filterable": false,
      "filteredLookupInfo": false,
      "groupable": false,
      "htmlFormatted": false,
      "idLookup": false,
      "inlineHelpText": false,
      "label": false,
      "length": false,
      "mask": false,
      "maskType": false,
      "name": "util_ib_brand__c",
      "nameField": false,
      "namePointing": false,
      "nillable": false,
      "permissionable": false,
      "picklistValues": false,
      "precision": false,
      "queryByDistance": false,
      "referenceTargetField": false,
      "referenceTo": false,
      "relationshipName": false,
      "relationshipOrder": false,
      "restrictedDelete": false,
      "restrictedPicklist": false,
      "scale": false,
      "soapType": false,
      "sortable": false,
      "type": false,
      "unique": false,
      "updateable": false,
      "writeRequiresMasterRead": false
    },
    "util_ib_department__c": {
      "autoNumber": false,
      "byteLength": 0,
      "calculated": false,
      "calculatedFormula": false,
      "cascadeDelete": false,
      "caseSensitive": false,
      "controllerName": false,
      "createable": false,
      "custom": false,
      "defaultValue": false,
      "defaultValueFormula": null,
      "defaultedOnCreate": false,
      "dependentPicklist": false,
      "deprecatedAndHidden": false,
      "digits": 0,
      "displayLocationInDecimal": false,
      "externalId": false,
      "extraTypeInfo": false,
      "filterable": false,
      "filteredLookupInfo": false,
      "groupable": false,
      "htmlFormatted": false,
      "idLookup": false,
      "inlineHelpText": false,
      "label": false,
      "length": false,
      "mask": false,
      "maskType": false,
      "name": "util_ib_department__c",
      "nameField": false,
      "namePointing": false,
      "nillable": false,
      "permissionable": false,
      "picklistValues": false,
      "precision": false,
      "queryByDistance": false,
      "referenceTargetField": false,
      "referenceTo": false,
      "relationshipName": false,
      "relationshipOrder": false,
      "restrictedDelete": false,
      "restrictedPicklist": false,
      "scale": false,
      "soapType": false,
      "sortable": false,
      "type": false,
      "unique": false,
      "updateable": false,
      "writeRequiresMasterRead": false
    },
    "util_ib_idInt__c": {
      "autoNumber": false,
      "byteLength": 0,
      "calculated": false,
      "calculatedFormula": false,
      "cascadeDelete": false,
      "caseSensitive": false,
      "controllerName": false,
      "createable": false,
      "custom": false,
      "defaultValue": false,
      "defaultValueFormula": null,
      "defaultedOnCreate": false,
      "dependentPicklist": false,
      "deprecatedAndHidden": false,
      "digits": 0,
      "displayLocationInDecimal": false,
      "externalId": false,
      "extraTypeInfo": false,
      "filterable": false,
      "filteredLookupInfo": false,
      "groupable": false,
      "htmlFormatted": false,
      "idLookup": false,
      "inlineHelpText": false,
      "label": false,
      "length": false,
      "mask": false,
      "maskType": false,
      "name": "util_ib_idInt__c",
      "nameField": false,
      "namePointing": false,
      "nillable": false,
      "permissionable": false,
      "picklistValues": false,
      "precision": false,
      "queryByDistance": false,
      "referenceTargetField": false,
      "referenceTo": false,
      "relationshipName": false,
      "relationshipOrder": false,
      "restrictedDelete": false,
      "restrictedPicklist": false,
      "scale": false,
      "soapType": false,
      "sortable": false,
      "type": false,
      "unique": false,
      "updateable": false,
      "writeRequiresMasterRead": false
    },
    "util_ib_product_model__c": {
      "autoNumber": false,
      "byteLength": 0,
      "calculated": false,
      "calculatedFormula": false,
      "cascadeDelete": false,
      "caseSensitive": false,
      "controllerName": false,
      "createable": false,
      "custom": false,
      "defaultValue": false,
      "defaultValueFormula": null,
      "defaultedOnCreate": false,
      "dependentPicklist": false,
      "deprecatedAndHidden": false,
      "digits": 0,
      "displayLocationInDecimal": false,
      "externalId": false,
      "extraTypeInfo": false,
      "filterable": false,
      "filteredLookupInfo": false,
      "groupable": false,
      "htmlFormatted": false,
      "idLookup": false,
      "inlineHelpText": false,
      "label": false,
      "length": false,
      "mask": false,
      "maskType": false,
      "name": "util_ib_product_model__c",
      "nameField": false,
      "namePointing": false,
      "nillable": false,
      "permissionable": false,
      "picklistValues": false,
      "precision": false,
      "queryByDistance": false,
      "referenceTargetField": false,
      "referenceTo": false,
      "relationshipName": false,
      "relationshipOrder": false,
      "restrictedDelete": false,
      "restrictedPicklist": false,
      "scale": false,
      "soapType": false,
      "sortable": false,
      "type": false,
      "unique": false,
      "updateable": false,
      "writeRequiresMasterRead": false
    },
    "util_ib_room__c": {
      "autoNumber": false,
      "byteLength": 0,
      "calculated": false,
      "calculatedFormula": false,
      "cascadeDelete": false,
      "caseSensitive": false,
      "controllerName": false,
      "createable": false,
      "custom": false,
      "defaultValue": false,
      "defaultValueFormula": null,
      "defaultedOnCreate": false,
      "dependentPicklist": false,
      "deprecatedAndHidden": false,
      "digits": 0,
      "displayLocationInDecimal": false,
      "externalId": false,
      "extraTypeInfo": false,
      "filterable": false,
      "filteredLookupInfo": false,
      "groupable": false,
      "htmlFormatted": false,
      "idLookup": false,
      "inlineHelpText": false,
      "label": false,
      "length": false,
      "mask": false,
      "maskType": false,
      "name": "util_ib_room__c",
      "nameField": false,
      "namePointing": false,
      "nillable": false,
      "permissionable": false,
      "picklistValues": false,
      "precision": false,
      "queryByDistance": false,
      "referenceTargetField": false,
      "referenceTo": false,
      "relationshipName": false,
      "relationshipOrder": false,
      "restrictedDelete": false,
      "restrictedPicklist": false,
      "scale": false,
      "soapType": false,
      "sortable": false,
      "type": false,
      "unique": false,
      "updateable": false,
      "writeRequiresMasterRead": false
    },
    "util_ib_serialno__c": {
      "autoNumber": false,
      "byteLength": 0,
      "calculated": false,
      "calculatedFormula": false,
      "cascadeDelete": false,
      "caseSensitive": false,
      "controllerName": false,
      "createable": false,
      "custom": false,
      "defaultValue": false,
      "defaultValueFormula": null,
      "defaultedOnCreate": false,
      "dependentPicklist": false,
      "deprecatedAndHidden": false,
      "digits": 0,
      "displayLocationInDecimal": false,
      "externalId": false,
      "extraTypeInfo": false,
      "filterable": false,
      "filteredLookupInfo": false,
      "groupable": false,
      "htmlFormatted": false,
      "idLookup": false,
      "inlineHelpText": false,
      "label": false,
      "length": false,
      "mask": false,
      "maskType": false,
      "name": "util_ib_serialno__c",
      "nameField": false,
      "namePointing": false,
      "nillable": false,
      "permissionable": false,
      "picklistValues": false,
      "precision": false,
      "queryByDistance": false,
      "referenceTargetField": false,
      "referenceTo": false,
      "relationshipName": false,
      "relationshipOrder": false,
      "restrictedDelete": false,
      "restrictedPicklist": false,
      "scale": false,
      "soapType": false,
      "sortable": false,
      "type": false,
      "unique": false,
      "updateable": false,
      "writeRequiresMasterRead": false
    },
    "PriceManual__c": {
      "autoNumber": false,
      "byteLength": 0,
      "calculated": false,
      "calculatedFormula": false,
      "cascadeDelete": false,
      "caseSensitive": false,
      "controllerName": false,
      "createable": false,
      "custom": false,
      "defaultValue": false,
      "defaultValueFormula": null,
      "defaultedOnCreate": false,
      "dependentPicklist": false,
      "deprecatedAndHidden": false,
      "digits": 0,
      "displayLocationInDecimal": false,
      "externalId": false,
      "extraTypeInfo": false,
      "filterable": false,
      "filteredLookupInfo": false,
      "groupable": false,
      "htmlFormatted": false,
      "idLookup": false,
      "inlineHelpText": false,
      "label": false,
      "length": false,
      "mask": false,
      "maskType": false,
      "name": "PriceManual__c",
      "nameField": false,
      "namePointing": false,
      "nillable": false,
      "permissionable": false,
      "picklistValues": false,
      "precision": false,
      "queryByDistance": false,
      "referenceTargetField": false,
      "referenceTo": false,
      "relationshipName": false,
      "relationshipOrder": false,
      "restrictedDelete": false,
      "restrictedPicklist": false,
      "scale": false,
      "soapType": false,
      "sortable": false,
      "type": false,
      "unique": false,
      "updateable": false,
      "writeRequiresMasterRead": false
    },
    "PriceModule__c": {
      "autoNumber": false,
      "byteLength": 0,
      "calculated": false,
      "calculatedFormula": false,
      "cascadeDelete": false,
      "caseSensitive": false,
      "controllerName": false,
      "createable": false,
      "custom": false,
      "defaultValue": false,
      "defaultValueFormula": null,
      "defaultedOnCreate": false,
      "dependentPicklist": false,
      "deprecatedAndHidden": false,
      "digits": 0,
      "displayLocationInDecimal": false,
      "externalId": false,
      "extraTypeInfo": false,
      "filterable": false,
      "filteredLookupInfo": false,
      "groupable": false,
      "htmlFormatted": false,
      "idLookup": false,
      "inlineHelpText": false,
      "label": false,
      "length": false,
      "mask": false,
      "maskType": false,
      "name": "PriceModule__c",
      "nameField": false,
      "namePointing": false,
      "nillable": false,
      "permissionable": false,
      "picklistValues": false,
      "precision": false,
      "queryByDistance": false,
      "referenceTargetField": false,
      "referenceTo": false,
      "relationshipName": false,
      "relationshipOrder": false,
      "restrictedDelete": false,
      "restrictedPicklist": false,
      "scale": false,
      "soapType": false,
      "sortable": false,
      "type": false,
      "unique": false,
      "updateable": false,
      "writeRequiresMasterRead": false
    }
  }
}
