{
  "id": null,
  "name": "SCWorktime__c",
  "type": 0,
  "url": null,
  "dicReferencedBy": null,
  "dicReferencedTo": null,
  "sObjectprefix": null,
  "sObject": {
    "activateable": false,
    "createable": true,
    "custom": true,
    "customSetting": false,
    "deletable": true,
    "deprecatedAndHidden": false,
    "feedEnabled": false,
    "keyPrefix": "a0V",
    "label": "Work Time",
    "labelPlural": "Work Times",
    "layoutable": true,
    "mergeable": false,
    "name": "SCWorktime__c",
    "queryable": true,
    "replicateable": true,
    "retrieveable": true,
    "searchable": true,
    "triggerable": true,
    "undeletable": true,
    "updateable": true
  },
  "dictStandardFields": {
    "Id": {
      "dictFields": null,
      "autoNumber": false,
      "byteLength": 0,
      "calculated": false,
      "calculatedFormula": false,
      "cascadeDelete": false,
      "caseSensitive": false,
      "controllerName": false,
      "createable": false,
      "custom": false,
      "defaultValue": false,
      "defaultValueFormula": null,
      "defaultedOnCreate": false,
      "dependentPicklist": false,
      "deprecatedAndHidden": false,
      "digits": 0,
      "displayLocationInDecimal": false,
      "externalId": false,
      "extraTypeInfo": false,
      "filterable": false,
      "filteredLookupInfo": false,
      "groupable": false,
      "htmlFormatted": false,
      "idLookup": false,
      "inlineHelpText": false,
      "label": false,
      "length": false,
      "mask": false,
      "maskType": false,
      "name": "Id",
      "nameField": false,
      "namePointing": false,
      "nillable": false,
      "permissionable": false,
      "picklistValues": false,
      "precision": false,
      "queryByDistance": false,
      "referenceTargetField": false,
      "referenceTo": false,
      "relationshipName": false,
      "relationshipOrder": false,
      "restrictedDelete": false,
      "restrictedPicklist": false,
      "scale": false,
      "soapType": false,
      "sortable": false,
      "type": false,
      "unique": false,
      "updateable": false,
      "writeRequiresMasterRead": false
    },
    "IsDeleted": {
      "dictFields": null,
      "autoNumber": false,
      "byteLength": 0,
      "calculated": false,
      "calculatedFormula": false,
      "cascadeDelete": false,
      "caseSensitive": false,
      "controllerName": false,
      "createable": false,
      "custom": false,
      "defaultValue": false,
      "defaultValueFormula": null,
      "defaultedOnCreate": false,
      "dependentPicklist": false,
      "deprecatedAndHidden": false,
      "digits": 0,
      "displayLocationInDecimal": false,
      "externalId": false,
      "extraTypeInfo": false,
      "filterable": false,
      "filteredLookupInfo": false,
      "groupable": false,
      "htmlFormatted": false,
      "idLookup": false,
      "inlineHelpText": false,
      "label": false,
      "length": false,
      "mask": false,
      "maskType": false,
      "name": "IsDeleted",
      "nameField": false,
      "namePointing": false,
      "nillable": false,
      "permissionable": false,
      "picklistValues": false,
      "precision": false,
      "queryByDistance": false,
      "referenceTargetField": false,
      "referenceTo": false,
      "relationshipName": false,
      "relationshipOrder": false,
      "restrictedDelete": false,
      "restrictedPicklist": false,
      "scale": false,
      "soapType": false,
      "sortable": false,
      "type": false,
      "unique": false,
      "updateable": false,
      "writeRequiresMasterRead": false
    },
    "Name": {
      "dictFields": null,
      "autoNumber": true,
      "byteLength": 0,
      "calculated": false,
      "calculatedFormula": false,
      "cascadeDelete": false,
      "caseSensitive": false,
      "controllerName": false,
      "createable": false,
      "custom": false,
      "defaultValue": false,
      "defaultValueFormula": null,
      "defaultedOnCreate": false,
      "dependentPicklist": false,
      "deprecatedAndHidden": false,
      "digits": 0,
      "displayLocationInDecimal": false,
      "externalId": false,
      "extraTypeInfo": false,
      "filterable": false,
      "filteredLookupInfo": false,
      "groupable": false,
      "htmlFormatted": false,
      "idLookup": false,
      "inlineHelpText": false,
      "label": false,
      "length": false,
      "mask": false,
      "maskType": false,
      "name": "Name",
      "nameField": false,
      "namePointing": false,
      "nillable": false,
      "permissionable": false,
      "picklistValues": false,
      "precision": false,
      "queryByDistance": false,
      "referenceTargetField": false,
      "referenceTo": false,
      "relationshipName": false,
      "relationshipOrder": false,
      "restrictedDelete": false,
      "restrictedPicklist": false,
      "scale": false,
      "soapType": false,
      "sortable": false,
      "type": false,
      "unique": false,
      "updateable": false,
      "writeRequiresMasterRead": false
    },
    "CurrencyIsoCode": {
      "dictFields": null,
      "autoNumber": false,
      "byteLength": 0,
      "calculated": false,
      "calculatedFormula": false,
      "cascadeDelete": false,
      "caseSensitive": false,
      "controllerName": false,
      "createable": false,
      "custom": false,
      "defaultValue": false,
      "defaultValueFormula": null,
      "defaultedOnCreate": false,
      "dependentPicklist": false,
      "deprecatedAndHidden": false,
      "digits": 0,
      "displayLocationInDecimal": false,
      "externalId": false,
      "extraTypeInfo": false,
      "filterable": false,
      "filteredLookupInfo": false,
      "groupable": false,
      "htmlFormatted": false,
      "idLookup": false,
      "inlineHelpText": false,
      "label": false,
      "length": false,
      "mask": false,
      "maskType": false,
      "name": "CurrencyIsoCode",
      "nameField": false,
      "namePointing": false,
      "nillable": false,
      "permissionable": false,
      "picklistValues": false,
      "precision": false,
      "queryByDistance": false,
      "referenceTargetField": false,
      "referenceTo": false,
      "relationshipName": false,
      "relationshipOrder": false,
      "restrictedDelete": false,
      "restrictedPicklist": false,
      "scale": false,
      "soapType": false,
      "sortable": false,
      "type": false,
      "unique": false,
      "updateable": false,
      "writeRequiresMasterRead": false
    },
    "CreatedDate": {
      "dictFields": null,
      "autoNumber": false,
      "byteLength": 0,
      "calculated": false,
      "calculatedFormula": false,
      "cascadeDelete": false,
      "caseSensitive": false,
      "controllerName": false,
      "createable": false,
      "custom": false,
      "defaultValue": false,
      "defaultValueFormula": null,
      "defaultedOnCreate": false,
      "dependentPicklist": false,
      "deprecatedAndHidden": false,
      "digits": 0,
      "displayLocationInDecimal": false,
      "externalId": false,
      "extraTypeInfo": false,
      "filterable": false,
      "filteredLookupInfo": false,
      "groupable": false,
      "htmlFormatted": false,
      "idLookup": false,
      "inlineHelpText": false,
      "label": false,
      "length": false,
      "mask": false,
      "maskType": false,
      "name": "CreatedDate",
      "nameField": false,
      "namePointing": false,
      "nillable": false,
      "permissionable": false,
      "picklistValues": false,
      "precision": false,
      "queryByDistance": false,
      "referenceTargetField": false,
      "referenceTo": false,
      "relationshipName": false,
      "relationshipOrder": false,
      "restrictedDelete": false,
      "restrictedPicklist": false,
      "scale": false,
      "soapType": false,
      "sortable": false,
      "type": false,
      "unique": false,
      "updateable": false,
      "writeRequiresMasterRead": false
    },
    "CreatedById": {
      "dictFields": null,
      "autoNumber": false,
      "byteLength": 0,
      "calculated": false,
      "calculatedFormula": false,
      "cascadeDelete": false,
      "caseSensitive": false,
      "controllerName": false,
      "createable": false,
      "custom": false,
      "defaultValue": false,
      "defaultValueFormula": null,
      "defaultedOnCreate": false,
      "dependentPicklist": false,
      "deprecatedAndHidden": false,
      "digits": 0,
      "displayLocationInDecimal": false,
      "externalId": false,
      "extraTypeInfo": false,
      "filterable": false,
      "filteredLookupInfo": false,
      "groupable": false,
      "htmlFormatted": false,
      "idLookup": false,
      "inlineHelpText": false,
      "label": false,
      "length": false,
      "mask": false,
      "maskType": false,
      "name": "CreatedById",
      "nameField": false,
      "namePointing": false,
      "nillable": false,
      "permissionable": false,
      "picklistValues": false,
      "precision": false,
      "queryByDistance": false,
      "referenceTargetField": false,
      "referenceTo": false,
      "relationshipName": false,
      "relationshipOrder": false,
      "restrictedDelete": false,
      "restrictedPicklist": false,
      "scale": false,
      "soapType": false,
      "sortable": false,
      "type": false,
      "unique": false,
      "updateable": false,
      "writeRequiresMasterRead": false
    },
    "LastModifiedDate": {
      "dictFields": null,
      "autoNumber": false,
      "byteLength": 0,
      "calculated": false,
      "calculatedFormula": false,
      "cascadeDelete": false,
      "caseSensitive": false,
      "controllerName": false,
      "createable": false,
      "custom": false,
      "defaultValue": false,
      "defaultValueFormula": null,
      "defaultedOnCreate": false,
      "dependentPicklist": false,
      "deprecatedAndHidden": false,
      "digits": 0,
      "displayLocationInDecimal": false,
      "externalId": false,
      "extraTypeInfo": false,
      "filterable": false,
      "filteredLookupInfo": false,
      "groupable": false,
      "htmlFormatted": false,
      "idLookup": false,
      "inlineHelpText": false,
      "label": false,
      "length": false,
      "mask": false,
      "maskType": false,
      "name": "LastModifiedDate",
      "nameField": false,
      "namePointing": false,
      "nillable": false,
      "permissionable": false,
      "picklistValues": false,
      "precision": false,
      "queryByDistance": false,
      "referenceTargetField": false,
      "referenceTo": false,
      "relationshipName": false,
      "relationshipOrder": false,
      "restrictedDelete": false,
      "restrictedPicklist": false,
      "scale": false,
      "soapType": false,
      "sortable": false,
      "type": false,
      "unique": false,
      "updateable": false,
      "writeRequiresMasterRead": false
    },
    "LastModifiedById": {
      "dictFields": null,
      "autoNumber": false,
      "byteLength": 0,
      "calculated": false,
      "calculatedFormula": false,
      "cascadeDelete": false,
      "caseSensitive": false,
      "controllerName": false,
      "createable": false,
      "custom": false,
      "defaultValue": false,
      "defaultValueFormula": null,
      "defaultedOnCreate": false,
      "dependentPicklist": false,
      "deprecatedAndHidden": false,
      "digits": 0,
      "displayLocationInDecimal": false,
      "externalId": false,
      "extraTypeInfo": false,
      "filterable": false,
      "filteredLookupInfo": false,
      "groupable": false,
      "htmlFormatted": false,
      "idLookup": false,
      "inlineHelpText": false,
      "label": false,
      "length": false,
      "mask": false,
      "maskType": false,
      "name": "LastModifiedById",
      "nameField": false,
      "namePointing": false,
      "nillable": false,
      "permissionable": false,
      "picklistValues": false,
      "precision": false,
      "queryByDistance": false,
      "referenceTargetField": false,
      "referenceTo": false,
      "relationshipName": false,
      "relationshipOrder": false,
      "restrictedDelete": false,
      "restrictedPicklist": false,
      "scale": false,
      "soapType": false,
      "sortable": false,
      "type": false,
      "unique": false,
      "updateable": false,
      "writeRequiresMasterRead": false
    },
    "SystemModstamp": {
      "dictFields": null,
      "autoNumber": false,
      "byteLength": 0,
      "calculated": false,
      "calculatedFormula": false,
      "cascadeDelete": false,
      "caseSensitive": false,
      "controllerName": false,
      "createable": false,
      "custom": false,
      "defaultValue": false,
      "defaultValueFormula": null,
      "defaultedOnCreate": false,
      "dependentPicklist": false,
      "deprecatedAndHidden": false,
      "digits": 0,
      "displayLocationInDecimal": false,
      "externalId": false,
      "extraTypeInfo": false,
      "filterable": false,
      "filteredLookupInfo": false,
      "groupable": false,
      "htmlFormatted": false,
      "idLookup": false,
      "inlineHelpText": false,
      "label": false,
      "length": false,
      "mask": false,
      "maskType": false,
      "name": "SystemModstamp",
      "nameField": false,
      "namePointing": false,
      "nillable": false,
      "permissionable": false,
      "picklistValues": false,
      "precision": false,
      "queryByDistance": false,
      "referenceTargetField": false,
      "referenceTo": false,
      "relationshipName": false,
      "relationshipOrder": false,
      "restrictedDelete": false,
      "restrictedPicklist": false,
      "scale": false,
      "soapType": false,
      "sortable": false,
      "type": false,
      "unique": false,
      "updateable": false,
      "writeRequiresMasterRead": false
    },
    "LastViewedDate": {
      "dictFields": null,
      "autoNumber": false,
      "byteLength": 0,
      "calculated": false,
      "calculatedFormula": false,
      "cascadeDelete": false,
      "caseSensitive": false,
      "controllerName": false,
      "createable": false,
      "custom": false,
      "defaultValue": false,
      "defaultValueFormula": null,
      "defaultedOnCreate": false,
      "dependentPicklist": false,
      "deprecatedAndHidden": false,
      "digits": 0,
      "displayLocationInDecimal": false,
      "externalId": false,
      "extraTypeInfo": false,
      "filterable": false,
      "filteredLookupInfo": false,
      "groupable": false,
      "htmlFormatted": false,
      "idLookup": false,
      "inlineHelpText": false,
      "label": false,
      "length": false,
      "mask": false,
      "maskType": false,
      "name": "LastViewedDate",
      "nameField": false,
      "namePointing": false,
      "nillable": false,
      "permissionable": false,
      "picklistValues": false,
      "precision": false,
      "queryByDistance": false,
      "referenceTargetField": false,
      "referenceTo": false,
      "relationshipName": false,
      "relationshipOrder": false,
      "restrictedDelete": false,
      "restrictedPicklist": false,
      "scale": false,
      "soapType": false,
      "sortable": false,
      "type": false,
      "unique": false,
      "updateable": false,
      "writeRequiresMasterRead": false
    },
    "LastReferencedDate": {
      "dictFields": null,
      "autoNumber": false,
      "byteLength": 0,
      "calculated": false,
      "calculatedFormula": false,
      "cascadeDelete": false,
      "caseSensitive": false,
      "controllerName": false,
      "createable": false,
      "custom": false,
      "defaultValue": false,
      "defaultValueFormula": null,
      "defaultedOnCreate": false,
      "dependentPicklist": false,
      "deprecatedAndHidden": false,
      "digits": 0,
      "displayLocationInDecimal": false,
      "externalId": false,
      "extraTypeInfo": false,
      "filterable": false,
      "filteredLookupInfo": false,
      "groupable": false,
      "htmlFormatted": false,
      "idLookup": false,
      "inlineHelpText": false,
      "label": false,
      "length": false,
      "mask": false,
      "maskType": false,
      "name": "LastReferencedDate",
      "nameField": false,
      "namePointing": false,
      "nillable": false,
      "permissionable": false,
      "picklistValues": false,
      "precision": false,
      "queryByDistance": false,
      "referenceTargetField": false,
      "referenceTo": false,
      "relationshipName": false,
      "relationshipOrder": false,
      "restrictedDelete": false,
      "restrictedPicklist": false,
      "scale": false,
      "soapType": false,
      "sortable": false,
      "type": false,
      "unique": false,
      "updateable": false,
      "writeRequiresMasterRead": false
    }
  },
  "dictCustomFields": {
    "Profile__c": {
      "autoNumber": false,
      "byteLength": 0,
      "calculated": false,
      "calculatedFormula": false,
      "cascadeDelete": false,
      "caseSensitive": false,
      "controllerName": false,
      "createable": false,
      "custom": false,
      "defaultValue": false,
      "defaultValueFormula": null,
      "defaultedOnCreate": false,
      "dependentPicklist": false,
      "deprecatedAndHidden": false,
      "digits": 0,
      "displayLocationInDecimal": false,
      "externalId": false,
      "extraTypeInfo": false,
      "filterable": false,
      "filteredLookupInfo": false,
      "groupable": false,
      "htmlFormatted": false,
      "idLookup": false,
      "inlineHelpText": false,
      "label": false,
      "length": false,
      "mask": false,
      "maskType": false,
      "name": "Profile__c",
      "nameField": false,
      "namePointing": false,
      "nillable": false,
      "permissionable": false,
      "picklistValues": false,
      "precision": false,
      "queryByDistance": false,
      "referenceTargetField": false,
      "referenceTo": false,
      "relationshipName": false,
      "relationshipOrder": false,
      "restrictedDelete": false,
      "restrictedPicklist": false,
      "scale": false,
      "soapType": false,
      "sortable": false,
      "type": false,
      "unique": false,
      "updateable": false,
      "writeRequiresMasterRead": false
    },
    "BreakEnd__c": {
      "autoNumber": false,
      "byteLength": 0,
      "calculated": false,
      "calculatedFormula": false,
      "cascadeDelete": false,
      "caseSensitive": false,
      "controllerName": false,
      "createable": false,
      "custom": false,
      "defaultValue": false,
      "defaultValueFormula": null,
      "defaultedOnCreate": false,
      "dependentPicklist": false,
      "deprecatedAndHidden": false,
      "digits": 0,
      "displayLocationInDecimal": false,
      "externalId": false,
      "extraTypeInfo": false,
      "filterable": false,
      "filteredLookupInfo": false,
      "groupable": false,
      "htmlFormatted": false,
      "idLookup": false,
      "inlineHelpText": false,
      "label": false,
      "length": false,
      "mask": false,
      "maskType": false,
      "name": "BreakEnd__c",
      "nameField": false,
      "namePointing": false,
      "nillable": false,
      "permissionable": false,
      "picklistValues": false,
      "precision": false,
      "queryByDistance": false,
      "referenceTargetField": false,
      "referenceTo": false,
      "relationshipName": false,
      "relationshipOrder": false,
      "restrictedDelete": false,
      "restrictedPicklist": false,
      "scale": false,
      "soapType": false,
      "sortable": false,
      "type": false,
      "unique": false,
      "updateable": false,
      "writeRequiresMasterRead": false
    },
    "BreakStart__c": {
      "autoNumber": false,
      "byteLength": 0,
      "calculated": false,
      "calculatedFormula": false,
      "cascadeDelete": false,
      "caseSensitive": false,
      "controllerName": false,
      "createable": false,
      "custom": false,
      "defaultValue": false,
      "defaultValueFormula": null,
      "defaultedOnCreate": false,
      "dependentPicklist": false,
      "deprecatedAndHidden": false,
      "digits": 0,
      "displayLocationInDecimal": false,
      "externalId": false,
      "extraTypeInfo": false,
      "filterable": false,
      "filteredLookupInfo": false,
      "groupable": false,
      "htmlFormatted": false,
      "idLookup": false,
      "inlineHelpText": false,
      "label": false,
      "length": false,
      "mask": false,
      "maskType": false,
      "name": "BreakStart__c",
      "nameField": false,
      "namePointing": false,
      "nillable": false,
      "permissionable": false,
      "picklistValues": false,
      "precision": false,
      "queryByDistance": false,
      "referenceTargetField": false,
      "referenceTo": false,
      "relationshipName": false,
      "relationshipOrder": false,
      "restrictedDelete": false,
      "restrictedPicklist": false,
      "scale": false,
      "soapType": false,
      "sortable": false,
      "type": false,
      "unique": false,
      "updateable": false,
      "writeRequiresMasterRead": false
    },
    "Break__c": {
      "autoNumber": false,
      "byteLength": 0,
      "calculated": false,
      "calculatedFormula": false,
      "cascadeDelete": false,
      "caseSensitive": false,
      "controllerName": false,
      "createable": false,
      "custom": false,
      "defaultValue": false,
      "defaultValueFormula": null,
      "defaultedOnCreate": false,
      "dependentPicklist": false,
      "deprecatedAndHidden": false,
      "digits": 0,
      "displayLocationInDecimal": false,
      "externalId": false,
      "extraTypeInfo": false,
      "filterable": false,
      "filteredLookupInfo": false,
      "groupable": false,
      "htmlFormatted": false,
      "idLookup": false,
      "inlineHelpText": false,
      "label": false,
      "length": false,
      "mask": false,
      "maskType": false,
      "name": "Break__c",
      "nameField": false,
      "namePointing": false,
      "nillable": false,
      "permissionable": false,
      "picklistValues": false,
      "precision": false,
      "queryByDistance": false,
      "referenceTargetField": false,
      "referenceTo": false,
      "relationshipName": false,
      "relationshipOrder": false,
      "restrictedDelete": false,
      "restrictedPicklist": false,
      "scale": false,
      "soapType": false,
      "sortable": false,
      "type": false,
      "unique": false,
      "updateable": false,
      "writeRequiresMasterRead": false
    },
    "Capacity__c": {
      "autoNumber": false,
      "byteLength": 0,
      "calculated": false,
      "calculatedFormula": false,
      "cascadeDelete": false,
      "caseSensitive": false,
      "controllerName": false,
      "createable": false,
      "custom": false,
      "defaultValue": false,
      "defaultValueFormula": null,
      "defaultedOnCreate": false,
      "dependentPicklist": false,
      "deprecatedAndHidden": false,
      "digits": 0,
      "displayLocationInDecimal": false,
      "externalId": false,
      "extraTypeInfo": false,
      "filterable": false,
      "filteredLookupInfo": false,
      "groupable": false,
      "htmlFormatted": false,
      "idLookup": false,
      "inlineHelpText": false,
      "label": false,
      "length": false,
      "mask": false,
      "maskType": false,
      "name": "Capacity__c",
      "nameField": false,
      "namePointing": false,
      "nillable": false,
      "permissionable": false,
      "picklistValues": false,
      "precision": false,
      "queryByDistance": false,
      "referenceTargetField": false,
      "referenceTo": false,
      "relationshipName": false,
      "relationshipOrder": false,
      "restrictedDelete": false,
      "restrictedPicklist": false,
      "scale": false,
      "soapType": false,
      "sortable": false,
      "type": false,
      "unique": false,
      "updateable": false,
      "writeRequiresMasterRead": false
    },
    "DatEnd__c": {
      "autoNumber": false,
      "byteLength": 0,
      "calculated": false,
      "calculatedFormula": false,
      "cascadeDelete": false,
      "caseSensitive": false,
      "controllerName": false,
      "createable": false,
      "custom": false,
      "defaultValue": false,
      "defaultValueFormula": null,
      "defaultedOnCreate": false,
      "dependentPicklist": false,
      "deprecatedAndHidden": false,
      "digits": 0,
      "displayLocationInDecimal": false,
      "externalId": false,
      "extraTypeInfo": false,
      "filterable": false,
      "filteredLookupInfo": false,
      "groupable": false,
      "htmlFormatted": false,
      "idLookup": false,
      "inlineHelpText": false,
      "label": false,
      "length": false,
      "mask": false,
      "maskType": false,
      "name": "DatEnd__c",
      "nameField": false,
      "namePointing": false,
      "nillable": false,
      "permissionable": false,
      "picklistValues": false,
      "precision": false,
      "queryByDistance": false,
      "referenceTargetField": false,
      "referenceTo": false,
      "relationshipName": false,
      "relationshipOrder": false,
      "restrictedDelete": false,
      "restrictedPicklist": false,
      "scale": false,
      "soapType": false,
      "sortable": false,
      "type": false,
      "unique": false,
      "updateable": false,
      "writeRequiresMasterRead": false
    },
    "DatStart__c": {
      "autoNumber": false,
      "byteLength": 0,
      "calculated": false,
      "calculatedFormula": false,
      "cascadeDelete": false,
      "caseSensitive": false,
      "controllerName": false,
      "createable": false,
      "custom": false,
      "defaultValue": false,
      "defaultValueFormula": null,
      "defaultedOnCreate": false,
      "dependentPicklist": false,
      "deprecatedAndHidden": false,
      "digits": 0,
      "displayLocationInDecimal": false,
      "externalId": false,
      "extraTypeInfo": false,
      "filterable": false,
      "filteredLookupInfo": false,
      "groupable": false,
      "htmlFormatted": false,
      "idLookup": false,
      "inlineHelpText": false,
      "label": false,
      "length": false,
      "mask": false,
      "maskType": false,
      "name": "DatStart__c",
      "nameField": false,
      "namePointing": false,
      "nillable": false,
      "permissionable": false,
      "picklistValues": false,
      "precision": false,
      "queryByDistance": false,
      "referenceTargetField": false,
      "referenceTo": false,
      "relationshipName": false,
      "relationshipOrder": false,
      "restrictedDelete": false,
      "restrictedPicklist": false,
      "scale": false,
      "soapType": false,
      "sortable": false,
      "type": false,
      "unique": false,
      "updateable": false,
      "writeRequiresMasterRead": false
    },
    "Day__c": {
      "autoNumber": false,
      "byteLength": 0,
      "calculated": false,
      "calculatedFormula": false,
      "cascadeDelete": false,
      "caseSensitive": false,
      "controllerName": false,
      "createable": false,
      "custom": false,
      "defaultValue": false,
      "defaultValueFormula": null,
      "defaultedOnCreate": false,
      "dependentPicklist": false,
      "deprecatedAndHidden": false,
      "digits": 0,
      "displayLocationInDecimal": false,
      "externalId": false,
      "extraTypeInfo": false,
      "filterable": false,
      "filteredLookupInfo": false,
      "groupable": false,
      "htmlFormatted": false,
      "idLookup": false,
      "inlineHelpText": false,
      "label": false,
      "length": false,
      "mask": false,
      "maskType": false,
      "name": "Day__c",
      "nameField": false,
      "namePointing": false,
      "nillable": false,
      "permissionable": false,
      "picklistValues": false,
      "precision": false,
      "queryByDistance": false,
      "referenceTargetField": false,
      "referenceTo": false,
      "relationshipName": false,
      "relationshipOrder": false,
      "restrictedDelete": false,
      "restrictedPicklist": false,
      "scale": false,
      "soapType": false,
      "sortable": false,
      "type": false,
      "unique": false,
      "updateable": false,
      "writeRequiresMasterRead": false
    },
    "DurationMinutes__c": {
      "autoNumber": false,
      "byteLength": 0,
      "calculated": false,
      "calculatedFormula": false,
      "cascadeDelete": false,
      "caseSensitive": false,
      "controllerName": false,
      "createable": false,
      "custom": false,
      "defaultValue": false,
      "defaultValueFormula": null,
      "defaultedOnCreate": false,
      "dependentPicklist": false,
      "deprecatedAndHidden": false,
      "digits": 0,
      "displayLocationInDecimal": false,
      "externalId": false,
      "extraTypeInfo": false,
      "filterable": false,
      "filteredLookupInfo": false,
      "groupable": false,
      "htmlFormatted": false,
      "idLookup": false,
      "inlineHelpText": false,
      "label": false,
      "length": false,
      "mask": false,
      "maskType": false,
      "name": "DurationMinutes__c",
      "nameField": false,
      "namePointing": false,
      "nillable": false,
      "permissionable": false,
      "picklistValues": false,
      "precision": false,
      "queryByDistance": false,
      "referenceTargetField": false,
      "referenceTo": false,
      "relationshipName": false,
      "relationshipOrder": false,
      "restrictedDelete": false,
      "restrictedPicklist": false,
      "scale": false,
      "soapType": false,
      "sortable": false,
      "type": false,
      "unique": false,
      "updateable": false,
      "writeRequiresMasterRead": false
    },
    "Duration__c": {
      "autoNumber": false,
      "byteLength": 0,
      "calculated": false,
      "calculatedFormula": false,
      "cascadeDelete": false,
      "caseSensitive": false,
      "controllerName": false,
      "createable": false,
      "custom": false,
      "defaultValue": false,
      "defaultValueFormula": null,
      "defaultedOnCreate": false,
      "dependentPicklist": false,
      "deprecatedAndHidden": false,
      "digits": 0,
      "displayLocationInDecimal": false,
      "externalId": false,
      "extraTypeInfo": false,
      "filterable": false,
      "filteredLookupInfo": false,
      "groupable": false,
      "htmlFormatted": false,
      "idLookup": false,
      "inlineHelpText": false,
      "label": false,
      "length": false,
      "mask": false,
      "maskType": false,
      "name": "Duration__c",
      "nameField": false,
      "namePointing": false,
      "nillable": false,
      "permissionable": false,
      "picklistValues": false,
      "precision": false,
      "queryByDistance": false,
      "referenceTargetField": false,
      "referenceTo": false,
      "relationshipName": false,
      "relationshipOrder": false,
      "restrictedDelete": false,
      "restrictedPicklist": false,
      "scale": false,
      "soapType": false,
      "sortable": false,
      "type": false,
      "unique": false,
      "updateable": false,
      "writeRequiresMasterRead": false
    },
    "ID2__c": {
      "autoNumber": false,
      "byteLength": 0,
      "calculated": false,
      "calculatedFormula": false,
      "cascadeDelete": false,
      "caseSensitive": false,
      "controllerName": false,
      "createable": false,
      "custom": false,
      "defaultValue": false,
      "defaultValueFormula": null,
      "defaultedOnCreate": false,
      "dependentPicklist": false,
      "deprecatedAndHidden": false,
      "digits": 0,
      "displayLocationInDecimal": false,
      "externalId": false,
      "extraTypeInfo": false,
      "filterable": false,
      "filteredLookupInfo": false,
      "groupable": false,
      "htmlFormatted": false,
      "idLookup": false,
      "inlineHelpText": false,
      "label": false,
      "length": false,
      "mask": false,
      "maskType": false,
      "name": "ID2__c",
      "nameField": false,
      "namePointing": false,
      "nillable": false,
      "permissionable": false,
      "picklistValues": false,
      "precision": false,
      "queryByDistance": false,
      "referenceTargetField": false,
      "referenceTo": false,
      "relationshipName": false,
      "relationshipOrder": false,
      "restrictedDelete": false,
      "restrictedPicklist": false,
      "scale": false,
      "soapType": false,
      "sortable": false,
      "type": false,
      "unique": false,
      "updateable": false,
      "writeRequiresMasterRead": false
    },
    "Orders__c": {
      "autoNumber": false,
      "byteLength": 0,
      "calculated": false,
      "calculatedFormula": false,
      "cascadeDelete": false,
      "caseSensitive": false,
      "controllerName": false,
      "createable": false,
      "custom": false,
      "defaultValue": false,
      "defaultValueFormula": null,
      "defaultedOnCreate": false,
      "dependentPicklist": false,
      "deprecatedAndHidden": false,
      "digits": 0,
      "displayLocationInDecimal": false,
      "externalId": false,
      "extraTypeInfo": false,
      "filterable": false,
      "filteredLookupInfo": false,
      "groupable": false,
      "htmlFormatted": false,
      "idLookup": false,
      "inlineHelpText": false,
      "label": false,
      "length": false,
      "mask": false,
      "maskType": false,
      "name": "Orders__c",
      "nameField": false,
      "namePointing": false,
      "nillable": false,
      "permissionable": false,
      "picklistValues": false,
      "precision": false,
      "queryByDistance": false,
      "referenceTargetField": false,
      "referenceTo": false,
      "relationshipName": false,
      "relationshipOrder": false,
      "restrictedDelete": false,
      "restrictedPicklist": false,
      "scale": false,
      "soapType": false,
      "sortable": false,
      "type": false,
      "unique": false,
      "updateable": false,
      "writeRequiresMasterRead": false
    },
    "Sort__c": {
      "autoNumber": false,
      "byteLength": 0,
      "calculated": false,
      "calculatedFormula": false,
      "cascadeDelete": false,
      "caseSensitive": false,
      "controllerName": false,
      "createable": false,
      "custom": false,
      "defaultValue": false,
      "defaultValueFormula": null,
      "defaultedOnCreate": false,
      "dependentPicklist": false,
      "deprecatedAndHidden": false,
      "digits": 0,
      "displayLocationInDecimal": false,
      "externalId": false,
      "extraTypeInfo": false,
      "filterable": false,
      "filteredLookupInfo": false,
      "groupable": false,
      "htmlFormatted": false,
      "idLookup": false,
      "inlineHelpText": false,
      "label": false,
      "length": false,
      "mask": false,
      "maskType": false,
      "name": "Sort__c",
      "nameField": false,
      "namePointing": false,
      "nillable": false,
      "permissionable": false,
      "picklistValues": false,
      "precision": false,
      "queryByDistance": false,
      "referenceTargetField": false,
      "referenceTo": false,
      "relationshipName": false,
      "relationshipOrder": false,
      "restrictedDelete": false,
      "restrictedPicklist": false,
      "scale": false,
      "soapType": false,
      "sortable": false,
      "type": false,
      "unique": false,
      "updateable": false,
      "writeRequiresMasterRead": false
    },
    "StandbyAfter__c": {
      "autoNumber": false,
      "byteLength": 0,
      "calculated": false,
      "calculatedFormula": false,
      "cascadeDelete": false,
      "caseSensitive": false,
      "controllerName": false,
      "createable": false,
      "custom": false,
      "defaultValue": false,
      "defaultValueFormula": null,
      "defaultedOnCreate": false,
      "dependentPicklist": false,
      "deprecatedAndHidden": false,
      "digits": 0,
      "displayLocationInDecimal": false,
      "externalId": false,
      "extraTypeInfo": false,
      "filterable": false,
      "filteredLookupInfo": false,
      "groupable": false,
      "htmlFormatted": false,
      "idLookup": false,
      "inlineHelpText": false,
      "label": false,
      "length": false,
      "mask": false,
      "maskType": false,
      "name": "StandbyAfter__c",
      "nameField": false,
      "namePointing": false,
      "nillable": false,
      "permissionable": false,
      "picklistValues": false,
      "precision": false,
      "queryByDistance": false,
      "referenceTargetField": false,
      "referenceTo": false,
      "relationshipName": false,
      "relationshipOrder": false,
      "restrictedDelete": false,
      "restrictedPicklist": false,
      "scale": false,
      "soapType": false,
      "sortable": false,
      "type": false,
      "unique": false,
      "updateable": false,
      "writeRequiresMasterRead": false
    },
    "StandbyBefore__c": {
      "autoNumber": false,
      "byteLength": 0,
      "calculated": false,
      "calculatedFormula": false,
      "cascadeDelete": false,
      "caseSensitive": false,
      "controllerName": false,
      "createable": false,
      "custom": false,
      "defaultValue": false,
      "defaultValueFormula": null,
      "defaultedOnCreate": false,
      "dependentPicklist": false,
      "deprecatedAndHidden": false,
      "digits": 0,
      "displayLocationInDecimal": false,
      "externalId": false,
      "extraTypeInfo": false,
      "filterable": false,
      "filteredLookupInfo": false,
      "groupable": false,
      "htmlFormatted": false,
      "idLookup": false,
      "inlineHelpText": false,
      "label": false,
      "length": false,
      "mask": false,
      "maskType": false,
      "name": "StandbyBefore__c",
      "nameField": false,
      "namePointing": false,
      "nillable": false,
      "permissionable": false,
      "picklistValues": false,
      "precision": false,
      "queryByDistance": false,
      "referenceTargetField": false,
      "referenceTo": false,
      "relationshipName": false,
      "relationshipOrder": false,
      "restrictedDelete": false,
      "restrictedPicklist": false,
      "scale": false,
      "soapType": false,
      "sortable": false,
      "type": false,
      "unique": false,
      "updateable": false,
      "writeRequiresMasterRead": false
    },
    "Week__c": {
      "autoNumber": false,
      "byteLength": 0,
      "calculated": false,
      "calculatedFormula": false,
      "cascadeDelete": false,
      "caseSensitive": false,
      "controllerName": false,
      "createable": false,
      "custom": false,
      "defaultValue": false,
      "defaultValueFormula": null,
      "defaultedOnCreate": false,
      "dependentPicklist": false,
      "deprecatedAndHidden": false,
      "digits": 0,
      "displayLocationInDecimal": false,
      "externalId": false,
      "extraTypeInfo": false,
      "filterable": false,
      "filteredLookupInfo": false,
      "groupable": false,
      "htmlFormatted": false,
      "idLookup": false,
      "inlineHelpText": false,
      "label": false,
      "length": false,
      "mask": false,
      "maskType": false,
      "name": "Week__c",
      "nameField": false,
      "namePointing": false,
      "nillable": false,
      "permissionable": false,
      "picklistValues": false,
      "precision": false,
      "queryByDistance": false,
      "referenceTargetField": false,
      "referenceTo": false,
      "relationshipName": false,
      "relationshipOrder": false,
      "restrictedDelete": false,
      "restrictedPicklist": false,
      "scale": false,
      "soapType": false,
      "sortable": false,
      "type": false,
      "unique": false,
      "updateable": false,
      "writeRequiresMasterRead": false
    },
    "util_breakend__c": {
      "autoNumber": false,
      "byteLength": 0,
      "calculated": false,
      "calculatedFormula": false,
      "cascadeDelete": false,
      "caseSensitive": false,
      "controllerName": false,
      "createable": false,
      "custom": false,
      "defaultValue": false,
      "defaultValueFormula": null,
      "defaultedOnCreate": false,
      "dependentPicklist": false,
      "deprecatedAndHidden": false,
      "digits": 0,
      "displayLocationInDecimal": false,
      "externalId": false,
      "extraTypeInfo": false,
      "filterable": false,
      "filteredLookupInfo": false,
      "groupable": false,
      "htmlFormatted": false,
      "idLookup": false,
      "inlineHelpText": false,
      "label": false,
      "length": false,
      "mask": false,
      "maskType": false,
      "name": "util_breakend__c",
      "nameField": false,
      "namePointing": false,
      "nillable": false,
      "permissionable": false,
      "picklistValues": false,
      "precision": false,
      "queryByDistance": false,
      "referenceTargetField": false,
      "referenceTo": false,
      "relationshipName": false,
      "relationshipOrder": false,
      "restrictedDelete": false,
      "restrictedPicklist": false,
      "scale": false,
      "soapType": false,
      "sortable": false,
      "type": false,
      "unique": false,
      "updateable": false,
      "writeRequiresMasterRead": false
    },
    "util_breakstart__c": {
      "autoNumber": false,
      "byteLength": 0,
      "calculated": false,
      "calculatedFormula": false,
      "cascadeDelete": false,
      "caseSensitive": false,
      "controllerName": false,
      "createable": false,
      "custom": false,
      "defaultValue": false,
      "defaultValueFormula": null,
      "defaultedOnCreate": false,
      "dependentPicklist": false,
      "deprecatedAndHidden": false,
      "digits": 0,
      "displayLocationInDecimal": false,
      "externalId": false,
      "extraTypeInfo": false,
      "filterable": false,
      "filteredLookupInfo": false,
      "groupable": false,
      "htmlFormatted": false,
      "idLookup": false,
      "inlineHelpText": false,
      "label": false,
      "length": false,
      "mask": false,
      "maskType": false,
      "name": "util_breakstart__c",
      "nameField": false,
      "namePointing": false,
      "nillable": false,
      "permissionable": false,
      "picklistValues": false,
      "precision": false,
      "queryByDistance": false,
      "referenceTargetField": false,
      "referenceTo": false,
      "relationshipName": false,
      "relationshipOrder": false,
      "restrictedDelete": false,
      "restrictedPicklist": false,
      "scale": false,
      "soapType": false,
      "sortable": false,
      "type": false,
      "unique": false,
      "updateable": false,
      "writeRequiresMasterRead": false
    },
    "util_end__c": {
      "autoNumber": false,
      "byteLength": 0,
      "calculated": false,
      "calculatedFormula": false,
      "cascadeDelete": false,
      "caseSensitive": false,
      "controllerName": false,
      "createable": false,
      "custom": false,
      "defaultValue": false,
      "defaultValueFormula": null,
      "defaultedOnCreate": false,
      "dependentPicklist": false,
      "deprecatedAndHidden": false,
      "digits": 0,
      "displayLocationInDecimal": false,
      "externalId": false,
      "extraTypeInfo": false,
      "filterable": false,
      "filteredLookupInfo": false,
      "groupable": false,
      "htmlFormatted": false,
      "idLookup": false,
      "inlineHelpText": false,
      "label": false,
      "length": false,
      "mask": false,
      "maskType": false,
      "name": "util_end__c",
      "nameField": false,
      "namePointing": false,
      "nillable": false,
      "permissionable": false,
      "picklistValues": false,
      "precision": false,
      "queryByDistance": false,
      "referenceTargetField": false,
      "referenceTo": false,
      "relationshipName": false,
      "relationshipOrder": false,
      "restrictedDelete": false,
      "restrictedPicklist": false,
      "scale": false,
      "soapType": false,
      "sortable": false,
      "type": false,
      "unique": false,
      "updateable": false,
      "writeRequiresMasterRead": false
    },
    "util_standby_total__c": {
      "autoNumber": false,
      "byteLength": 0,
      "calculated": false,
      "calculatedFormula": false,
      "cascadeDelete": false,
      "caseSensitive": false,
      "controllerName": false,
      "createable": false,
      "custom": false,
      "defaultValue": false,
      "defaultValueFormula": null,
      "defaultedOnCreate": false,
      "dependentPicklist": false,
      "deprecatedAndHidden": false,
      "digits": 0,
      "displayLocationInDecimal": false,
      "externalId": false,
      "extraTypeInfo": false,
      "filterable": false,
      "filteredLookupInfo": false,
      "groupable": false,
      "htmlFormatted": false,
      "idLookup": false,
      "inlineHelpText": false,
      "label": false,
      "length": false,
      "mask": false,
      "maskType": false,
      "name": "util_standby_total__c",
      "nameField": false,
      "namePointing": false,
      "nillable": false,
      "permissionable": false,
      "picklistValues": false,
      "precision": false,
      "queryByDistance": false,
      "referenceTargetField": false,
      "referenceTo": false,
      "relationshipName": false,
      "relationshipOrder": false,
      "restrictedDelete": false,
      "restrictedPicklist": false,
      "scale": false,
      "soapType": false,
      "sortable": false,
      "type": false,
      "unique": false,
      "updateable": false,
      "writeRequiresMasterRead": false
    },
    "util_standbyafter__c": {
      "autoNumber": false,
      "byteLength": 0,
      "calculated": false,
      "calculatedFormula": false,
      "cascadeDelete": false,
      "caseSensitive": false,
      "controllerName": false,
      "createable": false,
      "custom": false,
      "defaultValue": false,
      "defaultValueFormula": null,
      "defaultedOnCreate": false,
      "dependentPicklist": false,
      "deprecatedAndHidden": false,
      "digits": 0,
      "displayLocationInDecimal": false,
      "externalId": false,
      "extraTypeInfo": false,
      "filterable": false,
      "filteredLookupInfo": false,
      "groupable": false,
      "htmlFormatted": false,
      "idLookup": false,
      "inlineHelpText": false,
      "label": false,
      "length": false,
      "mask": false,
      "maskType": false,
      "name": "util_standbyafter__c",
      "nameField": false,
      "namePointing": false,
      "nillable": false,
      "permissionable": false,
      "picklistValues": false,
      "precision": false,
      "queryByDistance": false,
      "referenceTargetField": false,
      "referenceTo": false,
      "relationshipName": false,
      "relationshipOrder": false,
      "restrictedDelete": false,
      "restrictedPicklist": false,
      "scale": false,
      "soapType": false,
      "sortable": false,
      "type": false,
      "unique": false,
      "updateable": false,
      "writeRequiresMasterRead": false
    },
    "util_standbybefore__c": {
      "autoNumber": false,
      "byteLength": 0,
      "calculated": false,
      "calculatedFormula": false,
      "cascadeDelete": false,
      "caseSensitive": false,
      "controllerName": false,
      "createable": false,
      "custom": false,
      "defaultValue": false,
      "defaultValueFormula": null,
      "defaultedOnCreate": false,
      "dependentPicklist": false,
      "deprecatedAndHidden": false,
      "digits": 0,
      "displayLocationInDecimal": false,
      "externalId": false,
      "extraTypeInfo": false,
      "filterable": false,
      "filteredLookupInfo": false,
      "groupable": false,
      "htmlFormatted": false,
      "idLookup": false,
      "inlineHelpText": false,
      "label": false,
      "length": false,
      "mask": false,
      "maskType": false,
      "name": "util_standbybefore__c",
      "nameField": false,
      "namePointing": false,
      "nillable": false,
      "permissionable": false,
      "picklistValues": false,
      "precision": false,
      "queryByDistance": false,
      "referenceTargetField": false,
      "referenceTo": false,
      "relationshipName": false,
      "relationshipOrder": false,
      "restrictedDelete": false,
      "restrictedPicklist": false,
      "scale": false,
      "soapType": false,
      "sortable": false,
      "type": false,
      "unique": false,
      "updateable": false,
      "writeRequiresMasterRead": false
    },
    "util_start__c": {
      "autoNumber": false,
      "byteLength": 0,
      "calculated": false,
      "calculatedFormula": false,
      "cascadeDelete": false,
      "caseSensitive": false,
      "controllerName": false,
      "createable": false,
      "custom": false,
      "defaultValue": false,
      "defaultValueFormula": null,
      "defaultedOnCreate": false,
      "dependentPicklist": false,
      "deprecatedAndHidden": false,
      "digits": 0,
      "displayLocationInDecimal": false,
      "externalId": false,
      "extraTypeInfo": false,
      "filterable": false,
      "filteredLookupInfo": false,
      "groupable": false,
      "htmlFormatted": false,
      "idLookup": false,
      "inlineHelpText": false,
      "label": false,
      "length": false,
      "mask": false,
      "maskType": false,
      "name": "util_start__c",
      "nameField": false,
      "namePointing": false,
      "nillable": false,
      "permissionable": false,
      "picklistValues": false,
      "precision": false,
      "queryByDistance": false,
      "referenceTargetField": false,
      "referenceTo": false,
      "relationshipName": false,
      "relationshipOrder": false,
      "restrictedDelete": false,
      "restrictedPicklist": false,
      "scale": false,
      "soapType": false,
      "sortable": false,
      "type": false,
      "unique": false,
      "updateable": false,
      "writeRequiresMasterRead": false
    }
  }
}
